{
  "instance": "10_5_0.3l.json",
  "comments": "solution by BAP and CSP formulations",
  "objective": 460.82029245414327,
  "bap_objective": 464.0,
  "csp_objective": 457.6405849082866,
  "products": [
    {
      "id": 1195,
      "type": "output",
      "source_block_id": 1187,
      "dest_block_id": 5003,
      "crane": 0,
      "start_time": 21.299999237060543,
      "end_time": 58.29999923706055,
      "source_cor": "(38,5,2)",
      "dest_cor": "(1,21,0)"
    },
    {
      "id": 1500,
      "type": "input",
      "source_block_id": 5140,
      "dest_block_id": 1716,
      "crane": 0,
      "start_time": 142.29999923706077,
      "end_time": 186.29999923706077,
      "source_cor": "(0,19,0)",
      "dest_cor": "(44,7,1)"
    },
    {
      "id": 1501,
      "type": "input",
      "source_block_id": 5095,
      "dest_block_id": 28,
      "crane": 1,
      "start_time": 186.2999992370609,
      "end_time": 227.2999992370609,
      "source_cor": "(47,21,0)",
      "dest_cor": "(6,1,3)"
    },
    {
      "id": 1502,
      "type": "input",
      "source_block_id": 5066,
      "dest_block_id": 406,
      "crane": 0,
      "start_time": 6.099999904632567,
      "end_time": 8.099999904632567,
      "source_cor": "(33,0,0)",
      "dest_cor": "(32,2,1)"
    },
    {
      "id": 1503,
      "type": "input",
      "source_block_id": 5090,
      "dest_block_id": 2351,
      "crane": 1,
      "start_time": 26.39999961853067,
      "end_time": 50.39999961853067,
      "source_cor": "(45,0,0)",
      "dest_cor": "(21,10,1)"
    },
    {
      "id": 1504,
      "type": "input",
      "source_block_id": 5030,
      "dest_block_id": 3921,
      "crane": 1,
      "start_time": 236.29999923706282,
      "end_time": 256.2999992370628,
      "source_cor": "(15,0,0)",
      "dest_cor": "(35,16,1)"
    },
    {
      "id": 1505,
      "type": "input",
      "source_block_id": 5042,
      "dest_block_id": 4702,
      "crane": 1,
      "start_time": 60.39999961853258,
      "end_time": 80.39999961853258,
      "source_cor": "(21,0,0)",
      "dest_cor": "(41,19,2)"
    },
    {
      "id": 1506,
      "type": "input",
      "source_block_id": 5094,
      "dest_block_id": 489,
      "crane": 1,
      "start_time": 18.39999961853027,
      "end_time": 22.39999961853027,
      "source_cor": "(47,0,0)",
      "dest_cor": "(48,2,4)"
    },
    {
      "id": 1507,
      "type": "input",
      "source_block_id": 5103,
      "dest_block_id": 2318,
      "crane": 1,
      "start_time": 94.29999923706077,
      "end_time": 131.29999923706077,
      "source_cor": "(51,21,0)",
      "dest_cor": "(14,10,3)"
    },
    {
      "id": 1508,
      "type": "input",
      "source_block_id": 5128,
      "dest_block_id": 4185,
      "crane": 0,
      "start_time": 66.29999923706066,
      "end_time": 104.29999923706066,
      "source_cor": "(0,13,0)",
      "dest_cor": "(38,17,0)"
    }
  ]
}