{
  "instance": "10_1_0.7l.json",
  "comments": "solution by BAP and CSP formulations",
  "objective": 141.21801938115286,
  "bap_objective": 11.0,
  "csp_objective": 271.4360387623057,
  "products": [
    {
      "id": 391,
      "type": "output",
      "source_block_id": 166,
      "dest_block_id": 1080,
      "crane": 1,
      "start_time": 96.5,
      "end_time": 119.5,
      "source_cor": "(17,4,0)",
      "dest_cor": "(40,0,0)"
    },
    {
      "id": 700,
      "type": "input",
      "source_block_id": 1028,
      "dest_block_id": 0,
      "crane": 0,
      "start_time": 1.5,
      "end_time": 14.5,
      "source_cor": "(14,0,0)",
      "dest_cor": "(1,1,0)"
    },
    {
      "id": 701,
      "type": "input",
      "source_block_id": 1045,
      "dest_block_id": 594,
      "crane": 1,
      "start_time": 140.5,
      "end_time": 163.5,
      "source_cor": "(22,21,0)",
      "dest_cor": "(45,12,0)"
    },
    {
      "id": 702,
      "type": "input",
      "source_block_id": 1060,
      "dest_block_id": 5,
      "crane": 0,
      "start_time": 80.5,
      "end_time": 104.5,
      "source_cor": "(30,0,0)",
      "dest_cor": "(6,1,0)"
    },
    {
      "id": 703,
      "type": "input",
      "source_block_id": 1060,
      "dest_block_id": 986,
      "crane": 1,
      "start_time": 26.699999809265137,
      "end_time": 46.69999980926514,
      "source_cor": "(30,0,0)",
      "dest_cor": "(37,20,0)"
    },
    {
      "id": 704,
      "type": "input",
      "source_block_id": 1112,
      "dest_block_id": 689,
      "crane": 0,
      "start_time": 140.5,
      "end_time": 180.5,
      "source_cor": "(0,5,0)",
      "dest_cor": "(40,14,0)"
    },
    {
      "id": 705,
      "type": "input",
      "source_block_id": 1046,
      "dest_block_id": 130,
      "crane": 1,
      "start_time": 15.699999809265137,
      "end_time": 23.699999809265137,
      "source_cor": "(23,0,0)",
      "dest_cor": "(31,3,0)"
    },
    {
      "id": 706,
      "type": "input",
      "source_block_id": 1097,
      "dest_block_id": 379,
      "crane": 1,
      "start_time": 57.69999980926514,
      "end_time": 75.69999980926514,
      "source_cor": "(48,21,0)",
      "dest_cor": "(30,8,0)"
    },
    {
      "id": 707,
      "type": "input",
      "source_block_id": 1140,
      "dest_block_id": 758,
      "crane": 0,
      "start_time": 32.5,
      "end_time": 41.5,
      "source_cor": "(0,19,0)",
      "dest_cor": "(9,16,0)"
    },
    {
      "id": 708,
      "type": "input",
      "source_block_id": 1134,
      "dest_block_id": 21,
      "crane": 0,
      "start_time": 50.5,
      "end_time": 72.5,
      "source_cor": "(0,16,0)",
      "dest_cor": "(22,1,0)"
    }
  ]
}