{
  "instance": "10_5_0.7l.json",
  "comments": "solution by BAP and CSP formulations",
  "objective": 292.18836334685454,
  "bap_objective": 43.0,
  "csp_objective": 541.376726693709,
  "products": [
    {
      "id": 3056,
      "type": "output",
      "source_block_id": 3632,
      "dest_block_id": 5100,
      "crane": 1,
      "start_time": 32.0,
      "end_time": 55.0,
      "source_cor": "(27,15,2)",
      "dest_cor": "(50,0,0)"
    },
    {
      "id": 3094,
      "type": "yard_movement",
      "source_block_id": 3633,
      "dest_block_id": 1554,
      "crane": 1,
      "start_time": 0.0,
      "end_time": 16.0,
      "source_cor": "(27,15,3)",
      "dest_cor": "(11,7,4)"
    },
    {
      "id": 3500,
      "type": "input",
      "source_block_id": 5089,
      "dest_block_id": 3614,
      "crane": 1,
      "start_time": 178.5,
      "end_time": 199.5,
      "source_cor": "(44,21,0)",
      "dest_cor": "(23,15,4)"
    },
    {
      "id": 3501,
      "type": "input",
      "source_block_id": 5089,
      "dest_block_id": 3613,
      "crane": 0,
      "start_time": 157.5,
      "end_time": 178.5,
      "source_cor": "(44,21,0)",
      "dest_cor": "(23,15,3)"
    },
    {
      "id": 3502,
      "type": "input",
      "source_block_id": 5138,
      "dest_block_id": 2534,
      "crane": 0,
      "start_time": 6.099999904632568,
      "end_time": 13.099999904632568,
      "source_cor": "(0,18,0)",
      "dest_cor": "(7,11,4)"
    },
    {
      "id": 3503,
      "type": "input",
      "source_block_id": 5122,
      "dest_block_id": 379,
      "crane": 1,
      "start_time": 110.5,
      "end_time": 136.5,
      "source_cor": "(0,10,0)",
      "dest_cor": "(26,2,4)"
    },
    {
      "id": 3504,
      "type": "input",
      "source_block_id": 5032,
      "dest_block_id": 2604,
      "crane": 0,
      "start_time": 199.5,
      "end_time": 210.5,
      "source_cor": "(16,0,0)",
      "dest_cor": "(21,11,4)"
    },
    {
      "id": 3505,
      "type": "input",
      "source_block_id": 5049,
      "dest_block_id": 159,
      "crane": 0,
      "start_time": 52.5,
      "end_time": 72.5,
      "source_cor": "(24,21,0)",
      "dest_cor": "(32,1,4)"
    },
    {
      "id": 3506,
      "type": "input",
      "source_block_id": 5114,
      "dest_block_id": 3419,
      "crane": 0,
      "start_time": 113.5,
      "end_time": 147.5,
      "source_cor": "(0,6,0)",
      "dest_cor": "(34,14,4)"
    },
    {
      "id": 3507,
      "type": "input",
      "source_block_id": 5136,
      "dest_block_id": 4869,
      "crane": 0,
      "start_time": 24.5,
      "end_time": 48.5,
      "source_cor": "(0,17,0)",
      "dest_cor": "(24,20,4)"
    },
    {
      "id": 3508,
      "type": "input",
      "source_block_id": 5094,
      "dest_block_id": 4019,
      "crane": 1,
      "start_time": 60.5,
      "end_time": 103.5,
      "source_cor": "(47,0,0)",
      "dest_cor": "(4,17,4)"
    }
  ]
}