{
  "instance": "10_3_0.7l.json",
  "comments": "solution by BAP and CSP formulations",
  "objective": 269.5101650795017,
  "bap_objective": 98.0,
  "csp_objective": 441.0203301590033,
  "products": [
    {
      "id": 57,
      "type": "output",
      "source_block_id": 2415,
      "dest_block_id": 3080,
      "crane": 1,
      "start_time": 182.09999990463126,
      "end_time": 216.09999990463126,
      "source_cor": "(6,17,0)",
      "dest_cor": "(40,0,0)"
    },
    {
      "id": 272,
      "type": "yard_movement",
      "source_block_id": 2416,
      "dest_block_id": 1354,
      "crane": 0,
      "start_time": 170.09999990463155,
      "end_time": 177.09999990463155,
      "source_cor": "(6,17,1)",
      "dest_cor": "(2,10,1)"
    },
    {
      "id": 1983,
      "type": "yard_movement",
      "source_block_id": 2417,
      "dest_block_id": 2249,
      "crane": 1,
      "start_time": 90.09999990463109,
      "end_time": 134.0999999046311,
      "source_cor": "(6,17,2)",
      "dest_cor": "(50,15,2)"
    },
    {
      "id": 2100,
      "type": "input",
      "source_block_id": 3139,
      "dest_block_id": 1466,
      "crane": 1,
      "start_time": 137.09999990463115,
      "end_time": 149.09999990463115,
      "source_cor": "(51,18,0)",
      "dest_cor": "(39,10,2)"
    },
    {
      "id": 2101,
      "type": "input",
      "source_block_id": 3134,
      "dest_block_id": 1465,
      "crane": 0,
      "start_time": 98.09999990463153,
      "end_time": 137.09999990463155,
      "source_cor": "(0,16,0)",
      "dest_cor": "(39,10,1)"
    },
    {
      "id": 2102,
      "type": "input",
      "source_block_id": 3034,
      "dest_block_id": 53,
      "crane": 0,
      "start_time": 6.099999904632567,
      "end_time": 8.099999904632567,
      "source_cor": "(17,0,0)",
      "dest_cor": "(18,1,2)"
    },
    {
      "id": 2103,
      "type": "input",
      "source_block_id": 3134,
      "dest_block_id": 1358,
      "crane": 0,
      "start_time": 26.09999990463263,
      "end_time": 32.099999904632625,
      "source_cor": "(0,16,0)",
      "dest_cor": "(3,10,2)"
    },
    {
      "id": 2104,
      "type": "input",
      "source_block_id": 3078,
      "dest_block_id": 11,
      "crane": 1,
      "start_time": 302.3000001365516,
      "end_time": 337.3000001365516,
      "source_cor": "(39,0,0)",
      "dest_cor": "(4,1,2)"
    },
    {
      "id": 2105,
      "type": "input",
      "source_block_id": 3099,
      "dest_block_id": 278,
      "crane": 1,
      "start_time": 15.699999809265133,
      "end_time": 34.69999980926514,
      "source_cor": "(49,21,0)",
      "dest_cor": "(43,2,2)"
    },
    {
      "id": 2106,
      "type": "input",
      "source_block_id": 3005,
      "dest_block_id": 1502,
      "crane": 0,
      "start_time": 83.09999990463191,
      "end_time": 93.09999990463191,
      "source_cor": "(2,21,0)",
      "dest_cor": "(1,11,2)"
    },
    {
      "id": 2107,
      "type": "input",
      "source_block_id": 3116,
      "dest_block_id": 1724,
      "crane": 0,
      "start_time": 35.099999904632625,
      "end_time": 60.099999904632625,
      "source_cor": "(0,7,0)",
      "dest_cor": "(25,12,2)"
    },
    {
      "id": 2108,
      "type": "input",
      "source_block_id": 3105,
      "dest_block_id": 1400,
      "crane": 1,
      "start_time": 42.69999980926535,
      "end_time": 76.69999980926535,
      "source_cor": "(51,1,0)",
      "dest_cor": "(17,10,2)"
    }
  ]
}