{
  "instance": "10_3_0.3l.json",
  "comments": "solution by BAP and CSP formulations",
  "objective": 147.6404352970394,
  "bap_objective": 0.0,
  "csp_objective": 295.2808705940788,
  "products": [
    {
      "id": 849,
      "type": "output",
      "source_block_id": 2679,
      "dest_block_id": 3061,
      "crane": 1,
      "start_time": 57.5,
      "end_time": 71.5,
      "source_cor": "(44,18,0)",
      "dest_cor": "(30,21,0)"
    },
    {
      "id": 900,
      "type": "input",
      "source_block_id": 3046,
      "dest_block_id": 762,
      "crane": 0,
      "start_time": 1.4999999999999996,
      "end_time": 19.5,
      "source_cor": "(23,0,0)",
      "dest_cor": "(5,6,0)"
    },
    {
      "id": 901,
      "type": "input",
      "source_block_id": 3005,
      "dest_block_id": 0,
      "crane": 0,
      "start_time": 172.82769900629634,
      "end_time": 192.82769900629634,
      "source_cor": "(2,21,0)",
      "dest_cor": "(1,1,0)"
    },
    {
      "id": 902,
      "type": "input",
      "source_block_id": 3050,
      "dest_block_id": 69,
      "crane": 1,
      "start_time": 6.099999904632567,
      "end_time": 7.099999904632567,
      "source_cor": "(25,0,0)",
      "dest_cor": "(24,1,0)"
    },
    {
      "id": 903,
      "type": "input",
      "source_block_id": 3110,
      "dest_block_id": 828,
      "crane": 0,
      "start_time": 24.5,
      "end_time": 51.5,
      "source_cor": "(0,4,0)",
      "dest_cor": "(27,6,0)"
    },
    {
      "id": 904,
      "type": "input",
      "source_block_id": 3136,
      "dest_block_id": 6,
      "crane": 0,
      "start_time": 416.5514037079713,
      "end_time": 432.5514037079713,
      "source_cor": "(0,17,0)",
      "dest_cor": "(3,1,0)"
    },
    {
      "id": 905,
      "type": "input",
      "source_block_id": 3020,
      "dest_block_id": 2649,
      "crane": 1,
      "start_time": 21.09999990463257,
      "end_time": 45.09999990463257,
      "source_cor": "(10,0,0)",
      "dest_cor": "(34,18,0)"
    },
    {
      "id": 906,
      "type": "input",
      "source_block_id": 3066,
      "dest_block_id": 1531,
      "crane": 0,
      "start_time": 57.5,
      "end_time": 79.5,
      "source_cor": "(33,0,0)",
      "dest_cor": "(11,11,1)"
    },
    {
      "id": 907,
      "type": "input",
      "source_block_id": 3134,
      "dest_block_id": 2187,
      "crane": 0,
      "start_time": 92.50000000000006,
      "end_time": 122.50000000000006,
      "source_cor": "(0,16,0)",
      "dest_cor": "(30,15,0)"
    },
    {
      "id": 908,
      "type": "input",
      "source_block_id": 3090,
      "dest_block_id": 84,
      "crane": 1,
      "start_time": 92.50000000000006,
      "end_time": 108.50000000000006,
      "source_cor": "(45,0,0)",
      "dest_cor": "(29,1,0)"
    }
  ]
}