{
  "instance": "10_1_0.5m.json",
  "comments": "solution by BAP and CSP formulations",
  "objective": 109.58753374020725,
  "bap_objective": 0.0,
  "csp_objective": 219.17506748041455,
  "products": [
    {
      "id": 182,
      "type": "output",
      "source_block_id": 416,
      "dest_block_id": 594,
      "crane": 1,
      "start_time": 59.09999990463257,
      "end_time": 63.09999990463257,
      "source_cor": "(32,12,0)",
      "dest_cor": "(34,16,0)"
    },
    {
      "id": 262,
      "type": "input",
      "source_block_id": 553,
      "dest_block_id": 497,
      "crane": 0,
      "start_time": 30.09999990463257,
      "end_time": 45.09999990463257,
      "source_cor": "(14,0,0)",
      "dest_cor": "(8,15,0)"
    },
    {
      "id": 263,
      "type": "input",
      "source_block_id": 562,
      "dest_block_id": 180,
      "crane": 0,
      "start_time": 3.0999999046325684,
      "end_time": 15.099999904632568,
      "source_cor": "(18,16,0)",
      "dest_cor": "(6,6,0)"
    },
    {
      "id": 264,
      "type": "input",
      "source_block_id": 585,
      "dest_block_id": 156,
      "crane": 1,
      "start_time": 6.099999904632568,
      "end_time": 19.09999990463257,
      "source_cor": "(30,0,0)",
      "dest_cor": "(17,5,0)"
    },
    {
      "id": 265,
      "type": "input",
      "source_block_id": 541,
      "dest_block_id": 117,
      "crane": 0,
      "start_time": 21.09999990463257,
      "end_time": 26.09999990463257,
      "source_cor": "(8,0,0)",
      "dest_cor": "(13,4,0)"
    },
    {
      "id": 266,
      "type": "input",
      "source_block_id": 583,
      "dest_block_id": 81,
      "crane": 1,
      "start_time": 79.09999990463257,
      "end_time": 96.09999990463257,
      "source_cor": "(29,0,0)",
      "dest_cor": "(12,3,0)"
    },
    {
      "id": 267,
      "type": "input",
      "source_block_id": 555,
      "dest_block_id": 228,
      "crane": 1,
      "start_time": 27.09999990463257,
      "end_time": 34.09999990463257,
      "source_cor": "(15,0,0)",
      "dest_cor": "(19,7,0)"
    },
    {
      "id": 268,
      "type": "input",
      "source_block_id": 559,
      "dest_block_id": 16,
      "crane": 1,
      "start_time": 24.09999990463257,
      "end_time": 25.09999990463257,
      "source_cor": "(17,0,0)",
      "dest_cor": "(17,1,0)"
    },
    {
      "id": 269,
      "type": "input",
      "source_block_id": 571,
      "dest_block_id": 446,
      "crane": 1,
      "start_time": 41.09999990463257,
      "end_time": 54.09999990463257,
      "source_cor": "(23,0,0)",
      "dest_cor": "(27,13,0)"
    },
    {
      "id": 270,
      "type": "input",
      "source_block_id": 553,
      "dest_block_id": 511,
      "crane": 0,
      "start_time": 60.09999990463257,
      "end_time": 75.09999990463257,
      "source_cor": "(14,0,0)",
      "dest_cor": "(22,15,0)"
    }
  ]
}