{
  "instance": "10_5_0.7m.json",
  "comments": "solution by BAP and CSP formulations",
  "objective": 239.13092257896676,
  "bap_objective": 59.0,
  "csp_objective": 419.2618451579336,
  "products": [
    {
      "id": 293,
      "type": "output",
      "source_block_id": 1821,
      "dest_block_id": 2644,
      "crane": 0,
      "start_time": 100.5,
      "end_time": 106.5,
      "source_cor": "(15,11,1)",
      "dest_cor": "(9,16,0)"
    },
    {
      "id": 309,
      "type": "yard_movement",
      "source_block_id": 1822,
      "dest_block_id": 2248,
      "crane": 1,
      "start_time": 85.5,
      "end_time": 100.5,
      "source_cor": "(15,11,2)",
      "dest_cor": "(30,13,3)"
    },
    {
      "id": 432,
      "type": "yard_movement",
      "source_block_id": 1823,
      "dest_block_id": 2149,
      "crane": 0,
      "start_time": 37.5,
      "end_time": 42.5,
      "source_cor": "(15,11,3)",
      "dest_cor": "(10,13,4)"
    },
    {
      "id": 1837,
      "type": "input",
      "source_block_id": 2630,
      "dest_block_id": 94,
      "crane": 0,
      "start_time": 3.0999999046325684,
      "end_time": 20.09999990463257,
      "source_cor": "(2,16,0)",
      "dest_cor": "(19,1,4)"
    },
    {
      "id": 1838,
      "type": "input",
      "source_block_id": 2659,
      "dest_block_id": 1134,
      "crane": 1,
      "start_time": 3.0999999046325684,
      "end_time": 10.099999904632568,
      "source_cor": "(17,0,0)",
      "dest_cor": "(17,7,4)"
    },
    {
      "id": 1839,
      "type": "input",
      "source_block_id": 2637,
      "dest_block_id": 2319,
      "crane": 0,
      "start_time": 79.5,
      "end_time": 93.5,
      "source_cor": "(6,0,0)",
      "dest_cor": "(9,14,4)"
    },
    {
      "id": 1840,
      "type": "input",
      "source_block_id": 2683,
      "dest_block_id": 2318,
      "crane": 1,
      "start_time": 59.5,
      "end_time": 79.5,
      "source_cor": "(29,0,0)",
      "dest_cor": "(9,14,3)"
    },
    {
      "id": 1841,
      "type": "input",
      "source_block_id": 2659,
      "dest_block_id": 1122,
      "crane": 0,
      "start_time": 24.09999990463257,
      "end_time": 31.09999990463257,
      "source_cor": "(17,0,0)",
      "dest_cor": "(15,7,2)"
    },
    {
      "id": 1842,
      "type": "input",
      "source_block_id": 2662,
      "dest_block_id": 1349,
      "crane": 1,
      "start_time": 43.5,
      "end_time": 51.5,
      "source_cor": "(18,16,0)",
      "dest_cor": "(25,8,4)"
    },
    {
      "id": 1843,
      "type": "input",
      "source_block_id": 2658,
      "dest_block_id": 878,
      "crane": 0,
      "start_time": 48.5,
      "end_time": 63.5,
      "source_cor": "(16,16,0)",
      "dest_cor": "(1,6,3)"
    },
    {
      "id": 1844,
      "type": "input",
      "source_block_id": 2683,
      "dest_block_id": 1484,
      "crane": 1,
      "start_time": 24.5,
      "end_time": 36.5,
      "source_cor": "(29,0,0)",
      "dest_cor": "(17,9,4)"
    },
    {
      "id": 1845,
      "type": "input",
      "source_block_id": 2728,
      "dest_block_id": 2109,
      "crane": 1,
      "start_time": 106.5,
      "end_time": 140.5,
      "source_cor": "(36,15,0)",
      "dest_cor": "(2,13,4)"
    }
  ]
}