{
  "instance": "10_5_0.3m.json",
  "comments": "solution by BAP and CSP formulations",
  "objective": 565.0875337402073,
  "bap_objective": 653.0,
  "csp_objective": 477.17506748041455,
  "products": [
    {
      "id": 499,
      "type": "output",
      "source_block_id": 1945,
      "dest_block_id": 2673,
      "crane": 0,
      "start_time": 81.09999990463257,
      "end_time": 100.09999990463257,
      "source_cor": "(5,12,0)",
      "dest_cor": "(24,0,0)"
    },
    {
      "id": 787,
      "type": "input",
      "source_block_id": 2719,
      "dest_block_id": 21,
      "crane": 0,
      "start_time": 6.099999904632568,
      "end_time": 16.09999990463257,
      "source_cor": "(0,11,0)",
      "dest_cor": "(5,1,1)"
    },
    {
      "id": 788,
      "type": "input",
      "source_block_id": 2723,
      "dest_block_id": 1681,
      "crane": 1,
      "start_time": 3.0999999046325684,
      "end_time": 25.09999990463257,
      "source_cor": "(0,13,0)",
      "dest_cor": "(22,10,1)"
    },
    {
      "id": 789,
      "type": "input",
      "source_block_id": 2727,
      "dest_block_id": 78,
      "crane": 0,
      "start_time": 40.09999990463257,
      "end_time": 56.09999990463257,
      "source_cor": "(0,15,0)",
      "dest_cor": "(16,1,3)"
    },
    {
      "id": 790,
      "type": "input",
      "source_block_id": 2637,
      "dest_block_id": 1286,
      "crane": 0,
      "start_time": 17.09999990463257,
      "end_time": 25.09999990463257,
      "source_cor": "(6,0,0)",
      "dest_cor": "(13,8,1)"
    },
    {
      "id": 791,
      "type": "input",
      "source_block_id": 2720,
      "dest_block_id": 571,
      "crane": 0,
      "start_time": 112.09999990463257,
      "end_time": 138.09999990463257,
      "source_cor": "(36,11,0)",
      "dest_cor": "(10,4,1)"
    },
    {
      "id": 792,
      "type": "input",
      "source_block_id": 2728,
      "dest_block_id": 2025,
      "crane": 1,
      "start_time": 69.09999990463257,
      "end_time": 84.09999990463257,
      "source_cor": "(36,15,0)",
      "dest_cor": "(21,12,0)"
    },
    {
      "id": 793,
      "type": "input",
      "source_block_id": 2728,
      "dest_block_id": 1817,
      "crane": 1,
      "start_time": 115.09999990463257,
      "end_time": 137.09999990463257,
      "source_cor": "(36,15,0)",
      "dest_cor": "(14,11,2)"
    },
    {
      "id": 794,
      "type": "input",
      "source_block_id": 2655,
      "dest_block_id": 2507,
      "crane": 0,
      "start_time": 59.09999990463257,
      "end_time": 74.09999990463257,
      "source_cor": "(15,0,0)",
      "dest_cor": "(12,15,2)"
    },
    {
      "id": 795,
      "type": "input",
      "source_block_id": 2639,
      "dest_block_id": 2080,
      "crane": 1,
      "start_time": 40.09999990463257,
      "end_time": 65.09999990463257,
      "source_cor": "(7,0,0)",
      "dest_cor": "(32,12,0)"
    }
  ]
}