{
  "instance": "10_5_0.5s.json",
  "comments": "solution by BAP and CSP formulations",
  "objective": 250.78746352657214,
  "bap_objective": 66.0,
  "csp_objective": 435.5749270531443,
  "products": [
    {
      "id": 69,
      "type": "output",
      "source_block_id": 885,
      "dest_block_id": 1311,
      "crane": 0,
      "start_time": 113.5,
      "end_time": 136.5,
      "source_cor": "(3,8,0)",
      "dest_cor": "(26,4,0)"
    },
    {
      "id": 138,
      "type": "yard_movement",
      "source_block_id": 886,
      "dest_block_id": 174,
      "crane": 0,
      "start_time": 94.5,
      "end_time": 101.5,
      "source_cor": "(3,8,1)",
      "dest_cor": "(10,2,4)"
    },
    {
      "id": 596,
      "type": "yard_movement",
      "source_block_id": 887,
      "dest_block_id": 3,
      "crane": 0,
      "start_time": 79.5,
      "end_time": 86.5,
      "source_cor": "(3,8,2)",
      "dest_cor": "(1,1,3)"
    },
    {
      "id": 625,
      "type": "input",
      "source_block_id": 1266,
      "dest_block_id": 263,
      "crane": 0,
      "start_time": 1.5,
      "end_time": 6.5,
      "source_cor": "(8,0,0)",
      "dest_cor": "(3,3,3)"
    },
    {
      "id": 626,
      "type": "input",
      "source_block_id": 1323,
      "dest_block_id": 183,
      "crane": 1,
      "start_time": 3.0999999046325684,
      "end_time": 17.09999990463257,
      "source_cor": "(26,10,0)",
      "dest_cor": "(12,2,3)"
    },
    {
      "id": 627,
      "type": "input",
      "source_block_id": 1259,
      "dest_block_id": 1049,
      "crane": 0,
      "start_time": 14.5,
      "end_time": 20.5,
      "source_cor": "(4,11,0)",
      "dest_cor": "(10,9,4)"
    },
    {
      "id": 628,
      "type": "input",
      "source_block_id": 1307,
      "dest_block_id": 424,
      "crane": 1,
      "start_time": 101.5,
      "end_time": 117.5,
      "source_cor": "(26,2,0)",
      "dest_cor": "(10,4,4)"
    },
    {
      "id": 629,
      "type": "input",
      "source_block_id": 1262,
      "dest_block_id": 108,
      "crane": 1,
      "start_time": 27.5,
      "end_time": 43.5,
      "source_cor": "(6,0,0)",
      "dest_cor": "(22,1,3)"
    },
    {
      "id": 630,
      "type": "input",
      "source_block_id": 1259,
      "dest_block_id": 953,
      "crane": 0,
      "start_time": 28.5,
      "end_time": 40.5,
      "source_cor": "(4,11,0)",
      "dest_cor": "(16,8,3)"
    },
    {
      "id": 631,
      "type": "input",
      "source_block_id": 1300,
      "dest_block_id": 278,
      "crane": 1,
      "start_time": 48.5,
      "end_time": 67.5,
      "source_cor": "(25,0,0)",
      "dest_cor": "(6,3,3)"
    },
    {
      "id": 632,
      "type": "input",
      "source_block_id": 1292,
      "dest_block_id": 14,
      "crane": 0,
      "start_time": 48.5,
      "end_time": 66.5,
      "source_cor": "(21,0,0)",
      "dest_cor": "(3,1,4)"
    },
    {
      "id": 633,
      "type": "input",
      "source_block_id": 1316,
      "dest_block_id": 623,
      "crane": 1,
      "start_time": 73.5,
      "end_time": 98.5,
      "source_cor": "(0,7,0)",
      "dest_cor": "(25,5,3)"
    }
  ]
}