{
  "instance": "10_1_0.5s.json",
  "comments": "solution by BAP and CSP formulations",
  "objective": 114.6272649695623,
  "bap_objective": 0.0,
  "csp_objective": 229.2545299391246,
  "products": [
    {
      "id": 73,
      "type": "output",
      "source_block_id": 187,
      "dest_block_id": 260,
      "crane": 0,
      "start_time": 26.699999809265137,
      "end_time": 34.69999980926514,
      "source_cor": "(13,8,0)",
      "dest_cor": "(5,0,0)"
    },
    {
      "id": 125,
      "type": "input",
      "source_block_id": 256,
      "dest_block_id": 1,
      "crane": 0,
      "start_time": 1.5,
      "end_time": 2.5,
      "source_cor": "(3,0,0)",
      "dest_cor": "(2,1,0)"
    },
    {
      "id": 126,
      "type": "input",
      "source_block_id": 323,
      "dest_block_id": 238,
      "crane": 1,
      "start_time": 3.0999999046325684,
      "end_time": 15.099999904632568,
      "source_cor": "(26,10,0)",
      "dest_cor": "(14,10,0)"
    },
    {
      "id": 127,
      "type": "input",
      "source_block_id": 285,
      "dest_block_id": 248,
      "crane": 1,
      "start_time": 18.09999990463257,
      "end_time": 25.09999990463257,
      "source_cor": "(17,11,0)",
      "dest_cor": "(24,10,0)"
    },
    {
      "id": 128,
      "type": "input",
      "source_block_id": 299,
      "dest_block_id": 62,
      "crane": 1,
      "start_time": 26.699999809265137,
      "end_time": 37.69999980926514,
      "source_cor": "(24,11,0)",
      "dest_cor": "(13,3,0)"
    },
    {
      "id": 129,
      "type": "input",
      "source_block_id": 255,
      "dest_block_id": 90,
      "crane": 0,
      "start_time": 75.69999980926514,
      "end_time": 89.69999980926514,
      "source_cor": "(2,11,0)",
      "dest_cor": "(16,4,0)"
    },
    {
      "id": 130,
      "type": "input",
      "source_block_id": 264,
      "dest_block_id": 54,
      "crane": 0,
      "start_time": 15.699999809265137,
      "end_time": 18.699999809265137,
      "source_cor": "(7,0,0)",
      "dest_cor": "(5,3,0)"
    },
    {
      "id": 131,
      "type": "input",
      "source_block_id": 307,
      "dest_block_id": 59,
      "crane": 1,
      "start_time": 52.69999980926514,
      "end_time": 68.69999980926514,
      "source_cor": "(26,2,0)",
      "dest_cor": "(10,3,0)"
    },
    {
      "id": 132,
      "type": "input",
      "source_block_id": 258,
      "dest_block_id": 8,
      "crane": 0,
      "start_time": 35.69999980926514,
      "end_time": 40.69999980926514,
      "source_cor": "(4,0,0)",
      "dest_cor": "(9,1,0)"
    },
    {
      "id": 133,
      "type": "input",
      "source_block_id": 292,
      "dest_block_id": 175,
      "crane": 0,
      "start_time": 52.69999980926514,
      "end_time": 72.69999980926514,
      "source_cor": "(21,0,0)",
      "dest_cor": "(1,8,0)"
    }
  ]
}