{
  "instance": "20_3_0.5s.json",
  "comments": "solution by BAP and CSP formulations",
  "objective": 799.1316737984077,
  "bap_objective": 164.0,
  "csp_objective": 1434.263347596816,
  "products": [
    {
      "id": 76,
      "type": "output",
      "source_block_id": 693,
      "dest_block_id": 819,
      "crane": 0,
      "start_time": 130.0999999046347,
      "end_time": 149.0999999046347,
      "source_cor": "(7,10,0)",
      "dest_cor": "(26,8,0)"
    },
    {
      "id": 141,
      "type": "output",
      "source_block_id": 57,
      "dest_block_id": 820,
      "crane": 0,
      "start_time": 156.09999990463507,
      "end_time": 176.09999990463507,
      "source_cor": "(20,1,0)",
      "dest_cor": "(0,9,0)"
    },
    {
      "id": 366,
      "type": "yard_movement",
      "source_block_id": 694,
      "dest_block_id": 467,
      "crane": 1,
      "start_time": 74.09999990463355,
      "end_time": 77.09999990463355,
      "source_cor": "(7,10,1)",
      "dest_cor": "(6,7,2)"
    },
    {
      "id": 375,
      "type": "input",
      "source_block_id": 766,
      "dest_block_id": 649,
      "crane": 1,
      "start_time": 37.09999990463268,
      "end_time": 46.09999990463268,
      "source_cor": "(8,0,0)",
      "dest_cor": "(17,9,1)"
    },
    {
      "id": 376,
      "type": "input",
      "source_block_id": 786,
      "dest_block_id": 648,
      "crane": 0,
      "start_time": 3.0999999046325675,
      "end_time": 12.099999904632568,
      "source_cor": "(18,0,0)",
      "dest_cor": "(17,9,0)"
    },
    {
      "id": 377,
      "type": "input",
      "source_block_id": 807,
      "dest_block_id": 166,
      "crane": 1,
      "start_time": 14.099999904632199,
      "end_time": 34.0999999046322,
      "source_cor": "(26,2,0)",
      "dest_cor": "(6,3,1)"
    },
    {
      "id": 378,
      "type": "input",
      "source_block_id": 787,
      "dest_block_id": 335,
      "crane": 0,
      "start_time": 14.099999904632796,
      "end_time": 20.099999904632796,
      "source_cor": "(18,11,0)",
      "dest_cor": "(12,5,2)"
    },
    {
      "id": 379,
      "type": "input",
      "source_block_id": 822,
      "dest_block_id": 499,
      "crane": 1,
      "start_time": 83.09999990463218,
      "end_time": 100.09999990463218,
      "source_cor": "(0,10,0)",
      "dest_cor": "(17,7,1)"
    },
    {
      "id": 380,
      "type": "input",
      "source_block_id": 786,
      "dest_block_id": 378,
      "crane": 0,
      "start_time": 60.099999904633364,
      "end_time": 76.09999990463336,
      "source_cor": "(18,0,0)",
      "dest_cor": "(2,6,0)"
    },
    {
      "id": 381,
      "type": "input",
      "source_block_id": 810,
      "dest_block_id": 379,
      "crane": 0,
      "start_time": 86.0999999046326,
      "end_time": 88.0999999046326,
      "source_cor": "(0,4,0)",
      "dest_cor": "(2,6,1)"
    },
    {
      "id": 382,
      "type": "input",
      "source_block_id": 762,
      "dest_block_id": 40,
      "crane": 0,
      "start_time": 48.09999990463291,
      "end_time": 56.09999990463291,
      "source_cor": "(6,0,0)",
      "dest_cor": "(14,1,1)"
    },
    {
      "id": 383,
      "type": "input",
      "source_block_id": 757,
      "dest_block_id": 16,
      "crane": 0,
      "start_time": 37.09999990463268,
      "end_time": 47.09999990463268,
      "source_cor": "(3,11,0)",
      "dest_cor": "(6,1,1)"
    },
    {
      "id": 384,
      "type": "input",
      "source_block_id": 812,
      "dest_block_id": 17,
      "crane": 0,
      "start_time": 90.09999990463311,
      "end_time": 96.09999990463311,
      "source_cor": "(0,5,0)",
      "dest_cor": "(6,1,2)"
    },
    {
      "id": 385,
      "type": "input",
      "source_block_id": 796,
      "dest_block_id": 500,
      "crane": 1,
      "start_time": 130.09999990463425,
      "end_time": 137.09999990463425,
      "source_cor": "(23,0,0)",
      "dest_cor": "(17,7,2)"
    },
    {
      "id": 386,
      "type": "input",
      "source_block_id": 795,
      "dest_block_id": 653,
      "crane": 1,
      "start_time": 51.099999904634046,
      "end_time": 55.099999904634046,
      "source_cor": "(22,11,0)",
      "dest_cor": "(18,9,2)"
    },
    {
      "id": 387,
      "type": "input",
      "source_block_id": 756,
      "dest_block_id": 44,
      "crane": 0,
      "start_time": 99.09999990463356,
      "end_time": 111.09999990463356,
      "source_cor": "(3,0,0)",
      "dest_cor": "(15,1,2)"
    },
    {
      "id": 388,
      "type": "input",
      "source_block_id": 799,
      "dest_block_id": 709,
      "crane": 1,
      "start_time": 107.09999990463356,
      "end_time": 119.09999990463356,
      "source_cor": "(24,11,0)",
      "dest_cor": "(12,10,1)"
    },
    {
      "id": 389,
      "type": "input",
      "source_block_id": 807,
      "dest_block_id": 710,
      "crane": 1,
      "start_time": 156.09999990463552,
      "end_time": 170.09999990463552,
      "source_cor": "(26,2,0)",
      "dest_cor": "(12,10,2)"
    },
    {
      "id": 390,
      "type": "input",
      "source_block_id": 783,
      "dest_block_id": 89,
      "crane": 1,
      "start_time": 174.0999999046369,
      "end_time": 185.0999999046369,
      "source_cor": "(16,11,0)",
      "dest_cor": "(5,2,2)"
    },
    {
      "id": 391,
      "type": "input",
      "source_block_id": 759,
      "dest_block_id": 311,
      "crane": 0,
      "start_time": 187.09999990463734,
      "end_time": 193.09999990463734,
      "source_cor": "(4,11,0)",
      "dest_cor": "(4,5,2)"
    },
    {
      "id": 392,
      "type": "input",
      "source_block_id": 816,
      "dest_block_id": 598,
      "crane": 0,
      "start_time": 197.0999999046378,
      "end_time": 222.0999999046378,
      "source_cor": "(0,7,0)",
      "dest_cor": "(25,8,1)"
    }
  ]
}