{
  "instance": "30_3_0.7m.json",
  "comments": "solution by BAP and CSP formulations",
  "objective": 1882.6888536897575,
  "bap_objective": 371.0,
  "csp_objective": 3394.377707379524,
  "products": [
    {
      "id": 204,
      "type": "output",
      "source_block_id": 532,
      "dest_block_id": 1630,
      "crane": 0,
      "start_time": 390.7000007629248,
      "end_time": 414.7000007629248,
      "source_cor": "(3,6,1)",
      "dest_cor": "(27,16,0)"
    },
    {
      "id": 298,
      "type": "output",
      "source_block_id": 216,
      "dest_block_id": 1615,
      "crane": 1,
      "start_time": 52.70000076293944,
      "end_time": 69.70000076293944,
      "source_cor": "(3,3,0)",
      "dest_cor": "(20,0,0)"
    },
    {
      "id": 403,
      "type": "output",
      "source_block_id": 1375,
      "dest_block_id": 1668,
      "crane": 1,
      "start_time": 305.7000007629248,
      "end_time": 337.7000007629248,
      "source_cor": "(4,14,1)",
      "dest_cor": "(36,10,0)"
    },
    {
      "id": 943,
      "type": "yard_movement",
      "source_block_id": 1376,
      "dest_block_id": 20,
      "crane": 1,
      "start_time": 224.7000007629266,
      "end_time": 237.7000007629266,
      "source_cor": "(4,14,2)",
      "dest_cor": "(7,1,2)"
    },
    {
      "id": 1102,
      "type": "input",
      "source_block_id": 1604,
      "dest_block_id": 549,
      "crane": 0,
      "start_time": 1.4999999999999996,
      "end_time": 11.5,
      "source_cor": "(14,16,0)",
      "dest_cor": "(9,6,0)"
    },
    {
      "id": 1103,
      "type": "input",
      "source_block_id": 1587,
      "dest_block_id": 311,
      "crane": 0,
      "start_time": 310.7000007629248,
      "end_time": 338.7000007629248,
      "source_cor": "(6,0,0)",
      "dest_cor": "(34,3,2)"
    },
    {
      "id": 1104,
      "type": "input",
      "source_block_id": 1610,
      "dest_block_id": 539,
      "crane": 1,
      "start_time": 8.499999999997263,
      "end_time": 20.499999999997264,
      "source_cor": "(17,16,0)",
      "dest_cor": "(5,6,2)"
    },
    {
      "id": 1105,
      "type": "input",
      "source_block_id": 1586,
      "dest_block_id": 851,
      "crane": 0,
      "start_time": 41.49999999999409,
      "end_time": 48.49999999999409,
      "source_cor": "(5,16,0)",
      "dest_cor": "(4,9,2)"
    },
    {
      "id": 1106,
      "type": "input",
      "source_block_id": 1607,
      "dest_block_id": 1169,
      "crane": 0,
      "start_time": 131.70000076292223,
      "end_time": 143.70000076292223,
      "source_cor": "(16,0,0)",
      "dest_cor": "(5,12,2)"
    },
    {
      "id": 1107,
      "type": "input",
      "source_block_id": 1657,
      "dest_block_id": 1487,
      "crane": 0,
      "start_time": 20.5,
      "end_time": 30.5,
      "source_cor": "(0,5,0)",
      "dest_cor": "(6,15,2)"
    },
    {
      "id": 1108,
      "type": "input",
      "source_block_id": 1582,
      "dest_block_id": 1175,
      "crane": 0,
      "start_time": 33.49999999999636,
      "end_time": 37.49999999999636,
      "source_cor": "(3,16,0)",
      "dest_cor": "(7,12,2)"
    },
    {
      "id": 1109,
      "type": "input",
      "source_block_id": 1635,
      "dest_block_id": 1571,
      "crane": 1,
      "start_time": 347.7000007629266,
      "end_time": 362.7000007629266,
      "source_cor": "(30,0,0)",
      "dest_cor": "(34,15,2)"
    },
    {
      "id": 1110,
      "type": "input",
      "source_block_id": 1595,
      "dest_block_id": 1018,
      "crane": 1,
      "start_time": 111.70000076292318,
      "end_time": 126.70000076292318,
      "source_cor": "(10,0,0)",
      "dest_cor": "(25,10,1)"
    },
    {
      "id": 1111,
      "type": "input",
      "source_block_id": 1625,
      "dest_block_id": 44,
      "crane": 0,
      "start_time": 77.70000076293445,
      "end_time": 87.70000076293445,
      "source_cor": "(25,0,0)",
      "dest_cor": "(15,1,2)"
    },
    {
      "id": 1112,
      "type": "input",
      "source_block_id": 1620,
      "dest_block_id": 371,
      "crane": 0,
      "start_time": 255.7000007629266,
      "end_time": 267.7000007629266,
      "source_cor": "(22,16,0)",
      "dest_cor": "(19,4,2)"
    },
    {
      "id": 1113,
      "type": "input",
      "source_block_id": 1614,
      "dest_block_id": 37,
      "crane": 0,
      "start_time": 197.70000076292223,
      "end_time": 212.70000076292223,
      "source_cor": "(19,16,0)",
      "dest_cor": "(13,1,1)"
    },
    {
      "id": 1114,
      "type": "input",
      "source_block_id": 1665,
      "dest_block_id": 261,
      "crane": 0,
      "start_time": 52.70000076293942,
      "end_time": 70.70000076293942,
      "source_cor": "(0,9,0)",
      "dest_cor": "(18,3,0)"
    },
    {
      "id": 1115,
      "type": "input",
      "source_block_id": 1589,
      "dest_block_id": 1019,
      "crane": 0,
      "start_time": 230.70000076290614,
      "end_time": 248.70000076290614,
      "source_cor": "(7,0,0)",
      "dest_cor": "(25,10,2)"
    },
    {
      "id": 1116,
      "type": "input",
      "source_block_id": 1621,
      "dest_block_id": 262,
      "crane": 1,
      "start_time": 98.700000762925,
      "end_time": 103.700000762925,
      "source_cor": "(23,0,0)",
      "dest_cor": "(18,3,1)"
    },
    {
      "id": 1117,
      "type": "input",
      "source_block_id": 1650,
      "dest_block_id": 413,
      "crane": 1,
      "start_time": 85.70000076293755,
      "end_time": 88.70000076293755,
      "source_cor": "(36,1,0)",
      "dest_cor": "(33,4,2)"
    },
    {
      "id": 1118,
      "type": "input",
      "source_block_id": 1652,
      "dest_block_id": 641,
      "crane": 1,
      "start_time": 266.7000007629266,
      "end_time": 298.7000007629266,
      "source_cor": "(36,2,0)",
      "dest_cor": "(4,7,2)"
    },
    {
      "id": 1119,
      "type": "input",
      "source_block_id": 1678,
      "dest_block_id": 443,
      "crane": 1,
      "start_time": 364.7000007629248,
      "end_time": 392.7000007629248,
      "source_cor": "(36,15,0)",
      "dest_cor": "(8,5,2)"
    },
    {
      "id": 1120,
      "type": "input",
      "source_block_id": 1591,
      "dest_block_id": 2,
      "crane": 0,
      "start_time": 103.70000076292231,
      "end_time": 110.70000076292231,
      "source_cor": "(8,0,0)",
      "dest_cor": "(1,1,2)"
    },
    {
      "id": 1121,
      "type": "input",
      "source_block_id": 1589,
      "dest_block_id": 161,
      "crane": 0,
      "start_time": 116.70000076292223,
      "end_time": 128.70000076292223,
      "source_cor": "(7,0,0)",
      "dest_cor": "(19,2,2)"
    },
    {
      "id": 1122,
      "type": "input",
      "source_block_id": 1611,
      "dest_block_id": 160,
      "crane": 0,
      "start_time": 90.70000076293445,
      "end_time": 92.70000076293445,
      "source_cor": "(18,0,0)",
      "dest_cor": "(19,2,1)"
    },
    {
      "id": 1123,
      "type": "input",
      "source_block_id": 1614,
      "dest_block_id": 1310,
      "crane": 1,
      "start_time": 132.700000762924,
      "end_time": 135.700000762924,
      "source_cor": "(19,16,0)",
      "dest_cor": "(17,13,2)"
    },
    {
      "id": 1124,
      "type": "input",
      "source_block_id": 1632,
      "dest_block_id": 887,
      "crane": 1,
      "start_time": 197.7000007629266,
      "end_time": 209.7000007629266,
      "source_cor": "(28,16,0)",
      "dest_cor": "(16,9,2)"
    },
    {
      "id": 1125,
      "type": "input",
      "source_block_id": 1652,
      "dest_block_id": 926,
      "crane": 1,
      "start_time": 177.70000076292223,
      "end_time": 184.70000076292223,
      "source_cor": "(36,2,0)",
      "dest_cor": "(29,9,2)"
    },
    {
      "id": 1126,
      "type": "input",
      "source_block_id": 1664,
      "dest_block_id": 491,
      "crane": 0,
      "start_time": 174.70000076292223,
      "end_time": 186.70000076292223,
      "source_cor": "(36,8,0)",
      "dest_cor": "(24,5,2)"
    },
    {
      "id": 1127,
      "type": "input",
      "source_block_id": 1635,
      "dest_block_id": 490,
      "crane": 1,
      "start_time": 149.7000007629236,
      "end_time": 155.7000007629236,
      "source_cor": "(30,0,0)",
      "dest_cor": "(24,5,1)"
    },
    {
      "id": 1128,
      "type": "input",
      "source_block_id": 1609,
      "dest_block_id": 919,
      "crane": 0,
      "start_time": 155.70000076292678,
      "end_time": 165.70000076292678,
      "source_cor": "(17,0,0)",
      "dest_cor": "(27,9,1)"
    }
  ]
}