{
  "instance": "30_1_0.5s.json",
  "comments": "solution by BAP and CSP formulations",
  "objective": 1698.5326747234956,
  "bap_objective": 98.0,
  "csp_objective": 3299.0653494469916,
  "products": [
    {
      "id": 5,
      "type": "output",
      "source_block_id": 67,
      "dest_block_id": 301,
      "crane": 1,
      "start_time": 214.6000003814611,
      "end_time": 222.6000003814611,
      "source_cor": "(18,3,0)",
      "dest_cor": "(25,11,0)"
    },
    {
      "id": 73,
      "type": "output",
      "source_block_id": 187,
      "dest_block_id": 260,
      "crane": 0,
      "start_time": 274.60000038145927,
      "end_time": 282.60000038145927,
      "source_cor": "(13,8,0)",
      "dest_cor": "(5,0,0)"
    },
    {
      "id": 112,
      "type": "output",
      "source_block_id": 16,
      "dest_block_id": 263,
      "crane": 1,
      "start_time": 112.60000038146279,
      "end_time": 123.60000038146279,
      "source_cor": "(17,1,0)",
      "dest_cor": "(6,11,0)"
    },
    {
      "id": 125,
      "type": "input",
      "source_block_id": 256,
      "dest_block_id": 227,
      "crane": 0,
      "start_time": 1.4999999999999996,
      "end_time": 11.5,
      "source_cor": "(3,0,0)",
      "dest_cor": "(3,10,0)"
    },
    {
      "id": 126,
      "type": "input",
      "source_block_id": 323,
      "dest_block_id": 88,
      "crane": 1,
      "start_time": 3.0999999046325675,
      "end_time": 15.099999904632568,
      "source_cor": "(26,10,0)",
      "dest_cor": "(14,4,0)"
    },
    {
      "id": 127,
      "type": "input",
      "source_block_id": 285,
      "dest_block_id": 92,
      "crane": 1,
      "start_time": 50.60000038146319,
      "end_time": 57.60000038146319,
      "source_cor": "(17,11,0)",
      "dest_cor": "(18,4,0)"
    },
    {
      "id": 128,
      "type": "input",
      "source_block_id": 299,
      "dest_block_id": 81,
      "crane": 0,
      "start_time": 223.600000381462,
      "end_time": 240.600000381462,
      "source_cor": "(24,11,0)",
      "dest_cor": "(7,4,0)"
    },
    {
      "id": 129,
      "type": "input",
      "source_block_id": 255,
      "dest_block_id": 208,
      "crane": 0,
      "start_time": 12.600000381469723,
      "end_time": 19.600000381469723,
      "source_cor": "(2,11,0)",
      "dest_cor": "(9,9,0)"
    },
    {
      "id": 130,
      "type": "input",
      "source_block_id": 264,
      "dest_block_id": 42,
      "crane": 1,
      "start_time": 24.600000381469727,
      "end_time": 35.60000038146973,
      "source_cor": "(7,0,0)",
      "dest_cor": "(18,2,0)"
    },
    {
      "id": 131,
      "type": "input",
      "source_block_id": 307,
      "dest_block_id": 238,
      "crane": 1,
      "start_time": 284.60000038145836,
      "end_time": 296.60000038145836,
      "source_cor": "(26,2,0)",
      "dest_cor": "(14,10,0)"
    },
    {
      "id": 132,
      "type": "input",
      "source_block_id": 258,
      "dest_block_id": 182,
      "crane": 0,
      "start_time": 28.600000381469723,
      "end_time": 36.60000038146973,
      "source_cor": "(4,0,0)",
      "dest_cor": "(8,8,0)"
    },
    {
      "id": 133,
      "type": "input",
      "source_block_id": 292,
      "dest_block_id": 234,
      "crane": 1,
      "start_time": 233.60000038145972,
      "end_time": 244.60000038145972,
      "source_cor": "(21,0,0)",
      "dest_cor": "(10,10,0)"
    },
    {
      "id": 134,
      "type": "input",
      "source_block_id": 278,
      "dest_block_id": 1,
      "crane": 1,
      "start_time": 186.600000381462,
      "end_time": 198.600000381462,
      "source_cor": "(14,0,0)",
      "dest_cor": "(2,1,0)"
    },
    {
      "id": 135,
      "type": "input",
      "source_block_id": 284,
      "dest_block_id": 186,
      "crane": 1,
      "start_time": 37.600000381467,
      "end_time": 45.600000381467,
      "source_cor": "(17,0,0)",
      "dest_cor": "(12,8,0)"
    },
    {
      "id": 136,
      "type": "input",
      "source_block_id": 312,
      "dest_block_id": 44,
      "crane": 1,
      "start_time": 132.6000003814629,
      "end_time": 152.6000003814629,
      "source_cor": "(0,5,0)",
      "dest_cor": "(20,2,0)"
    },
    {
      "id": 137,
      "type": "input",
      "source_block_id": 286,
      "dest_block_id": 54,
      "crane": 0,
      "start_time": 179.600000381462,
      "end_time": 192.600000381462,
      "source_cor": "(18,0,0)",
      "dest_cor": "(5,3,0)"
    },
    {
      "id": 138,
      "type": "input",
      "source_block_id": 310,
      "dest_block_id": 57,
      "crane": 0,
      "start_time": 135.6000003814629,
      "end_time": 143.6000003814629,
      "source_cor": "(0,4,0)",
      "dest_cor": "(8,3,0)"
    },
    {
      "id": 139,
      "type": "input",
      "source_block_id": 266,
      "dest_block_id": 192,
      "crane": 1,
      "start_time": 164.600000381462,
      "end_time": 174.600000381462,
      "source_cor": "(8,0,0)",
      "dest_cor": "(18,8,0)"
    },
    {
      "id": 140,
      "type": "input",
      "source_block_id": 307,
      "dest_block_id": 62,
      "crane": 1,
      "start_time": 85.600000381463,
      "end_time": 98.600000381463,
      "source_cor": "(26,2,0)",
      "dest_cor": "(13,3,0)"
    },
    {
      "id": 141,
      "type": "input",
      "source_block_id": 312,
      "dest_block_id": 248,
      "crane": 0,
      "start_time": 50.60000038146319,
      "end_time": 74.60000038146319,
      "source_cor": "(0,5,0)",
      "dest_cor": "(24,10,0)"
    },
    {
      "id": 142,
      "type": "input",
      "source_block_id": 261,
      "dest_block_id": 198,
      "crane": 0,
      "start_time": 312.60000038145836,
      "end_time": 331.60000038145836,
      "source_cor": "(5,11,0)",
      "dest_cor": "(24,8,0)"
    },
    {
      "id": 143,
      "type": "input",
      "source_block_id": 278,
      "dest_block_id": 232,
      "crane": 0,
      "start_time": 299.60000038145836,
      "end_time": 309.60000038145836,
      "source_cor": "(14,0,0)",
      "dest_cor": "(8,10,0)"
    },
    {
      "id": 144,
      "type": "input",
      "source_block_id": 266,
      "dest_block_id": 233,
      "crane": 0,
      "start_time": 146.6000003814629,
      "end_time": 156.6000003814629,
      "source_cor": "(8,0,0)",
      "dest_cor": "(9,10,0)"
    },
    {
      "id": 145,
      "type": "input",
      "source_block_id": 322,
      "dest_block_id": 184,
      "crane": 0,
      "start_time": 199.600000381462,
      "end_time": 209.600000381462,
      "source_cor": "(0,10,0)",
      "dest_cor": "(10,8,0)"
    },
    {
      "id": 146,
      "type": "input",
      "source_block_id": 256,
      "dest_block_id": 52,
      "crane": 0,
      "start_time": 123.60000038146289,
      "end_time": 126.60000038146289,
      "source_cor": "(3,0,0)",
      "dest_cor": "(3,3,0)"
    },
    {
      "id": 147,
      "type": "input",
      "source_block_id": 270,
      "dest_block_id": 90,
      "crane": 0,
      "start_time": 169.600000381462,
      "end_time": 175.600000381462,
      "source_cor": "(10,0,0)",
      "dest_cor": "(16,4,0)"
    },
    {
      "id": 148,
      "type": "input",
      "source_block_id": 266,
      "dest_block_id": 175,
      "crane": 0,
      "start_time": 245.60000038146063,
      "end_time": 253.60000038146063,
      "source_cor": "(8,0,0)",
      "dest_cor": "(1,8,0)"
    },
    {
      "id": 149,
      "type": "input",
      "source_block_id": 307,
      "dest_block_id": 59,
      "crane": 0,
      "start_time": 82.600000381463,
      "end_time": 98.600000381463,
      "source_cor": "(26,2,0)",
      "dest_cor": "(10,3,0)"
    },
    {
      "id": 150,
      "type": "input",
      "source_block_id": 292,
      "dest_block_id": 33,
      "crane": 1,
      "start_time": 255.60000038145927,
      "end_time": 267.60000038145927,
      "source_cor": "(21,0,0)",
      "dest_cor": "(9,2,0)"
    },
    {
      "id": 151,
      "type": "input",
      "source_block_id": 289,
      "dest_block_id": 8,
      "crane": 0,
      "start_time": 107.60000038146292,
      "end_time": 117.60000038146292,
      "source_cor": "(19,11,0)",
      "dest_cor": "(9,1,0)"
    }
  ]
}