{
  "instance": "30_5_0.7s.json",
  "comments": "solution by BAP and CSP formulations",
  "objective": 2624.4744145753784,
  "bap_objective": 756.0,
  "csp_objective": 4492.948829150757,
  "products": [
    {
      "id": 439,
      "type": "output",
      "source_block_id": 525,
      "dest_block_id": 1291,
      "crane": 1,
      "start_time": 460.2000007628943,
      "end_time": 474.2000007628943,
      "source_cor": "(6,5,0)",
      "dest_cor": "(20,11,0)"
    },
    {
      "id": 449,
      "type": "yard_movement",
      "source_block_id": 526,
      "dest_block_id": 3,
      "crane": 0,
      "start_time": 446.2000007628925,
      "end_time": 451.2000007628925,
      "source_cor": "(6,5,1)",
      "dest_cor": "(1,1,3)"
    },
    {
      "id": 699,
      "type": "output",
      "source_block_id": 522,
      "dest_block_id": 1309,
      "crane": 1,
      "start_time": 369.2000007628907,
      "end_time": 390.2000007628907,
      "source_cor": "(5,5,2)",
      "dest_cor": "(26,3,0)"
    },
    {
      "id": 710,
      "type": "output",
      "source_block_id": 954,
      "dest_block_id": 1265,
      "crane": 1,
      "start_time": 260.20000076288943,
      "end_time": 269.20000076288943,
      "source_cor": "(16,8,4)",
      "dest_cor": "(7,11,0)"
    },
    {
      "id": 820,
      "type": "yard_movement",
      "source_block_id": 523,
      "dest_block_id": 749,
      "crane": 1,
      "start_time": 325.2000007628907,
      "end_time": 345.2000007628907,
      "source_cor": "(5,5,3)",
      "dest_cor": "(25,6,4)"
    },
    {
      "id": 842,
      "type": "yard_movement",
      "source_block_id": 527,
      "dest_block_id": 1224,
      "crane": 1,
      "start_time": 432.2000007628925,
      "end_time": 446.2000007628925,
      "source_cor": "(6,5,2)",
      "dest_cor": "(20,10,4)"
    },
    {
      "id": 863,
      "type": "yard_movement",
      "source_block_id": 524,
      "dest_block_id": 14,
      "crane": 0,
      "start_time": 34.499999999991815,
      "end_time": 38.499999999991815,
      "source_cor": "(5,5,4)",
      "dest_cor": "(3,1,4)"
    },
    {
      "id": 875,
      "type": "input",
      "source_block_id": 1295,
      "dest_block_id": 709,
      "crane": 1,
      "start_time": 1.4999999999999996,
      "end_time": 6.5,
      "source_cor": "(22,11,0)",
      "dest_cor": "(17,6,4)"
    },
    {
      "id": 876,
      "type": "input",
      "source_block_id": 1264,
      "dest_block_id": 954,
      "crane": 1,
      "start_time": 413.2000007628907,
      "end_time": 422.2000007628907,
      "source_cor": "(7,0,0)",
      "dest_cor": "(16,8,4)"
    },
    {
      "id": 877,
      "type": "input",
      "source_block_id": 1278,
      "dest_block_id": 1084,
      "crane": 0,
      "start_time": 6.4999999999954525,
      "end_time": 15.499999999995453,
      "source_cor": "(14,0,0)",
      "dest_cor": "(17,9,4)"
    },
    {
      "id": 878,
      "type": "input",
      "source_block_id": 1299,
      "dest_block_id": 74,
      "crane": 1,
      "start_time": 13.5,
      "end_time": 23.5,
      "source_cor": "(24,11,0)",
      "dest_cor": "(15,1,4)"
    },
    {
      "id": 879,
      "type": "input",
      "source_block_id": 1296,
      "dest_block_id": 323,
      "crane": 1,
      "start_time": 72.2000007629199,
      "end_time": 80.2000007629199,
      "source_cor": "(23,0,0)",
      "dest_cor": "(15,3,3)"
    },
    {
      "id": 880,
      "type": "input",
      "source_block_id": 1268,
      "dest_block_id": 89,
      "crane": 1,
      "start_time": 51.49999999998698,
      "end_time": 60.49999999998698,
      "source_cor": "(9,0,0)",
      "dest_cor": "(18,1,4)"
    },
    {
      "id": 881,
      "type": "input",
      "source_block_id": 1312,
      "dest_block_id": 843,
      "crane": 1,
      "start_time": 188.20000076289773,
      "end_time": 207.20000076289773,
      "source_cor": "(0,5,0)",
      "dest_cor": "(19,7,3)"
    },
    {
      "id": 882,
      "type": "input",
      "source_block_id": 1307,
      "dest_block_id": 839,
      "crane": 1,
      "start_time": 34.499999999991815,
      "end_time": 42.499999999991815,
      "source_cor": "(26,2,0)",
      "dest_cor": "(18,7,4)"
    },
    {
      "id": 883,
      "type": "input",
      "source_block_id": 1255,
      "dest_block_id": 1213,
      "crane": 1,
      "start_time": 242.20000076289125,
      "end_time": 258.20000076289125,
      "source_cor": "(2,11,0)",
      "dest_cor": "(18,10,3)"
    },
    {
      "id": 884,
      "type": "input",
      "source_block_id": 1316,
      "dest_block_id": 114,
      "crane": 1,
      "start_time": 277.2000007628907,
      "end_time": 300.2000007628907,
      "source_cor": "(0,7,0)",
      "dest_cor": "(23,1,4)"
    },
    {
      "id": 885,
      "type": "input",
      "source_block_id": 1266,
      "dest_block_id": 204,
      "crane": 0,
      "start_time": 288.2000007628907,
      "end_time": 296.2000007628907,
      "source_cor": "(8,0,0)",
      "dest_cor": "(16,2,4)"
    },
    {
      "id": 886,
      "type": "input",
      "source_block_id": 1316,
      "dest_block_id": 534,
      "crane": 0,
      "start_time": 191.2000007628948,
      "end_time": 198.2000007628948,
      "source_cor": "(0,7,0)",
      "dest_cor": "(7,5,4)"
    },
    {
      "id": 887,
      "type": "input",
      "source_block_id": 1278,
      "dest_block_id": 554,
      "crane": 0,
      "start_time": 258.20000076289125,
      "end_time": 263.20000076289125,
      "source_cor": "(14,0,0)",
      "dest_cor": "(11,5,4)"
    },
    {
      "id": 888,
      "type": "input",
      "source_block_id": 1295,
      "dest_block_id": 814,
      "crane": 1,
      "start_time": 166.20000076289773,
      "end_time": 175.20000076289773,
      "source_cor": "(22,11,0)",
      "dest_cor": "(13,7,4)"
    },
    {
      "id": 889,
      "type": "input",
      "source_block_id": 1262,
      "dest_block_id": 279,
      "crane": 0,
      "start_time": 43.200000762939446,
      "end_time": 47.200000762939446,
      "source_cor": "(6,0,0)",
      "dest_cor": "(6,3,4)"
    },
    {
      "id": 890,
      "type": "input",
      "source_block_id": 1312,
      "dest_block_id": 1183,
      "crane": 0,
      "start_time": 53.200000762939446,
      "end_time": 65.20000076293945,
      "source_cor": "(0,5,0)",
      "dest_cor": "(12,10,3)"
    },
    {
      "id": 891,
      "type": "input",
      "source_block_id": 1323,
      "dest_block_id": 536,
      "crane": 0,
      "start_time": 159.20000076289773,
      "end_time": 177.20000076289773,
      "source_cor": "(26,10,0)",
      "dest_cor": "(8,5,1)"
    },
    {
      "id": 892,
      "type": "input",
      "source_block_id": 1282,
      "dest_block_id": 244,
      "crane": 0,
      "start_time": 339.2000007628907,
      "end_time": 347.2000007628907,
      "source_cor": "(16,0,0)",
      "dest_cor": "(24,2,4)"
    },
    {
      "id": 893,
      "type": "input",
      "source_block_id": 1278,
      "dest_block_id": 304,
      "crane": 0,
      "start_time": 130.20000076289833,
      "end_time": 134.20000076289833,
      "source_cor": "(14,0,0)",
      "dest_cor": "(11,3,4)"
    },
    {
      "id": 894,
      "type": "input",
      "source_block_id": 1316,
      "dest_block_id": 183,
      "crane": 0,
      "start_time": 243.20000076289122,
      "end_time": 255.20000076289122,
      "source_cor": "(0,7,0)",
      "dest_cor": "(12,2,3)"
    },
    {
      "id": 895,
      "type": "input",
      "source_block_id": 1295,
      "dest_block_id": 184,
      "crane": 0,
      "start_time": 305.2000007628907,
      "end_time": 315.2000007628907,
      "source_cor": "(22,11,0)",
      "dest_cor": "(12,2,4)"
    },
    {
      "id": 896,
      "type": "input",
      "source_block_id": 1289,
      "dest_block_id": 673,
      "crane": 0,
      "start_time": 72.2000007629199,
      "end_time": 81.2000007629199,
      "source_cor": "(19,11,0)",
      "dest_cor": "(10,6,3)"
    },
    {
      "id": 897,
      "type": "input",
      "source_block_id": 1255,
      "dest_block_id": 121,
      "crane": 0,
      "start_time": 369.2000007628907,
      "end_time": 392.2000007628907,
      "source_cor": "(2,11,0)",
      "dest_cor": "(25,1,1)"
    },
    {
      "id": 898,
      "type": "input",
      "source_block_id": 1300,
      "dest_block_id": 663,
      "crane": 0,
      "start_time": 216.2000007628948,
      "end_time": 233.2000007628948,
      "source_cor": "(25,0,0)",
      "dest_cor": "(8,6,3)"
    },
    {
      "id": 899,
      "type": "input",
      "source_block_id": 1295,
      "dest_block_id": 332,
      "crane": 0,
      "start_time": 93.2000007629199,
      "end_time": 101.2000007629199,
      "source_cor": "(22,11,0)",
      "dest_cor": "(17,3,2)"
    },
    {
      "id": 900,
      "type": "input",
      "source_block_id": 1295,
      "dest_block_id": 589,
      "crane": 0,
      "start_time": 145.20000076289833,
      "end_time": 151.20000076289833,
      "source_cor": "(22,11,0)",
      "dest_cor": "(18,5,4)"
    },
    {
      "id": 901,
      "type": "input",
      "source_block_id": 1300,
      "dest_block_id": 418,
      "crane": 0,
      "start_time": 109.2000007629199,
      "end_time": 125.2000007629199,
      "source_cor": "(25,0,0)",
      "dest_cor": "(9,4,3)"
    }
  ]
}