{
  "instance": "30_3_0.7s.json",
  "comments": "solution by BAP and CSP formulations",
  "objective": 1939.7951653122154,
  "bap_objective": 821.0,
  "csp_objective": 3058.590330624431,
  "products": [
    {
      "id": 131,
      "type": "output",
      "source_block_id": 73,
      "dest_block_id": 802,
      "crane": 1,
      "start_time": 124.0999999046295,
      "end_time": 125.0999999046295,
      "source_cor": "(25,1,1)",
      "dest_cor": "(26,0,0)"
    },
    {
      "id": 170,
      "type": "output",
      "source_block_id": 348,
      "dest_block_id": 776,
      "crane": 0,
      "start_time": 89.09999990463268,
      "end_time": 94.09999990463268,
      "source_cor": "(17,5,0)",
      "dest_cor": "(13,0,0)"
    },
    {
      "id": 226,
      "type": "yard_movement",
      "source_block_id": 74,
      "dest_block_id": 44,
      "crane": 0,
      "start_time": 75.09999990463344,
      "end_time": 85.09999990463344,
      "source_cor": "(25,1,2)",
      "dest_cor": "(15,1,2)"
    },
    {
      "id": 278,
      "type": "output",
      "source_block_id": 439,
      "dest_block_id": 769,
      "crane": 1,
      "start_time": 216.09999990462748,
      "end_time": 229.09999990462748,
      "source_cor": "(22,6,1)",
      "dest_cor": "(9,11,0)"
    },
    {
      "id": 417,
      "type": "yard_movement",
      "source_block_id": 440,
      "dest_block_id": 671,
      "crane": 1,
      "start_time": 84.09999990463311,
      "end_time": 87.09999990463311,
      "source_cor": "(22,6,2)",
      "dest_cor": "(24,9,2)"
    },
    {
      "id": 419,
      "type": "yard_movement",
      "source_block_id": 349,
      "dest_block_id": 17,
      "crane": 0,
      "start_time": 16.09999990463257,
      "end_time": 27.09999990463257,
      "source_cor": "(17,5,1)",
      "dest_cor": "(6,1,2)"
    },
    {
      "id": 525,
      "type": "input",
      "source_block_id": 823,
      "dest_block_id": 719,
      "crane": 1,
      "start_time": 305.0999999046259,
      "end_time": 316.0999999046259,
      "source_cor": "(26,10,0)",
      "dest_cor": "(15,10,2)"
    },
    {
      "id": 526,
      "type": "input",
      "source_block_id": 795,
      "dest_block_id": 578,
      "crane": 0,
      "start_time": 6.09999990463254,
      "end_time": 10.09999990463254,
      "source_cor": "(22,11,0)",
      "dest_cor": "(18,8,2)"
    },
    {
      "id": 527,
      "type": "input",
      "source_block_id": 807,
      "dest_block_id": 653,
      "crane": 1,
      "start_time": 6.099999904632567,
      "end_time": 14.099999904632567,
      "source_cor": "(26,2,0)",
      "dest_cor": "(18,9,2)"
    },
    {
      "id": 528,
      "type": "input",
      "source_block_id": 759,
      "dest_block_id": 218,
      "crane": 0,
      "start_time": 189.09999990462748,
      "end_time": 208.09999990462748,
      "source_cor": "(4,11,0)",
      "dest_cor": "(23,3,2)"
    },
    {
      "id": 529,
      "type": "input",
      "source_block_id": 795,
      "dest_block_id": 164,
      "crane": 1,
      "start_time": 267.0999999046268,
      "end_time": 284.0999999046268,
      "source_cor": "(22,11,0)",
      "dest_cor": "(5,3,2)"
    },
    {
      "id": 530,
      "type": "input",
      "source_block_id": 785,
      "dest_block_id": 599,
      "crane": 1,
      "start_time": 109.09999990463064,
      "end_time": 117.09999990463064,
      "source_cor": "(17,11,0)",
      "dest_cor": "(25,8,2)"
    },
    {
      "id": 531,
      "type": "input",
      "source_block_id": 799,
      "dest_block_id": 718,
      "crane": 1,
      "start_time": 20.099999904630295,
      "end_time": 29.099999904630295,
      "source_cor": "(24,11,0)",
      "dest_cor": "(15,10,1)"
    },
    {
      "id": 532,
      "type": "input",
      "source_block_id": 800,
      "dest_block_id": 749,
      "crane": 1,
      "start_time": 48.099999904601944,
      "end_time": 58.099999904601944,
      "source_cor": "(25,0,0)",
      "dest_cor": "(25,10,2)"
    },
    {
      "id": 533,
      "type": "input",
      "source_block_id": 770,
      "dest_block_id": 709,
      "crane": 0,
      "start_time": 31.09999990463257,
      "end_time": 41.09999990463257,
      "source_cor": "(10,0,0)",
      "dest_cor": "(12,10,1)"
    },
    {
      "id": 534,
      "type": "input",
      "source_block_id": 783,
      "dest_block_id": 710,
      "crane": 1,
      "start_time": 100.09999990463155,
      "end_time": 104.09999990463155,
      "source_cor": "(16,11,0)",
      "dest_cor": "(12,10,2)"
    },
    {
      "id": 535,
      "type": "input",
      "source_block_id": 807,
      "dest_block_id": 374,
      "crane": 1,
      "start_time": 40.09999990463166,
      "end_time": 43.09999990463166,
      "source_cor": "(26,2,0)",
      "dest_cor": "(25,5,2)"
    },
    {
      "id": 536,
      "type": "input",
      "source_block_id": 812,
      "dest_block_id": 380,
      "crane": 0,
      "start_time": 182.09999990462748,
      "end_time": 184.09999990462748,
      "source_cor": "(0,5,0)",
      "dest_cor": "(2,6,2)"
    },
    {
      "id": 537,
      "type": "input",
      "source_block_id": 766,
      "dest_block_id": 598,
      "crane": 0,
      "start_time": 51.09999990463302,
      "end_time": 68.09999990463302,
      "source_cor": "(8,0,0)",
      "dest_cor": "(25,8,1)"
    },
    {
      "id": 538,
      "type": "input",
      "source_block_id": 756,
      "dest_block_id": 377,
      "crane": 0,
      "start_time": 162.09999990462808,
      "end_time": 168.09999990462808,
      "source_cor": "(3,0,0)",
      "dest_cor": "(1,6,2)"
    },
    {
      "id": 539,
      "type": "input",
      "source_block_id": 778,
      "dest_block_id": 306,
      "crane": 0,
      "start_time": 298.0999999046268,
      "end_time": 309.0999999046268,
      "source_cor": "(14,0,0)",
      "dest_cor": "(3,5,0)"
    },
    {
      "id": 540,
      "type": "input",
      "source_block_id": 784,
      "dest_block_id": 359,
      "crane": 0,
      "start_time": 119.09999990463064,
      "end_time": 124.09999990463064,
      "source_cor": "(17,0,0)",
      "dest_cor": "(20,5,2)"
    },
    {
      "id": 541,
      "type": "input",
      "source_block_id": 768,
      "dest_block_id": 73,
      "crane": 1,
      "start_time": 163.09999990462785,
      "end_time": 179.09999990462785,
      "source_cor": "(9,0,0)",
      "dest_cor": "(25,1,1)"
    },
    {
      "id": 542,
      "type": "input",
      "source_block_id": 808,
      "dest_block_id": 68,
      "crane": 0,
      "start_time": 236.09999990462708,
      "end_time": 259.0999999046271,
      "source_cor": "(0,3,0)",
      "dest_cor": "(23,1,2)"
    },
    {
      "id": 543,
      "type": "input",
      "source_block_id": 810,
      "dest_block_id": 1,
      "crane": 0,
      "start_time": 157.09999990462808,
      "end_time": 160.09999990462808,
      "source_cor": "(0,4,0)",
      "dest_cor": "(1,1,1)"
    },
    {
      "id": 544,
      "type": "input",
      "source_block_id": 800,
      "dest_block_id": 2,
      "crane": 0,
      "start_time": 261.0999999046271,
      "end_time": 285.0999999046271,
      "source_cor": "(25,0,0)",
      "dest_cor": "(1,1,2)"
    },
    {
      "id": 545,
      "type": "input",
      "source_block_id": 789,
      "dest_block_id": 536,
      "crane": 0,
      "start_time": 216.09999990462748,
      "end_time": 231.09999990462748,
      "source_cor": "(19,11,0)",
      "dest_cor": "(4,8,2)"
    },
    {
      "id": 546,
      "type": "input",
      "source_block_id": 823,
      "dest_block_id": 506,
      "crane": 1,
      "start_time": 89.09999990463268,
      "end_time": 96.09999990463268,
      "source_cor": "(26,10,0)",
      "dest_cor": "(19,7,2)"
    },
    {
      "id": 547,
      "type": "input",
      "source_block_id": 789,
      "dest_block_id": 80,
      "crane": 0,
      "start_time": 130.09999990462887,
      "end_time": 147.09999990462887,
      "source_cor": "(19,11,0)",
      "dest_cor": "(2,2,2)"
    },
    {
      "id": 548,
      "type": "input",
      "source_block_id": 766,
      "dest_block_id": 48,
      "crane": 0,
      "start_time": 109.09999990463064,
      "end_time": 118.09999990463064,
      "source_cor": "(8,0,0)",
      "dest_cor": "(17,1,0)"
    },
    {
      "id": 549,
      "type": "input",
      "source_block_id": 807,
      "dest_block_id": 648,
      "crane": 1,
      "start_time": 130.09999990462887,
      "end_time": 139.09999990462887,
      "source_cor": "(26,2,0)",
      "dest_cor": "(17,9,0)"
    },
    {
      "id": 550,
      "type": "input",
      "source_block_id": 785,
      "dest_block_id": 378,
      "crane": 1,
      "start_time": 141.09999990462785,
      "end_time": 156.09999990462785,
      "source_cor": "(17,11,0)",
      "dest_cor": "(2,6,0)"
    },
    {
      "id": 551,
      "type": "input",
      "source_block_id": 764,
      "dest_block_id": 379,
      "crane": 0,
      "start_time": 174.09999990462808,
      "end_time": 180.09999990462808,
      "source_cor": "(7,0,0)",
      "dest_cor": "(2,6,1)"
    }
  ]
}