{
  "instance": "50_1_0.5l.json",
  "comments": "solution by BAP and CSP formulations",
  "objective": 7959.351975836218,
  "bap_objective": 11.0,
  "csp_objective": 15907.703951672436,
  "products": [
    {
      "id": 14,
      "type": "output",
      "source_block_id": 161,
      "dest_block_id": 1115,
      "crane": 1,
      "start_time": 217.99999999966894,
      "end_time": 256.99999999966894,
      "source_cor": "(12,4,0)",
      "dest_cor": "(51,6,0)"
    },
    {
      "id": 165,
      "type": "output",
      "source_block_id": 346,
      "dest_block_id": 1109,
      "crane": 1,
      "start_time": 710.9999999982156,
      "end_time": 714.9999999982156,
      "source_cor": "(47,7,0)",
      "dest_cor": "(51,3,0)"
    },
    {
      "id": 167,
      "type": "output",
      "source_block_id": 159,
      "dest_block_id": 1068,
      "crane": 0,
      "start_time": 538.9999999982974,
      "end_time": 562.9999999982974,
      "source_cor": "(10,4,0)",
      "dest_cor": "(34,0,0)"
    },
    {
      "id": 198,
      "type": "output",
      "source_block_id": 847,
      "dest_block_id": 1119,
      "crane": 1,
      "start_time": 417.9999999984393,
      "end_time": 426.9999999984393,
      "source_cor": "(48,17,0)",
      "dest_cor": "(51,8,0)"
    },
    {
      "id": 234,
      "type": "output",
      "source_block_id": 580,
      "dest_block_id": 1070,
      "crane": 1,
      "start_time": 470.99999999841384,
      "end_time": 482.99999999841384,
      "source_cor": "(31,12,0)",
      "dest_cor": "(35,0,0)"
    },
    {
      "id": 249,
      "type": "output",
      "source_block_id": 128,
      "dest_block_id": 1092,
      "crane": 1,
      "start_time": 366.99999999854845,
      "end_time": 383.99999999854845,
      "source_cor": "(29,3,0)",
      "dest_cor": "(46,0,0)"
    },
    {
      "id": 393,
      "type": "output",
      "source_block_id": 48,
      "dest_block_id": 1065,
      "crane": 1,
      "start_time": 496.99999999841384,
      "end_time": 516.9999999984138,
      "source_cor": "(49,1,0)",
      "dest_cor": "(32,21,0)"
    },
    {
      "id": 418,
      "type": "output",
      "source_block_id": 821,
      "dest_block_id": 1069,
      "crane": 1,
      "start_time": 183.99999999966894,
      "end_time": 195.99999999966894,
      "source_cor": "(22,17,0)",
      "dest_cor": "(34,21,0)"
    },
    {
      "id": 484,
      "type": "output",
      "source_block_id": 648,
      "dest_block_id": 1054,
      "crane": 1,
      "start_time": 773.9999999981883,
      "end_time": 795.9999999981883,
      "source_cor": "(49,13,0)",
      "dest_cor": "(27,0,0)"
    },
    {
      "id": 485,
      "type": "output",
      "source_block_id": 984,
      "dest_block_id": 1065,
      "crane": 1,
      "start_time": 130.99999999994543,
      "end_time": 133.99999999994543,
      "source_cor": "(35,20,0)",
      "dest_cor": "(32,21,0)"
    },
    {
      "id": 500,
      "type": "input",
      "source_block_id": 1141,
      "dest_block_id": 130,
      "crane": 1,
      "start_time": 674.9999999982156,
      "end_time": 694.9999999982156,
      "source_cor": "(51,19,0)",
      "dest_cor": "(31,3,0)"
    },
    {
      "id": 501,
      "type": "input",
      "source_block_id": 1089,
      "dest_block_id": 129,
      "crane": 1,
      "start_time": 923.9999999979664,
      "end_time": 941.9999999979664,
      "source_cor": "(44,21,0)",
      "dest_cor": "(30,3,0)"
    },
    {
      "id": 502,
      "type": "input",
      "source_block_id": 1066,
      "dest_block_id": 152,
      "crane": 0,
      "start_time": 25.699999809254223,
      "end_time": 55.69999980925422,
      "source_cor": "(33,0,0)",
      "dest_cor": "(3,4,0)"
    },
    {
      "id": 503,
      "type": "input",
      "source_block_id": 1035,
      "dest_block_id": 153,
      "crane": 0,
      "start_time": 803.9999999982138,
      "end_time": 820.9999999982138,
      "source_cor": "(17,21,0)",
      "dest_cor": "(4,4,0)"
    },
    {
      "id": 504,
      "type": "input",
      "source_block_id": 1075,
      "dest_block_id": 272,
      "crane": 0,
      "start_time": 773.9999999982138,
      "end_time": 788.9999999982138,
      "source_cor": "(37,21,0)",
      "dest_cor": "(23,6,0)"
    },
    {
      "id": 505,
      "type": "input",
      "source_block_id": 1046,
      "dest_block_id": 127,
      "crane": 0,
      "start_time": 15.699999809265133,
      "end_time": 20.699999809265133,
      "source_cor": "(23,0,0)",
      "dest_cor": "(28,3,0)"
    },
    {
      "id": 506,
      "type": "input",
      "source_block_id": 1129,
      "dest_block_id": 649,
      "crane": 1,
      "start_time": 263.99999999967076,
      "end_time": 264.99999999967076,
      "source_cor": "(51,13,0)",
      "dest_cor": "(50,13,0)"
    },
    {
      "id": 507,
      "type": "input",
      "source_block_id": 1012,
      "dest_block_id": 797,
      "crane": 0,
      "start_time": 720.9999999982138,
      "end_time": 762.9999999982138,
      "source_cor": "(6,0,0)",
      "dest_cor": "(48,16,0)"
    },
    {
      "id": 508,
      "type": "input",
      "source_block_id": 1098,
      "dest_block_id": 268,
      "crane": 1,
      "start_time": 28.0,
      "end_time": 58.0,
      "source_cor": "(49,0,0)",
      "dest_cor": "(19,6,0)"
    },
    {
      "id": 509,
      "type": "input",
      "source_block_id": 1095,
      "dest_block_id": 0,
      "crane": 0,
      "start_time": 877.9999999979664,
      "end_time": 923.9999999979664,
      "source_cor": "(47,21,0)",
      "dest_cor": "(1,1,0)"
    },
    {
      "id": 510,
      "type": "input",
      "source_block_id": 1006,
      "dest_block_id": 204,
      "crane": 0,
      "start_time": 438.9999999984975,
      "end_time": 443.9999999984975,
      "source_cor": "(3,0,0)",
      "dest_cor": "(5,5,0)"
    },
    {
      "id": 511,
      "type": "input",
      "source_block_id": 1046,
      "dest_block_id": 43,
      "crane": 1,
      "start_time": 850.9999999979773,
      "end_time": 871.9999999979773,
      "source_cor": "(23,0,0)",
      "dest_cor": "(44,1,0)"
    },
    {
      "id": 512,
      "type": "input",
      "source_block_id": 1049,
      "dest_block_id": 834,
      "crane": 1,
      "start_time": 141.99999999981083,
      "end_time": 152.99999999981083,
      "source_cor": "(24,21,0)",
      "dest_cor": "(35,17,0)"
    },
    {
      "id": 513,
      "type": "input",
      "source_block_id": 1018,
      "dest_block_id": 765,
      "crane": 0,
      "start_time": 372.99999999854845,
      "end_time": 388.99999999854845,
      "source_cor": "(9,0,0)",
      "dest_cor": "(16,16,0)"
    },
    {
      "id": 514,
      "type": "input",
      "source_block_id": 1090,
      "dest_block_id": 379,
      "crane": 1,
      "start_time": 384.99999999854845,
      "end_time": 399.99999999854845,
      "source_cor": "(45,0,0)",
      "dest_cor": "(30,8,0)"
    },
    {
      "id": 515,
      "type": "input",
      "source_block_id": 1099,
      "dest_block_id": 902,
      "crane": 1,
      "start_time": 287.99999999911233,
      "end_time": 333.99999999911233,
      "source_cor": "(49,21,0)",
      "dest_cor": "(3,19,0)"
    },
    {
      "id": 516,
      "type": "input",
      "source_block_id": 1005,
      "dest_block_id": 976,
      "crane": 0,
      "start_time": 496.9999999983447,
      "end_time": 521.9999999983447,
      "source_cor": "(2,21,0)",
      "dest_cor": "(27,20,0)"
    },
    {
      "id": 517,
      "type": "input",
      "source_block_id": 1133,
      "dest_block_id": 594,
      "crane": 1,
      "start_time": 272.99999999911233,
      "end_time": 278.99999999911233,
      "source_cor": "(51,15,0)",
      "dest_cor": "(45,12,0)"
    },
    {
      "id": 518,
      "type": "input",
      "source_block_id": 1018,
      "dest_block_id": 111,
      "crane": 0,
      "start_time": 88.99999999994543,
      "end_time": 91.99999999994543,
      "source_cor": "(9,0,0)",
      "dest_cor": "(12,3,0)"
    },
    {
      "id": 519,
      "type": "input",
      "source_block_id": 1035,
      "dest_block_id": 964,
      "crane": 0,
      "start_time": 481.9999999983447,
      "end_time": 483.9999999983447,
      "source_cor": "(17,21,0)",
      "dest_cor": "(15,20,0)"
    },
    {
      "id": 520,
      "type": "input",
      "source_block_id": 1110,
      "dest_block_id": 883,
      "crane": 1,
      "start_time": 76.99999999997453,
      "end_time": 110.99999999997453,
      "source_cor": "(0,4,0)",
      "dest_cor": "(34,18,0)"
    },
    {
      "id": 521,
      "type": "input",
      "source_block_id": 1011,
      "dest_block_id": 21,
      "crane": 0,
      "start_time": 399.99999999854845,
      "end_time": 419.99999999854845,
      "source_cor": "(5,21,0)",
      "dest_cor": "(22,1,0)"
    },
    {
      "id": 522,
      "type": "input",
      "source_block_id": 1082,
      "dest_block_id": 853,
      "crane": 0,
      "start_time": 161.99999999981083,
      "end_time": 198.99999999981083,
      "source_cor": "(41,0,0)",
      "dest_cor": "(4,18,0)"
    },
    {
      "id": 523,
      "type": "input",
      "source_block_id": 1141,
      "dest_block_id": 197,
      "crane": 0,
      "start_time": 581.9999999982974,
      "end_time": 596.9999999982974,
      "source_cor": "(51,19,0)",
      "dest_cor": "(48,4,0)"
    },
    {
      "id": 524,
      "type": "input",
      "source_block_id": 1005,
      "dest_block_id": 672,
      "crane": 0,
      "start_time": 109.99999999994543,
      "end_time": 130.99999999994543,
      "source_cor": "(2,21,0)",
      "dest_cor": "(23,14,0)"
    },
    {
      "id": 525,
      "type": "input",
      "source_block_id": 1074,
      "dest_block_id": 758,
      "crane": 0,
      "start_time": 287.9999999994652,
      "end_time": 315.9999999994652,
      "source_cor": "(37,0,0)",
      "dest_cor": "(9,16,0)"
    },
    {
      "id": 526,
      "type": "input",
      "source_block_id": 1034,
      "dest_block_id": 633,
      "crane": 1,
      "start_time": 640.9999999982138,
      "end_time": 657.9999999982138,
      "source_cor": "(17,0,0)",
      "dest_cor": "(34,13,0)"
    },
    {
      "id": 527,
      "type": "input",
      "source_block_id": 1035,
      "dest_block_id": 636,
      "crane": 1,
      "start_time": 816.9999999979773,
      "end_time": 836.9999999979773,
      "source_cor": "(17,21,0)",
      "dest_cor": "(37,13,0)"
    },
    {
      "id": 528,
      "type": "input",
      "source_block_id": 1122,
      "dest_block_id": 258,
      "crane": 0,
      "start_time": 357.99999999854845,
      "end_time": 366.99999999854845,
      "source_cor": "(0,10,0)",
      "dest_cor": "(9,6,0)"
    },
    {
      "id": 529,
      "type": "input",
      "source_block_id": 1078,
      "dest_block_id": 851,
      "crane": 0,
      "start_time": 665.9999999982138,
      "end_time": 702.9999999982138,
      "source_cor": "(39,0,0)",
      "dest_cor": "(2,18,0)"
    },
    {
      "id": 530,
      "type": "input",
      "source_block_id": 1029,
      "dest_block_id": 29,
      "crane": 1,
      "start_time": 344.9999999989377,
      "end_time": 364.9999999989377,
      "source_cor": "(14,21,0)",
      "dest_cor": "(30,1,0)"
    },
    {
      "id": 531,
      "type": "input",
      "source_block_id": 1077,
      "dest_block_id": 689,
      "crane": 1,
      "start_time": 454.99999999841384,
      "end_time": 461.99999999841384,
      "source_cor": "(38,21,0)",
      "dest_cor": "(40,14,0)"
    },
    {
      "id": 532,
      "type": "input",
      "source_block_id": 1126,
      "dest_block_id": 255,
      "crane": 0,
      "start_time": 333.9999999989341,
      "end_time": 339.9999999989341,
      "source_cor": "(0,12,0)",
      "dest_cor": "(6,6,0)"
    },
    {
      "id": 533,
      "type": "input",
      "source_block_id": 1125,
      "dest_block_id": 584,
      "crane": 1,
      "start_time": 429.9999999984393,
      "end_time": 445.9999999984393,
      "source_cor": "(51,11,0)",
      "dest_cor": "(35,12,0)"
    },
    {
      "id": 534,
      "type": "input",
      "source_block_id": 1095,
      "dest_block_id": 78,
      "crane": 1,
      "start_time": 978.9999999979664,
      "end_time": 997.9999999979664,
      "source_cor": "(47,21,0)",
      "dest_cor": "(29,2,0)"
    },
    {
      "id": 535,
      "type": "input",
      "source_block_id": 1020,
      "dest_block_id": 799,
      "crane": 0,
      "start_time": 932.9999999979664,
      "end_time": 972.9999999979664,
      "source_cor": "(10,0,0)",
      "dest_cor": "(50,16,0)"
    },
    {
      "id": 536,
      "type": "input",
      "source_block_id": 1139,
      "dest_block_id": 405,
      "crane": 1,
      "start_time": 584.9999999982974,
      "end_time": 629.9999999982974,
      "source_cor": "(51,18,0)",
      "dest_cor": "(6,9,0)"
    },
    {
      "id": 537,
      "type": "input",
      "source_block_id": 1114,
      "dest_block_id": 355,
      "crane": 0,
      "start_time": 345.9999999989341,
      "end_time": 351.9999999989341,
      "source_cor": "(0,6,0)",
      "dest_cor": "(6,8,0)"
    },
    {
      "id": 538,
      "type": "input",
      "source_block_id": 1057,
      "dest_block_id": 814,
      "crane": 0,
      "start_time": 252.99999999946522,
      "end_time": 265.9999999994652,
      "source_cor": "(28,21,0)",
      "dest_cor": "(15,17,0)"
    },
    {
      "id": 539,
      "type": "input",
      "source_block_id": 1036,
      "dest_block_id": 983,
      "crane": 0,
      "start_time": 226.99999999946522,
      "end_time": 246.99999999946522,
      "source_cor": "(18,0,0)",
      "dest_cor": "(34,20,0)"
    }
  ]
}