{
  "instance": "50_3_0.7s.json",
  "comments": "solution by BAP and CSP formulations",
  "objective": 8068.751054823451,
  "bap_objective": 3904.0,
  "csp_objective": 12233.502109646905,
  "products": [
    {
      "id": 58,
      "type": "output",
      "source_block_id": 441,
      "dest_block_id": 775,
      "crane": 0,
      "start_time": 641.2000007629031,
      "end_time": 652.2000007629031,
      "source_cor": "(23,6,0)",
      "dest_cor": "(12,11,0)"
    },
    {
      "id": 128,
      "type": "output",
      "source_block_id": 51,
      "dest_block_id": 775,
      "crane": 0,
      "start_time": 436.2000007629031,
      "end_time": 446.2000007629031,
      "source_cor": "(18,1,0)",
      "dest_cor": "(12,11,0)"
    },
    {
      "id": 131,
      "type": "output",
      "source_block_id": 73,
      "dest_block_id": 802,
      "crane": 1,
      "start_time": 398.20000076292405,
      "end_time": 399.20000076292405,
      "source_cor": "(25,1,1)",
      "dest_cor": "(26,0,0)"
    },
    {
      "id": 151,
      "type": "yard_movement",
      "source_block_id": 52,
      "dest_block_id": 363,
      "crane": 1,
      "start_time": 390.200000762924,
      "end_time": 394.200000762924,
      "source_cor": "(18,1,1)",
      "dest_cor": "(22,5,0)"
    },
    {
      "id": 170,
      "type": "output",
      "source_block_id": 348,
      "dest_block_id": 776,
      "crane": 0,
      "start_time": 129.20000076291672,
      "end_time": 134.20000076291672,
      "source_cor": "(17,5,0)",
      "dest_cor": "(13,0,0)"
    },
    {
      "id": 174,
      "type": "yard_movement",
      "source_block_id": 442,
      "dest_block_id": 706,
      "crane": 1,
      "start_time": 438.2000007629031,
      "end_time": 450.2000007629031,
      "source_cor": "(23,6,1)",
      "dest_cor": "(11,10,1)"
    },
    {
      "id": 226,
      "type": "yard_movement",
      "source_block_id": 74,
      "dest_block_id": 306,
      "crane": 0,
      "start_time": 353.2000007629222,
      "end_time": 375.2000007629222,
      "source_cor": "(25,1,2)",
      "dest_cor": "(3,5,0)"
    },
    {
      "id": 258,
      "type": "yard_movement",
      "source_block_id": 53,
      "dest_block_id": 506,
      "crane": 1,
      "start_time": 378.200000762924,
      "end_time": 384.200000762924,
      "source_cor": "(18,1,2)",
      "dest_cor": "(19,7,2)"
    },
    {
      "id": 273,
      "type": "yard_movement",
      "source_block_id": 443,
      "dest_block_id": 80,
      "crane": 1,
      "start_time": 267.2000007629167,
      "end_time": 288.2000007629167,
      "source_cor": "(23,6,2)",
      "dest_cor": "(2,2,2)"
    },
    {
      "id": 278,
      "type": "output",
      "source_block_id": 439,
      "dest_block_id": 769,
      "crane": 1,
      "start_time": 63.20000076294119,
      "end_time": 76.20000076294119,
      "source_cor": "(22,6,1)",
      "dest_cor": "(9,11,0)"
    },
    {
      "id": 320,
      "type": "output",
      "source_block_id": 355,
      "dest_block_id": 793,
      "crane": 1,
      "start_time": 201.20000076291672,
      "end_time": 207.20000076291672,
      "source_cor": "(19,5,1)",
      "dest_cor": "(21,11,0)"
    },
    {
      "id": 390,
      "type": "output",
      "source_block_id": 363,
      "dest_block_id": 777,
      "crane": 1,
      "start_time": 359.2000007629222,
      "end_time": 368.2000007629222,
      "source_cor": "(22,5,0)",
      "dest_cor": "(13,11,0)"
    },
    {
      "id": 397,
      "type": "output",
      "source_block_id": 541,
      "dest_block_id": 760,
      "crane": 0,
      "start_time": 495.2000007629031,
      "end_time": 503.2000007629031,
      "source_cor": "(6,8,1)",
      "dest_cor": "(5,0,0)"
    },
    {
      "id": 412,
      "type": "output",
      "source_block_id": 353,
      "dest_block_id": 809,
      "crane": 1,
      "start_time": 217.20000076291672,
      "end_time": 225.20000076291672,
      "source_cor": "(18,5,2)",
      "dest_cor": "(26,3,0)"
    },
    {
      "id": 417,
      "type": "yard_movement",
      "source_block_id": 440,
      "dest_block_id": 374,
      "crane": 1,
      "start_time": 57.20000076294127,
      "end_time": 60.20000076294127,
      "source_cor": "(22,6,2)",
      "dest_cor": "(25,5,2)"
    },
    {
      "id": 419,
      "type": "yard_movement",
      "source_block_id": 349,
      "dest_block_id": 405,
      "crane": 0,
      "start_time": 55.20000076293945,
      "end_time": 61.20000076293945,
      "source_cor": "(17,5,1)",
      "dest_cor": "(11,6,0)"
    },
    {
      "id": 439,
      "type": "output",
      "source_block_id": 24,
      "dest_block_id": 753,
      "crane": 0,
      "start_time": 593.2000007629031,
      "end_time": 603.2000007629031,
      "source_cor": "(9,1,0)",
      "dest_cor": "(1,11,0)"
    },
    {
      "id": 491,
      "type": "yard_movement",
      "source_block_id": 542,
      "dest_block_id": 339,
      "crane": 0,
      "start_time": 479.2000007629031,
      "end_time": 487.2000007629031,
      "source_cor": "(6,8,2)",
      "dest_cor": "(14,5,0)"
    },
    {
      "id": 525,
      "type": "input",
      "source_block_id": 823,
      "dest_block_id": 406,
      "crane": 1,
      "start_time": 607.2000007629031,
      "end_time": 622.2000007629031,
      "source_cor": "(26,10,0)",
      "dest_cor": "(11,6,1)"
    },
    {
      "id": 526,
      "type": "input",
      "source_block_id": 795,
      "dest_block_id": 220,
      "crane": 0,
      "start_time": 3.3999996184529664,
      "end_time": 11.399999618452966,
      "source_cor": "(22,11,0)",
      "dest_cor": "(24,3,1)"
    },
    {
      "id": 527,
      "type": "input",
      "source_block_id": 807,
      "dest_block_id": 545,
      "crane": 1,
      "start_time": 229.20000076291672,
      "end_time": 248.20000076291672,
      "source_cor": "(26,2,0)",
      "dest_cor": "(7,8,2)"
    },
    {
      "id": 528,
      "type": "input",
      "source_block_id": 759,
      "dest_block_id": 239,
      "crane": 0,
      "start_time": 468.2000007629031,
      "end_time": 475.2000007629031,
      "source_cor": "(4,11,0)",
      "dest_cor": "(5,4,2)"
    },
    {
      "id": 529,
      "type": "input",
      "source_block_id": 795,
      "dest_block_id": 34,
      "crane": 0,
      "start_time": 19.39999961853027,
      "end_time": 29.39999961853027,
      "source_cor": "(22,11,0)",
      "dest_cor": "(12,1,1)"
    },
    {
      "id": 530,
      "type": "input",
      "source_block_id": 785,
      "dest_block_id": 20,
      "crane": 1,
      "start_time": 534.2000007629031,
      "end_time": 544.2000007629031,
      "source_cor": "(17,11,0)",
      "dest_cor": "(7,1,2)"
    },
    {
      "id": 531,
      "type": "input",
      "source_block_id": 799,
      "dest_block_id": 598,
      "crane": 1,
      "start_time": 18.39999961853027,
      "end_time": 21.39999961853027,
      "source_cor": "(24,11,0)",
      "dest_cor": "(25,8,1)"
    },
    {
      "id": 532,
      "type": "input",
      "source_block_id": 800,
      "dest_block_id": 381,
      "crane": 0,
      "start_time": 227.20000076291672,
      "end_time": 249.20000076291672,
      "source_cor": "(25,0,0)",
      "dest_cor": "(3,6,0)"
    },
    {
      "id": 533,
      "type": "input",
      "source_block_id": 770,
      "dest_block_id": 541,
      "crane": 0,
      "start_time": 508.2000007629031,
      "end_time": 516.2000007629031,
      "source_cor": "(10,0,0)",
      "dest_cor": "(6,8,1)"
    },
    {
      "id": 534,
      "type": "input",
      "source_block_id": 783,
      "dest_block_id": 439,
      "crane": 1,
      "start_time": 83.20000076294127,
      "end_time": 89.20000076294127,
      "source_cor": "(16,11,0)",
      "dest_cor": "(22,6,1)"
    },
    {
      "id": 535,
      "type": "input",
      "source_block_id": 807,
      "dest_block_id": 83,
      "crane": 1,
      "start_time": 641.2000007629031,
      "end_time": 664.2000007629031,
      "source_cor": "(26,2,0)",
      "dest_cor": "(3,2,2)"
    },
    {
      "id": 536,
      "type": "input",
      "source_block_id": 812,
      "dest_block_id": 378,
      "crane": 0,
      "start_time": 289.2000007629167,
      "end_time": 291.2000007629167,
      "source_cor": "(0,5,0)",
      "dest_cor": "(2,6,0)"
    },
    {
      "id": 537,
      "type": "input",
      "source_block_id": 766,
      "dest_block_id": 164,
      "crane": 0,
      "start_time": 40.200000762934906,
      "end_time": 43.200000762934906,
      "source_cor": "(8,0,0)",
      "dest_cor": "(5,3,2)"
    },
    {
      "id": 538,
      "type": "input",
      "source_block_id": 756,
      "dest_block_id": 307,
      "crane": 0,
      "start_time": 457.2000007629031,
      "end_time": 462.2000007629031,
      "source_cor": "(3,0,0)",
      "dest_cor": "(3,5,1)"
    },
    {
      "id": 539,
      "type": "input",
      "source_block_id": 778,
      "dest_block_id": 337,
      "crane": 1,
      "start_time": 43.20000076293945,
      "end_time": 48.20000076293945,
      "source_cor": "(14,0,0)",
      "dest_cor": "(13,5,1)"
    },
    {
      "id": 540,
      "type": "input",
      "source_block_id": 784,
      "dest_block_id": 440,
      "crane": 1,
      "start_time": 95.20000076294127,
      "end_time": 101.20000076294127,
      "source_cor": "(17,0,0)",
      "dest_cor": "(22,6,2)"
    },
    {
      "id": 541,
      "type": "input",
      "source_block_id": 768,
      "dest_block_id": 199,
      "crane": 0,
      "start_time": 207.20000076291672,
      "end_time": 215.20000076291672,
      "source_cor": "(9,0,0)",
      "dest_cor": "(17,3,1)"
    },
    {
      "id": 542,
      "type": "input",
      "source_block_id": 808,
      "dest_block_id": 449,
      "crane": 0,
      "start_time": 614.2000007629031,
      "end_time": 639.2000007629031,
      "source_cor": "(0,3,0)",
      "dest_cor": "(25,6,2)"
    },
    {
      "id": 543,
      "type": "input",
      "source_block_id": 810,
      "dest_block_id": 607,
      "crane": 0,
      "start_time": 297.2000007629222,
      "end_time": 302.2000007629222,
      "source_cor": "(0,4,0)",
      "dest_cor": "(3,9,1)"
    },
    {
      "id": 544,
      "type": "input",
      "source_block_id": 800,
      "dest_block_id": 353,
      "crane": 0,
      "start_time": 421.2000007629031,
      "end_time": 428.2000007629031,
      "source_cor": "(25,0,0)",
      "dest_cor": "(18,5,2)"
    },
    {
      "id": 545,
      "type": "input",
      "source_block_id": 789,
      "dest_block_id": 461,
      "crane": 1,
      "start_time": 130.20000076291672,
      "end_time": 145.20000076291672,
      "source_cor": "(19,11,0)",
      "dest_cor": "(4,7,2)"
    },
    {
      "id": 546,
      "type": "input",
      "source_block_id": 823,
      "dest_block_id": 674,
      "crane": 0,
      "start_time": 115.20000076291672,
      "end_time": 117.20000076291672,
      "source_cor": "(26,10,0)",
      "dest_cor": "(25,9,2)"
    },
    {
      "id": 547,
      "type": "input",
      "source_block_id": 789,
      "dest_block_id": 578,
      "crane": 0,
      "start_time": 123.20000076291672,
      "end_time": 126.20000076291672,
      "source_cor": "(19,11,0)",
      "dest_cor": "(18,8,2)"
    },
    {
      "id": 548,
      "type": "input",
      "source_block_id": 766,
      "dest_block_id": 290,
      "crane": 0,
      "start_time": 95.20000076291672,
      "end_time": 109.20000076291672,
      "source_cor": "(8,0,0)",
      "dest_cor": "(22,4,2)"
    },
    {
      "id": 549,
      "type": "input",
      "source_block_id": 807,
      "dest_block_id": 596,
      "crane": 0,
      "start_time": 340.2000007629222,
      "end_time": 346.2000007629222,
      "source_cor": "(26,2,0)",
      "dest_cor": "(24,8,2)"
    },
    {
      "id": 550,
      "type": "input",
      "source_block_id": 785,
      "dest_block_id": 537,
      "crane": 0,
      "start_time": 561.2000007629031,
      "end_time": 573.2000007629031,
      "source_cor": "(17,11,0)",
      "dest_cor": "(5,8,0)"
    },
    {
      "id": 551,
      "type": "input",
      "source_block_id": 764,
      "dest_block_id": 425,
      "crane": 0,
      "start_time": 160.20000076291672,
      "end_time": 170.20000076291672,
      "source_cor": "(7,0,0)",
      "dest_cor": "(17,6,2)"
    },
    {
      "id": 552,
      "type": "input",
      "source_block_id": 758,
      "dest_block_id": 203,
      "crane": 0,
      "start_time": 255.20000076291672,
      "end_time": 269.2000007629167,
      "source_cor": "(4,0,0)",
      "dest_cor": "(18,3,2)"
    },
    {
      "id": 553,
      "type": "input",
      "source_block_id": 789,
      "dest_block_id": 3,
      "crane": 0,
      "start_time": 529.2000007629031,
      "end_time": 546.2000007629031,
      "source_cor": "(19,11,0)",
      "dest_cor": "(2,1,0)"
    },
    {
      "id": 554,
      "type": "input",
      "source_block_id": 800,
      "dest_block_id": 48,
      "crane": 1,
      "start_time": 424.2000007629031,
      "end_time": 432.2000007629031,
      "source_cor": "(25,0,0)",
      "dest_cor": "(17,1,0)"
    },
    {
      "id": 555,
      "type": "input",
      "source_block_id": 768,
      "dest_block_id": 54,
      "crane": 1,
      "start_time": 460.2000007629031,
      "end_time": 470.2000007629031,
      "source_cor": "(9,0,0)",
      "dest_cor": "(19,1,0)"
    },
    {
      "id": 556,
      "type": "input",
      "source_block_id": 784,
      "dest_block_id": 718,
      "crane": 1,
      "start_time": 314.2000007629222,
      "end_time": 324.2000007629222,
      "source_cor": "(17,0,0)",
      "dest_cor": "(15,10,1)"
    },
    {
      "id": 557,
      "type": "input",
      "source_block_id": 816,
      "dest_block_id": 494,
      "crane": 1,
      "start_time": 581.2000007629031,
      "end_time": 596.2000007629031,
      "source_cor": "(0,7,0)",
      "dest_cor": "(15,7,2)"
    },
    {
      "id": 558,
      "type": "input",
      "source_block_id": 761,
      "dest_block_id": 348,
      "crane": 1,
      "start_time": 297.20000076291853,
      "end_time": 309.20000076291853,
      "source_cor": "(5,11,0)",
      "dest_cor": "(17,5,0)"
    },
    {
      "id": 559,
      "type": "input",
      "source_block_id": 823,
      "dest_block_id": 518,
      "crane": 1,
      "start_time": 495.2000007629031,
      "end_time": 498.2000007629031,
      "source_cor": "(26,10,0)",
      "dest_cor": "(23,7,2)"
    },
    {
      "id": 560,
      "type": "input",
      "source_block_id": 782,
      "dest_block_id": 687,
      "crane": 0,
      "start_time": 186.20000076291672,
      "end_time": 197.20000076291672,
      "source_cor": "(16,0,0)",
      "dest_cor": "(5,10,0)"
    },
    {
      "id": 561,
      "type": "input",
      "source_block_id": 810,
      "dest_block_id": 501,
      "crane": 0,
      "start_time": 314.2000007629222,
      "end_time": 332.2000007629222,
      "source_cor": "(0,4,0)",
      "dest_cor": "(18,7,0)"
    },
    {
      "id": 562,
      "type": "input",
      "source_block_id": 816,
      "dest_block_id": 359,
      "crane": 1,
      "start_time": 150.20000076291672,
      "end_time": 170.20000076291672,
      "source_cor": "(0,7,0)",
      "dest_cor": "(20,5,2)"
    },
    {
      "id": 563,
      "type": "input",
      "source_block_id": 787,
      "dest_block_id": 188,
      "crane": 0,
      "start_time": 175.20000076291672,
      "end_time": 183.20000076291672,
      "source_cor": "(18,11,0)",
      "dest_cor": "(13,3,2)"
    },
    {
      "id": 564,
      "type": "input",
      "source_block_id": 816,
      "dest_block_id": 364,
      "crane": 0,
      "start_time": 394.2000007629031,
      "end_time": 416.2000007629031,
      "source_cor": "(0,7,0)",
      "dest_cor": "(22,5,1)"
    }
  ]
}