{
  "instance": "50_1_0.7s.json",
  "comments": "solution by BAP and CSP formulations",
  "objective": 6643.506438893639,
  "bap_objective": 1743.0,
  "csp_objective": 11544.012877787278,
  "products": [
    {
      "id": 10,
      "type": "output",
      "source_block_id": 97,
      "dest_block_id": 288,
      "crane": 1,
      "start_time": 376.0999999045125,
      "end_time": 380.0999999045125,
      "source_cor": "(23,4,0)",
      "dest_cor": "(19,0,0)"
    },
    {
      "id": 16,
      "type": "output",
      "source_block_id": 69,
      "dest_block_id": 298,
      "crane": 1,
      "start_time": 31.09999990452161,
      "end_time": 35.09999990452161,
      "source_cor": "(20,3,0)",
      "dest_cor": "(24,0,0)"
    },
    {
      "id": 25,
      "type": "output",
      "source_block_id": 188,
      "dest_block_id": 250,
      "crane": 1,
      "start_time": 418.0999999045125,
      "end_time": 432.0999999045125,
      "source_cor": "(14,8,0)",
      "dest_cor": "(0,0,0)"
    },
    {
      "id": 67,
      "type": "output",
      "source_block_id": 165,
      "dest_block_id": 281,
      "crane": 1,
      "start_time": 403.0999999045128,
      "end_time": 407.0999999045128,
      "source_cor": "(16,7,0)",
      "dest_cor": "(15,11,0)"
    },
    {
      "id": 82,
      "type": "output",
      "source_block_id": 162,
      "dest_block_id": 297,
      "crane": 1,
      "start_time": 289.09999990452343,
      "end_time": 299.09999990452343,
      "source_cor": "(13,7,0)",
      "dest_cor": "(23,11,0)"
    },
    {
      "id": 125,
      "type": "output",
      "source_block_id": 221,
      "dest_block_id": 267,
      "crane": 1,
      "start_time": 454.0999999045125,
      "end_time": 468.0999999045125,
      "source_cor": "(22,9,0)",
      "dest_cor": "(8,11,0)"
    },
    {
      "id": 129,
      "type": "output",
      "source_block_id": 138,
      "dest_block_id": 318,
      "crane": 0,
      "start_time": 504.09999990455253,
      "end_time": 518.0999999045525,
      "source_cor": "(14,6,0)",
      "dest_cor": "(0,8,0)"
    },
    {
      "id": 141,
      "type": "output",
      "source_block_id": 194,
      "dest_block_id": 267,
      "crane": 0,
      "start_time": 243.09999990452343,
      "end_time": 255.09999990452343,
      "source_cor": "(20,8,0)",
      "dest_cor": "(8,11,0)"
    },
    {
      "id": 161,
      "type": "output",
      "source_block_id": 183,
      "dest_block_id": 252,
      "crane": 0,
      "start_time": 373.0999999045128,
      "end_time": 381.0999999045128,
      "source_cor": "(9,8,0)",
      "dest_cor": "(1,0,0)"
    },
    {
      "id": 174,
      "type": "output",
      "source_block_id": 184,
      "dest_block_id": 311,
      "crane": 1,
      "start_time": 543.0999999045525,
      "end_time": 559.0999999045525,
      "source_cor": "(10,8,0)",
      "dest_cor": "(26,4,0)"
    },
    {
      "id": 175,
      "type": "input",
      "source_block_id": 322,
      "dest_block_id": 9,
      "crane": 1,
      "start_time": 59.099999904522974,
      "end_time": 69.09999990452297,
      "source_cor": "(0,10,0)",
      "dest_cor": "(10,1,0)"
    },
    {
      "id": 176,
      "type": "input",
      "source_block_id": 289,
      "dest_block_id": 7,
      "crane": 1,
      "start_time": 201.09999990452343,
      "end_time": 212.09999990452343,
      "source_cor": "(19,11,0)",
      "dest_cor": "(8,1,0)"
    },
    {
      "id": 177,
      "type": "input",
      "source_block_id": 268,
      "dest_block_id": 8,
      "crane": 1,
      "start_time": 6.099999904632567,
      "end_time": 7.099999904632567,
      "source_cor": "(9,0,0)",
      "dest_cor": "(9,1,0)"
    },
    {
      "id": 178,
      "type": "input",
      "source_block_id": 308,
      "dest_block_id": 111,
      "crane": 1,
      "start_time": 85.09999990452297,
      "end_time": 97.09999990452297,
      "source_cor": "(0,3,0)",
      "dest_cor": "(12,5,0)"
    },
    {
      "id": 179,
      "type": "input",
      "source_block_id": 282,
      "dest_block_id": 247,
      "crane": 1,
      "start_time": 14.099999904565266,
      "end_time": 24.099999904565266,
      "source_cor": "(16,0,0)",
      "dest_cor": "(23,10,0)"
    },
    {
      "id": 180,
      "type": "input",
      "source_block_id": 255,
      "dest_block_id": 60,
      "crane": 0,
      "start_time": 24.099999904561628,
      "end_time": 33.09999990456163,
      "source_cor": "(2,11,0)",
      "dest_cor": "(11,3,0)"
    },
    {
      "id": 181,
      "type": "input",
      "source_block_id": 264,
      "dest_block_id": 59,
      "crane": 1,
      "start_time": 72.09999990452297,
      "end_time": 75.09999990452297,
      "source_cor": "(7,0,0)",
      "dest_cor": "(10,3,0)"
    },
    {
      "id": 182,
      "type": "input",
      "source_block_id": 307,
      "dest_block_id": 34,
      "crane": 1,
      "start_time": 134.09999990452297,
      "end_time": 150.09999990452297,
      "source_cor": "(26,2,0)",
      "dest_cor": "(10,2,0)"
    },
    {
      "id": 183,
      "type": "input",
      "source_block_id": 323,
      "dest_block_id": 184,
      "crane": 1,
      "start_time": 565.0999999045525,
      "end_time": 581.0999999045525,
      "source_cor": "(26,10,0)",
      "dest_cor": "(10,8,0)"
    },
    {
      "id": 184,
      "type": "input",
      "source_block_id": 258,
      "dest_block_id": 234,
      "crane": 0,
      "start_time": 92.09999990452297,
      "end_time": 102.09999990452297,
      "source_cor": "(4,0,0)",
      "dest_cor": "(10,10,0)"
    },
    {
      "id": 185,
      "type": "input",
      "source_block_id": 256,
      "dest_block_id": 162,
      "crane": 1,
      "start_time": 518.0999999045525,
      "end_time": 528.0999999045525,
      "source_cor": "(3,0,0)",
      "dest_cor": "(13,7,0)"
    },
    {
      "id": 186,
      "type": "input",
      "source_block_id": 323,
      "dest_block_id": 185,
      "crane": 1,
      "start_time": 243.09999990452343,
      "end_time": 258.09999990452343,
      "source_cor": "(26,10,0)",
      "dest_cor": "(11,8,0)"
    },
    {
      "id": 187,
      "type": "input",
      "source_block_id": 299,
      "dest_block_id": 1,
      "crane": 1,
      "start_time": 300.09999990452343,
      "end_time": 322.09999990452343,
      "source_cor": "(24,11,0)",
      "dest_cor": "(2,1,0)"
    },
    {
      "id": 188,
      "type": "input",
      "source_block_id": 292,
      "dest_block_id": 142,
      "crane": 1,
      "start_time": 351.09999990452343,
      "end_time": 357.09999990452343,
      "source_cor": "(21,0,0)",
      "dest_cor": "(18,6,0)"
    },
    {
      "id": 189,
      "type": "input",
      "source_block_id": 284,
      "dest_block_id": 170,
      "crane": 1,
      "start_time": 366.0999999045128,
      "end_time": 373.0999999045128,
      "source_cor": "(17,0,0)",
      "dest_cor": "(21,7,0)"
    },
    {
      "id": 190,
      "type": "input",
      "source_block_id": 259,
      "dest_block_id": 19,
      "crane": 0,
      "start_time": 108.09999990452297,
      "end_time": 124.09999990452297,
      "source_cor": "(4,11,0)",
      "dest_cor": "(20,1,0)"
    },
    {
      "id": 191,
      "type": "input",
      "source_block_id": 312,
      "dest_block_id": 24,
      "crane": 0,
      "start_time": 161.09999990452343,
      "end_time": 186.09999990452343,
      "source_cor": "(0,5,0)",
      "dest_cor": "(25,1,0)"
    },
    {
      "id": 192,
      "type": "input",
      "source_block_id": 289,
      "dest_block_id": 152,
      "crane": 0,
      "start_time": 134.09999990452297,
      "end_time": 150.09999990452297,
      "source_cor": "(19,11,0)",
      "dest_cor": "(3,7,0)"
    },
    {
      "id": 193,
      "type": "input",
      "source_block_id": 257,
      "dest_block_id": 229,
      "crane": 0,
      "start_time": 154.09999990452343,
      "end_time": 156.09999990452343,
      "source_cor": "(3,11,0)",
      "dest_cor": "(5,10,0)"
    },
    {
      "id": 194,
      "type": "input",
      "source_block_id": 284,
      "dest_block_id": 156,
      "crane": 0,
      "start_time": 272.09999990452343,
      "end_time": 282.09999990452343,
      "source_cor": "(17,0,0)",
      "dest_cor": "(7,7,0)"
    },
    {
      "id": 195,
      "type": "input",
      "source_block_id": 307,
      "dest_block_id": 149,
      "crane": 1,
      "start_time": 273.09999990452343,
      "end_time": 277.09999990452343,
      "source_cor": "(26,2,0)",
      "dest_cor": "(25,6,0)"
    },
    {
      "id": 196,
      "type": "input",
      "source_block_id": 270,
      "dest_block_id": 198,
      "crane": 1,
      "start_time": 214.09999990452343,
      "end_time": 228.09999990452343,
      "source_cor": "(10,0,0)",
      "dest_cor": "(24,8,0)"
    },
    {
      "id": 197,
      "type": "input",
      "source_block_id": 292,
      "dest_block_id": 249,
      "crane": 1,
      "start_time": 382.0999999045125,
      "end_time": 392.0999999045125,
      "source_cor": "(21,0,0)",
      "dest_cor": "(25,10,0)"
    },
    {
      "id": 198,
      "type": "input",
      "source_block_id": 300,
      "dest_block_id": 22,
      "crane": 1,
      "start_time": 347.09999990452343,
      "end_time": 349.09999990452343,
      "source_cor": "(25,0,0)",
      "dest_cor": "(23,1,0)"
    },
    {
      "id": 199,
      "type": "input",
      "source_block_id": 286,
      "dest_block_id": 42,
      "crane": 1,
      "start_time": 338.09999990452343,
      "end_time": 340.09999990452343,
      "source_cor": "(18,0,0)",
      "dest_cor": "(18,2,0)"
    },
    {
      "id": 200,
      "type": "input",
      "source_block_id": 286,
      "dest_block_id": 89,
      "crane": 0,
      "start_time": 193.09999990452343,
      "end_time": 197.09999990452343,
      "source_cor": "(18,0,0)",
      "dest_cor": "(15,4,0)"
    },
    {
      "id": 201,
      "type": "input",
      "source_block_id": 258,
      "dest_block_id": 0,
      "crane": 0,
      "start_time": 344.0999999045125,
      "end_time": 347.0999999045125,
      "source_cor": "(4,0,0)",
      "dest_cor": "(1,1,0)"
    },
    {
      "id": 202,
      "type": "input",
      "source_block_id": 279,
      "dest_block_id": 139,
      "crane": 0,
      "start_time": 360.0999999045125,
      "end_time": 365.0999999045125,
      "source_cor": "(14,11,0)",
      "dest_cor": "(15,6,0)"
    },
    {
      "id": 203,
      "type": "input",
      "source_block_id": 280,
      "dest_block_id": 81,
      "crane": 0,
      "start_time": 201.09999990452343,
      "end_time": 209.09999990452343,
      "source_cor": "(15,0,0)",
      "dest_cor": "(7,4,0)"
    },
    {
      "id": 204,
      "type": "input",
      "source_block_id": 283,
      "dest_block_id": 88,
      "crane": 1,
      "start_time": 532.0999999045525,
      "end_time": 539.0999999045525,
      "source_cor": "(16,11,0)",
      "dest_cor": "(14,4,0)"
    },
    {
      "id": 205,
      "type": "input",
      "source_block_id": 280,
      "dest_block_id": 56,
      "crane": 0,
      "start_time": 222.09999990452343,
      "end_time": 230.09999990452343,
      "source_cor": "(15,0,0)",
      "dest_cor": "(7,3,0)"
    },
    {
      "id": 206,
      "type": "input",
      "source_block_id": 259,
      "dest_block_id": 182,
      "crane": 0,
      "start_time": 259.09999990452343,
      "end_time": 263.09999990452343,
      "source_cor": "(4,11,0)",
      "dest_cor": "(8,8,0)"
    },
    {
      "id": 207,
      "type": "input",
      "source_block_id": 285,
      "dest_block_id": 135,
      "crane": 0,
      "start_time": 397.0999999045128,
      "end_time": 403.0999999045128,
      "source_cor": "(17,11,0)",
      "dest_cor": "(11,6,0)"
    },
    {
      "id": 208,
      "type": "input",
      "source_block_id": 316,
      "dest_block_id": 165,
      "crane": 0,
      "start_time": 435.0999999045125,
      "end_time": 451.0999999045125,
      "source_cor": "(0,7,0)",
      "dest_cor": "(16,7,0)"
    },
    {
      "id": 209,
      "type": "input",
      "source_block_id": 278,
      "dest_block_id": 227,
      "crane": 0,
      "start_time": 409.0999999045128,
      "end_time": 420.0999999045128,
      "source_cor": "(14,0,0)",
      "dest_cor": "(3,10,0)"
    },
    {
      "id": 210,
      "type": "input",
      "source_block_id": 287,
      "dest_block_id": 244,
      "crane": 1,
      "start_time": 410.0999999045128,
      "end_time": 412.0999999045128,
      "source_cor": "(18,11,0)",
      "dest_cor": "(20,10,0)"
    },
    {
      "id": 211,
      "type": "input",
      "source_block_id": 261,
      "dest_block_id": 51,
      "crane": 0,
      "start_time": 462.09999990452707,
      "end_time": 470.09999990452707,
      "source_cor": "(5,11,0)",
      "dest_cor": "(2,3,0)"
    },
    {
      "id": 212,
      "type": "input",
      "source_block_id": 278,
      "dest_block_id": 52,
      "crane": 0,
      "start_time": 482.09999990452707,
      "end_time": 493.09999990452707,
      "source_cor": "(14,0,0)",
      "dest_cor": "(3,3,0)"
    },
    {
      "id": 213,
      "type": "input",
      "source_block_id": 312,
      "dest_block_id": 70,
      "crane": 0,
      "start_time": 543.0999999045525,
      "end_time": 564.0999999045525,
      "source_cor": "(0,5,0)",
      "dest_cor": "(21,3,0)"
    },
    {
      "id": 214,
      "type": "input",
      "source_block_id": 285,
      "dest_block_id": 208,
      "crane": 1,
      "start_time": 482.09999990452707,
      "end_time": 490.09999990452707,
      "source_cor": "(17,11,0)",
      "dest_cor": "(9,9,0)"
    }
  ]
}