{
    "objective": "113.88621586250683",
    "BAP cost": "115",
    "CSP cost": "112.77243172501366",
    "products": [
        {
            "id": "1983",
            "type": "yard_movement",
            "source_block_id": "2417",
            "destination_block_id": "1400",
            "crane": "0",
            "start_time": "52.099999904632568",
            "end_time": "63.099999904632568"
        },
        {
            "id": "2100",
            "type": "input",
            "source_block_id": "3139",
            "destination_block_id": "2249",
            "crane": "1",
            "start_time": "1.5",
            "end_time": "4.5"
        },
        {
            "id": "2101",
            "type": "input",
            "source_block_id": "3134",
            "destination_block_id": "1724",
            "crane": "0",
            "start_time": "149.69999980926514",
            "end_time": "174.69999980926514"
        },
        {
            "id": "2102",
            "type": "input",
            "source_block_id": "3034",
            "destination_block_id": "53",
            "crane": "0",
            "start_time": "6.0999999046325684",
            "end_time": "8.0999999046325684"
        },
        {
            "id": "2103",
            "type": "input",
            "source_block_id": "3134",
            "destination_block_id": "1358",
            "crane": "0",
            "start_time": "33.099999904632568",
            "end_time": "39.099999904632568"
        },
        {
            "id": "2104",
            "type": "input",
            "source_block_id": "3078",
            "destination_block_id": "11",
            "crane": "1",
            "start_time": "115.69999980926514",
            "end_time": "150.69999980926514"
        },
        {
            "id": "2105",
            "type": "input",
            "source_block_id": "3099",
            "destination_block_id": "2549",
            "crane": "1",
            "start_time": "15.699999809265137",
            "end_time": "19.699999809265137"
        },
        {
            "id": "2106",
            "type": "input",
            "source_block_id": "3005",
            "destination_block_id": "2555",
            "crane": "0",
            "start_time": "28.099999904632568",
            "end_time": "31.099999904632568"
        },
        {
            "id": "2107",
            "type": "input",
            "source_block_id": "3116",
            "destination_block_id": "1354",
            "crane": "0",
            "start_time": "42.099999904632568",
            "end_time": "45.099999904632568"
        },
        {
            "id": "2108",
            "type": "input",
            "source_block_id": "3105",
            "destination_block_id": "278",
            "crane": "1",
            "start_time": "35.699999809265137",
            "end_time": "43.699999809265137"
        },
        {
            "id": "272",
            "type": "yard_movement",
            "source_block_id": "2416",
            "destination_block_id": "1502",
            "crane": "0",
            "start_time": "74.099999904632568",
            "end_time": "80.099999904632568"
        },
        {
            "id": "57",
            "type": "output",
            "source_block_id": "2415",
            "destination_block_id": "3080",
            "crane": "1",
            "start_time": "80.699999809265137",
            "end_time": "114.69999980926514"
        }
    ]
}
