{
    "objective": "23.539369165820752",
    "BAP cost": "7",
    "CSP cost": "40.078738331641503",
    "products": [
        {
            "id": "262",
            "type": "input",
            "source_block_id": "553",
            "destination_block_id": "117",
            "crane": "0",
            "start_time": "1.5",
            "end_time": "5.5"
        },
        {
            "id": "263",
            "type": "input",
            "source_block_id": "562",
            "destination_block_id": "436",
            "crane": "1",
            "start_time": "3.0999999046325684",
            "end_time": "6.0999999046325684"
        },
        {
            "id": "264",
            "type": "input",
            "source_block_id": "585",
            "destination_block_id": "64",
            "crane": "1",
            "start_time": "19.099999904632568",
            "end_time": "21.099999904632568"
        },
        {
            "id": "265",
            "type": "input",
            "source_block_id": "541",
            "destination_block_id": "81",
            "crane": "0",
            "start_time": "10.5",
            "end_time": "14.5"
        },
        {
            "id": "266",
            "type": "input",
            "source_block_id": "583",
            "destination_block_id": "201",
            "crane": "1",
            "start_time": "23.099999904632568",
            "end_time": "29.099999904632568"
        },
        {
            "id": "267",
            "type": "input",
            "source_block_id": "555",
            "destination_block_id": "16",
            "crane": "0",
            "start_time": "17.5",
            "end_time": "19.5"
        },
        {
            "id": "268",
            "type": "input",
            "source_block_id": "559",
            "destination_block_id": "120",
            "crane": "0",
            "start_time": "20.5",
            "end_time": "24.5"
        },
        {
            "id": "182",
            "type": "output",
            "source_block_id": "416",
            "destination_block_id": "594",
            "crane": "1",
            "start_time": "35.099999904632568",
            "end_time": "39.099999904632568"
        },
        {
            "id": "269",
            "type": "input",
            "source_block_id": "571",
            "destination_block_id": "194",
            "crane": "0",
            "start_time": "38.5",
            "end_time": "44.5"
        },
        {
            "id": "270",
            "type": "input",
            "source_block_id": "553",
            "destination_block_id": "157",
            "crane": "0",
            "start_time": "28.5",
            "end_time": "33.5"
        }
    ]
}
