{
    "objective": "129.08863475334539",
    "BAP cost": "75",
    "CSP cost": "183.17726950669078",
    "products": [
        {
            "id": "432",
            "type": "yard_movement",
            "source_block_id": "1823",
            "destination_block_id": "2318",
            "crane": "0",
            "start_time": "60.5",
            "end_time": "66.5"
        },
        {
            "id": "1837",
            "type": "input",
            "source_block_id": "2630",
            "destination_block_id": "878",
            "crane": "0",
            "start_time": "1.5",
            "end_time": "11.5"
        },
        {
            "id": "1838",
            "type": "input",
            "source_block_id": "2659",
            "destination_block_id": "94",
            "crane": "1",
            "start_time": "3.0999999046325684",
            "end_time": "7.0999999046325684"
        },
        {
            "id": "1839",
            "type": "input",
            "source_block_id": "2637",
            "destination_block_id": "1638",
            "crane": "0",
            "start_time": "17.5",
            "end_time": "27.5"
        },
        {
            "id": "1840",
            "type": "input",
            "source_block_id": "2683",
            "destination_block_id": "119",
            "crane": "1",
            "start_time": "17.099999904632568",
            "end_time": "22.099999904632568"
        },
        {
            "id": "1841",
            "type": "input",
            "source_block_id": "2659",
            "destination_block_id": "1134",
            "crane": "1",
            "start_time": "65.099999904632568",
            "end_time": "72.099999904632568"
        },
        {
            "id": "1842",
            "type": "input",
            "source_block_id": "2662",
            "destination_block_id": "2149",
            "crane": "0",
            "start_time": "33.5",
            "end_time": "41.5"
        },
        {
            "id": "1843",
            "type": "input",
            "source_block_id": "2658",
            "destination_block_id": "1122",
            "crane": "0",
            "start_time": "47.5",
            "end_time": "56.5"
        },
        {
            "id": "1844",
            "type": "input",
            "source_block_id": "2683",
            "destination_block_id": "1349",
            "crane": "1",
            "start_time": "27.099999904632568",
            "end_time": "35.099999904632568"
        },
        {
            "id": "1845",
            "type": "input",
            "source_block_id": "2728",
            "destination_block_id": "2248",
            "crane": "1",
            "start_time": "46.099999904632568",
            "end_time": "52.099999904632568"
        },
        {
            "id": "309",
            "type": "yard_movement",
            "source_block_id": "1822",
            "destination_block_id": "1484",
            "crane": "0",
            "start_time": "72.5",
            "end_time": "74.5"
        },
        {
            "id": "293",
            "type": "output",
            "source_block_id": "1821",
            "destination_block_id": "2644",
            "crane": "0",
            "start_time": "77.5",
            "end_time": "83.5"
        }
    ]
}
