{
    "objective": "88.991996730433641",
    "BAP cost": "64",
    "CSP cost": "113.98399346086728",
    "products": [
        {
            "id": "366",
            "type": "yard_movement",
            "source_block_id": "694",
            "destination_block_id": "335",
            "crane": "1",
            "start_time": "43.099999904632568",
            "end_time": "48.099999904632568"
        },
        {
            "id": "375",
            "type": "input",
            "source_block_id": "766",
            "destination_block_id": "166",
            "crane": "0",
            "start_time": "1.5",
            "end_time": "4.5"
        },
        {
            "id": "376",
            "type": "input",
            "source_block_id": "786",
            "destination_block_id": "44",
            "crane": "1",
            "start_time": "31.099999904632568",
            "end_time": "34.099999904632568"
        },
        {
            "id": "377",
            "type": "input",
            "source_block_id": "807",
            "destination_block_id": "653",
            "crane": "1",
            "start_time": "6.0999999046325684",
            "end_time": "14.099999904632568"
        },
        {
            "id": "378",
            "type": "input",
            "source_block_id": "787",
            "destination_block_id": "499",
            "crane": "1",
            "start_time": "16.099999904632568",
            "end_time": "20.099999904632568"
        },
        {
            "id": "379",
            "type": "input",
            "source_block_id": "822",
            "destination_block_id": "378",
            "crane": "0",
            "start_time": "12.600000381469727",
            "end_time": "16.600000381469727"
        },
        {
            "id": "380",
            "type": "input",
            "source_block_id": "786",
            "destination_block_id": "58",
            "crane": "1",
            "start_time": "27.099999904632568",
            "end_time": "29.099999904632568"
        },
        {
            "id": "381",
            "type": "input",
            "source_block_id": "810",
            "destination_block_id": "311",
            "crane": "0",
            "start_time": "18.600000381469727",
            "end_time": "22.600000381469727"
        },
        {
            "id": "382",
            "type": "input",
            "source_block_id": "762",
            "destination_block_id": "89",
            "crane": "0",
            "start_time": "39.600000381469727",
            "end_time": "41.600000381469727"
        },
        {
            "id": "383",
            "type": "input",
            "source_block_id": "757",
            "destination_block_id": "467",
            "crane": "0",
            "start_time": "28.600000381469727",
            "end_time": "32.600000381469727"
        },
        {
            "id": "76",
            "type": "output",
            "source_block_id": "693",
            "destination_block_id": "819",
            "crane": "0",
            "start_time": "49.600000381469727",
            "end_time": "68.600000381469727"
        }
    ]
}
