{
    "objective": "70.869223848358033",
    "BAP cost": "37",
    "CSP cost": "104.73844769671607",
    "products": [
        {
            "id": "265",
            "type": "yard_movement",
            "source_block_id": "436",
            "destination_block_id": "72",
            "crane": "1",
            "start_time": "50",
            "end_time": "53"
        },
        {
            "id": "375",
            "type": "input",
            "source_block_id": "1270",
            "destination_block_id": "285",
            "crane": "0",
            "start_time": "1.5",
            "end_time": "4.5"
        },
        {
            "id": "376",
            "type": "input",
            "source_block_id": "1287",
            "destination_block_id": "951",
            "crane": "1",
            "start_time": "3.0999999046325684",
            "end_time": "6.0999999046325684"
        },
        {
            "id": "377",
            "type": "input",
            "source_block_id": "1259",
            "destination_block_id": "532",
            "crane": "0",
            "start_time": "18.5",
            "end_time": "24.5"
        },
        {
            "id": "378",
            "type": "input",
            "source_block_id": "1261",
            "destination_block_id": "887",
            "crane": "0",
            "start_time": "12.5",
            "end_time": "15.5"
        },
        {
            "id": "379",
            "type": "input",
            "source_block_id": "1285",
            "destination_block_id": "1075",
            "crane": "1",
            "start_time": "12.600000381469727",
            "end_time": "14.600000381469727"
        },
        {
            "id": "380",
            "type": "input",
            "source_block_id": "1299",
            "destination_block_id": "1232",
            "crane": "1",
            "start_time": "22.600000381469727",
            "end_time": "24.600000381469727"
        },
        {
            "id": "381",
            "type": "input",
            "source_block_id": "1307",
            "destination_block_id": "362",
            "crane": "1",
            "start_time": "37",
            "end_time": "40"
        },
        {
            "id": "382",
            "type": "input",
            "source_block_id": "1261",
            "destination_block_id": "267",
            "crane": "0",
            "start_time": "30.5",
            "end_time": "38.5"
        },
        {
            "id": "383",
            "type": "input",
            "source_block_id": "1295",
            "destination_block_id": "739",
            "crane": "1",
            "start_time": "28",
            "end_time": "33"
        },
        {
            "id": "82",
            "type": "output",
            "source_block_id": "435",
            "destination_block_id": "1304",
            "crane": "0",
            "start_time": "53",
            "end_time": "66"
        }
    ]
}
