{
    "objective": "142.70449285042613",
    "BAP cost": "168",
    "CSP cost": "117.4089857008523",
    "products": [
        {
            "id": "419",
            "type": "yard_movement",
            "source_block_id": "349",
            "destination_block_id": "44",
            "crane": "1",
            "start_time": "44.099999904632568",
            "end_time": "48.099999904632568"
        },
        {
            "id": "525",
            "type": "input",
            "source_block_id": "823",
            "destination_block_id": "671",
            "crane": "0",
            "start_time": "1.5",
            "end_time": "3.5"
        },
        {
            "id": "526",
            "type": "input",
            "source_block_id": "795",
            "destination_block_id": "653",
            "crane": "0",
            "start_time": "5.5",
            "end_time": "9.5"
        },
        {
            "id": "527",
            "type": "input",
            "source_block_id": "807",
            "destination_block_id": "578",
            "crane": "1",
            "start_time": "6.0999999046325684",
            "end_time": "14.099999904632568"
        },
        {
            "id": "528",
            "type": "input",
            "source_block_id": "759",
            "destination_block_id": "378",
            "crane": "0",
            "start_time": "45.099999904632568",
            "end_time": "50.099999904632568"
        },
        {
            "id": "529",
            "type": "input",
            "source_block_id": "795",
            "destination_block_id": "359",
            "crane": "1",
            "start_time": "25.099999904632568",
            "end_time": "31.099999904632568"
        },
        {
            "id": "530",
            "type": "input",
            "source_block_id": "785",
            "destination_block_id": "17",
            "crane": "0",
            "start_time": "16.099999904632568",
            "end_time": "27.099999904632568"
        },
        {
            "id": "531",
            "type": "input",
            "source_block_id": "799",
            "destination_block_id": "674",
            "crane": "1",
            "start_time": "20.099999904632568",
            "end_time": "22.099999904632568"
        },
        {
            "id": "532",
            "type": "input",
            "source_block_id": "800",
            "destination_block_id": "68",
            "crane": "1",
            "start_time": "36.099999904632568",
            "end_time": "38.099999904632568"
        },
        {
            "id": "533",
            "type": "input",
            "source_block_id": "770",
            "destination_block_id": "377",
            "crane": "0",
            "start_time": "31.099999904632568",
            "end_time": "40.099999904632568"
        },
        {
            "id": "170",
            "type": "output",
            "source_block_id": "348",
            "destination_block_id": "776",
            "crane": "1",
            "start_time": "52.099999904632568",
            "end_time": "57.099999904632568"
        }
    ]
}
