{
    "objective": "69.428494355486436",
    "BAP cost": "4",
    "CSP cost": "134.85698871097287",
    "products": [
        {
            "id": "500",
            "type": "input",
            "source_block_id": "1141",
            "destination_block_id": "594",
            "crane": "1",
            "start_time": "1.5",
            "end_time": "8.5"
        },
        {
            "id": "501",
            "type": "input",
            "source_block_id": "1089",
            "destination_block_id": "379",
            "crane": "0",
            "start_time": "172.09999990463257",
            "end_time": "186.09999990463257"
        },
        {
            "id": "502",
            "type": "input",
            "source_block_id": "1066",
            "destination_block_id": "30",
            "crane": "0",
            "start_time": "6.0999999046325684",
            "end_time": "8.0999999046325684"
        },
        {
            "id": "503",
            "type": "input",
            "source_block_id": "1035",
            "destination_block_id": "964",
            "crane": "0",
            "start_time": "67.099999904632568",
            "end_time": "69.099999904632568"
        },
        {
            "id": "504",
            "type": "input",
            "source_block_id": "1075",
            "destination_block_id": "883",
            "crane": "0",
            "start_time": "199.09999990463257",
            "end_time": "202.09999990463257"
        },
        {
            "id": "505",
            "type": "input",
            "source_block_id": "1046",
            "destination_block_id": "21",
            "crane": "0",
            "start_time": "16.099999904632568",
            "end_time": "17.099999904632568"
        },
        {
            "id": "506",
            "type": "input",
            "source_block_id": "1129",
            "destination_block_id": "749",
            "crane": "1",
            "start_time": "41.299999237060547",
            "end_time": "43.299999237060547"
        },
        {
            "id": "165",
            "type": "output",
            "source_block_id": "346",
            "destination_block_id": "1109",
            "crane": "1",
            "start_time": "21.299999237060547",
            "end_time": "25.299999237060547"
        },
        {
            "id": "507",
            "type": "input",
            "source_block_id": "1012",
            "destination_block_id": "5",
            "crane": "0",
            "start_time": "33.099999904632568",
            "end_time": "34.099999904632568"
        },
        {
            "id": "508",
            "type": "input",
            "source_block_id": "1098",
            "destination_block_id": "197",
            "crane": "1",
            "start_time": "28.299999237060547",
            "end_time": "32.299999237060547"
        },
        {
            "id": "509",
            "type": "input",
            "source_block_id": "1095",
            "destination_block_id": "634",
            "crane": "0",
            "start_time": "151.09999990463257",
            "end_time": "163.09999990463257"
        },
        {
            "id": "510",
            "type": "input",
            "source_block_id": "1006",
            "destination_block_id": "153",
            "crane": "0",
            "start_time": "37.099999904632568",
            "end_time": "41.099999904632568"
        },
        {
            "id": "511",
            "type": "input",
            "source_block_id": "1046",
            "destination_block_id": "268",
            "crane": "1",
            "start_time": "75.299999237060547",
            "end_time": "81.299999237060547"
        },
        {
            "id": "512",
            "type": "input",
            "source_block_id": "1049",
            "destination_block_id": "976",
            "crane": "0",
            "start_time": "107.09999990463257",
            "end_time": "110.09999990463257"
        },
        {
            "id": "513",
            "type": "input",
            "source_block_id": "1018",
            "destination_block_id": "204",
            "crane": "0",
            "start_time": "46.099999904632568",
            "end_time": "51.099999904632568"
        },
        {
            "id": "514",
            "type": "input",
            "source_block_id": "1090",
            "destination_block_id": "43",
            "crane": "0",
            "start_time": "130.09999990463257",
            "end_time": "131.09999990463257"
        },
        {
            "id": "515",
            "type": "input",
            "source_block_id": "1099",
            "destination_block_id": "636",
            "crane": "1",
            "start_time": "49.299999237060547",
            "end_time": "61.299999237060547"
        },
        {
            "id": "516",
            "type": "input",
            "source_block_id": "1005",
            "destination_block_id": "851",
            "crane": "0",
            "start_time": "82.099999904632568",
            "end_time": "85.099999904632568"
        },
        {
            "id": "418",
            "type": "output",
            "source_block_id": "821",
            "destination_block_id": "1069",
            "crane": "1",
            "start_time": "92.299999237060547",
            "end_time": "104.29999923706055"
        },
        {
            "id": "517",
            "type": "input",
            "source_block_id": "1133",
            "destination_block_id": "834",
            "crane": "1",
            "start_time": "199.09999990463257",
            "end_time": "215.09999990463257"
        }
    ]
}
