{
    "objective": "120.58257725302445",
    "BAP cost": "90",
    "CSP cost": "151.16515450604891",
    "products": [
        {
            "id": "1394",
            "type": "yard_movement",
            "source_block_id": "1070",
            "destination_block_id": "919",
            "crane": "1",
            "start_time": "64.5",
            "end_time": "65.5"
        },
        {
            "id": "1500",
            "type": "input",
            "source_block_id": "3072",
            "destination_block_id": "386",
            "crane": "1",
            "start_time": "1.5",
            "end_time": "8.5"
        },
        {
            "id": "1501",
            "type": "input",
            "source_block_id": "3018",
            "destination_block_id": "1469",
            "crane": "0",
            "start_time": "148.09999847412109",
            "end_time": "179.09999847412109"
        },
        {
            "id": "1502",
            "type": "input",
            "source_block_id": "3005",
            "destination_block_id": "2705",
            "crane": "0",
            "start_time": "6.0999999046325684",
            "end_time": "8.0999999046325684"
        },
        {
            "id": "1503",
            "type": "input",
            "source_block_id": "3134",
            "destination_block_id": "1358",
            "crane": "0",
            "start_time": "11.099999904632568",
            "end_time": "17.099999904632568"
        },
        {
            "id": "1504",
            "type": "input",
            "source_block_id": "3011",
            "destination_block_id": "0",
            "crane": "0",
            "start_time": "229.09999847412109",
            "end_time": "249.09999847412109"
        },
        {
            "id": "1505",
            "type": "input",
            "source_block_id": "3116",
            "destination_block_id": "755",
            "crane": "0",
            "start_time": "20.099999904632568",
            "end_time": "22.099999904632568"
        },
        {
            "id": "1506",
            "type": "input",
            "source_block_id": "3116",
            "destination_block_id": "451",
            "crane": "0",
            "start_time": "24.099999904632568",
            "end_time": "27.099999904632568"
        },
        {
            "id": "1507",
            "type": "input",
            "source_block_id": "3072",
            "destination_block_id": "1436",
            "crane": "1",
            "start_time": "24.5",
            "end_time": "34.5"
        },
        {
            "id": "1508",
            "type": "input",
            "source_block_id": "3049",
            "destination_block_id": "2310",
            "crane": "1",
            "start_time": "45.5",
            "end_time": "50.5"
        },
        {
            "id": "1509",
            "type": "input",
            "source_block_id": "3073",
            "destination_block_id": "342",
            "crane": "0",
            "start_time": "190.09999847412109",
            "end_time": "211.09999847412109"
        },
        {
            "id": "1510",
            "type": "input",
            "source_block_id": "3116",
            "destination_block_id": "1354",
            "crane": "0",
            "start_time": "45.099998474121094",
            "end_time": "48.099998474121094"
        },
        {
            "id": "1511",
            "type": "input",
            "source_block_id": "3014",
            "destination_block_id": "11",
            "crane": "0",
            "start_time": "36.099998474121094",
            "end_time": "39.099998474121094"
        },
        {
            "id": "1512",
            "type": "input",
            "source_block_id": "3077",
            "destination_block_id": "67",
            "crane": "0",
            "start_time": "105.09999847412109",
            "end_time": "125.09999847412109"
        },
        {
            "id": "1513",
            "type": "input",
            "source_block_id": "3007",
            "destination_block_id": "2858",
            "crane": "0",
            "start_time": "60.099998474121094",
            "end_time": "62.099998474121094"
        },
        {
            "id": "1514",
            "type": "input",
            "source_block_id": "3102",
            "destination_block_id": "2966",
            "crane": "1",
            "start_time": "171.09999847412109",
            "end_time": "191.09999847412109"
        },
        {
            "id": "1515",
            "type": "input",
            "source_block_id": "3132",
            "destination_block_id": "2851",
            "crane": "0",
            "start_time": "53.099998474121094",
            "end_time": "58.099998474121094"
        },
        {
            "id": "1516",
            "type": "input",
            "source_block_id": "3136",
            "destination_block_id": "1532",
            "crane": "0",
            "start_time": "65.099998474121094",
            "end_time": "76.099998474121094"
        },
        {
            "id": "953",
            "type": "output",
            "source_block_id": "1528",
            "destination_block_id": "3065",
            "crane": "0",
            "start_time": "77.099998474121094",
            "end_time": "99.099998474121094"
        },
        {
            "id": "1517",
            "type": "input",
            "source_block_id": "3032",
            "destination_block_id": "953",
            "crane": "0",
            "start_time": "132.09999847412109",
            "end_time": "139.09999847412109"
        },
        {
            "id": "912",
            "type": "output",
            "source_block_id": "1069",
            "destination_block_id": "3111",
            "crane": "1",
            "start_time": "66.5",
            "end_time": "110.5"
        }
    ]
}
