{
    "objective": "225.39808570093115",
    "BAP cost": "193",
    "CSP cost": "257.7961714018623",
    "products": [
        {
            "id": "116",
            "type": "yard_movement",
            "source_block_id": "626",
            "destination_block_id": "520",
            "crane": "1",
            "start_time": "6.5",
            "end_time": "7.5"
        },
        {
            "id": "314",
            "type": "yard_movement",
            "source_block_id": "694",
            "destination_block_id": "490",
            "crane": "1",
            "start_time": "88.5",
            "end_time": "90.5"
        },
        {
            "id": "787",
            "type": "input",
            "source_block_id": "1648",
            "destination_block_id": "1572",
            "crane": "0",
            "start_time": "1.5",
            "end_time": "2.5"
        },
        {
            "id": "788",
            "type": "input",
            "source_block_id": "1670",
            "destination_block_id": "1042",
            "crane": "1",
            "start_time": "26.5",
            "end_time": "29.5"
        },
        {
            "id": "789",
            "type": "input",
            "source_block_id": "1633",
            "destination_block_id": "515",
            "crane": "1",
            "start_time": "14.5",
            "end_time": "19.5"
        },
        {
            "id": "790",
            "type": "input",
            "source_block_id": "1632",
            "destination_block_id": "1535",
            "crane": "0",
            "start_time": "9.6999998092651367",
            "end_time": "15.699999809265137"
        },
        {
            "id": "791",
            "type": "input",
            "source_block_id": "1665",
            "destination_block_id": "1169",
            "crane": "0",
            "start_time": "81.699999809265137",
            "end_time": "86.699999809265137"
        },
        {
            "id": "792",
            "type": "input",
            "source_block_id": "1605",
            "destination_block_id": "266",
            "crane": "0",
            "start_time": "40.699999809265137",
            "end_time": "44.699999809265137"
        },
        {
            "id": "793",
            "type": "input",
            "source_block_id": "1612",
            "destination_block_id": "1214",
            "crane": "0",
            "start_time": "19.699999809265137",
            "end_time": "23.699999809265137"
        },
        {
            "id": "794",
            "type": "input",
            "source_block_id": "1664",
            "destination_block_id": "413",
            "crane": "1",
            "start_time": "32.5",
            "end_time": "36.5"
        },
        {
            "id": "795",
            "type": "input",
            "source_block_id": "1595",
            "destination_block_id": "143",
            "crane": "0",
            "start_time": "35.699999809265137",
            "end_time": "38.699999809265137"
        },
        {
            "id": "796",
            "type": "input",
            "source_block_id": "1608",
            "destination_block_id": "1175",
            "crane": "0",
            "start_time": "97.699999809265137",
            "end_time": "106.69999980926514"
        },
        {
            "id": "797",
            "type": "input",
            "source_block_id": "1641",
            "destination_block_id": "404",
            "crane": "1",
            "start_time": "43.5",
            "end_time": "47.5"
        },
        {
            "id": "798",
            "type": "input",
            "source_block_id": "1607",
            "destination_block_id": "545",
            "crane": "0",
            "start_time": "47.699999809265137",
            "end_time": "56.699999809265137"
        },
        {
            "id": "799",
            "type": "input",
            "source_block_id": "1650",
            "destination_block_id": "101",
            "crane": "1",
            "start_time": "39.5",
            "end_time": "41.5"
        },
        {
            "id": "800",
            "type": "input",
            "source_block_id": "1633",
            "destination_block_id": "725",
            "crane": "1",
            "start_time": "51.5",
            "end_time": "58.5"
        },
        {
            "id": "801",
            "type": "input",
            "source_block_id": "1664",
            "destination_block_id": "926",
            "crane": "1",
            "start_time": "62.5",
            "end_time": "69.5"
        },
        {
            "id": "802",
            "type": "input",
            "source_block_id": "1653",
            "destination_block_id": "107",
            "crane": "0",
            "start_time": "63.699999809265137",
            "end_time": "65.699999809265137"
        },
        {
            "id": "803",
            "type": "input",
            "source_block_id": "1649",
            "destination_block_id": "1162",
            "crane": "0",
            "start_time": "67.699999809265137",
            "end_time": "78.699999809265137"
        },
        {
            "id": "804",
            "type": "input",
            "source_block_id": "1633",
            "destination_block_id": "482",
            "crane": "1",
            "start_time": "78.5",
            "end_time": "86.5"
        },
        {
            "id": "84",
            "type": "yard_movement",
            "source_block_id": "625",
            "destination_block_id": "521",
            "crane": "1",
            "start_time": "8.5",
            "end_time": "9.5"
        },
        {
            "id": "213",
            "type": "output",
            "source_block_id": "693",
            "destination_block_id": "1600",
            "crane": "1",
            "start_time": "97.699999809265137",
            "end_time": "107.69999980926514"
        },
        {
            "id": "81",
            "type": "output",
            "source_block_id": "624",
            "destination_block_id": "1668",
            "crane": "1",
            "start_time": "21.5",
            "end_time": "25.5"
        }
    ]
}
