{
    "objective": "391.27588811905616",
    "BAP cost": "380",
    "CSP cost": "402.55177623811227",
    "products": [
        {
            "id": "367",
            "type": "input",
            "source_block_id": "530",
            "destination_block_id": "497",
            "crane": "0",
            "start_time": "1.5",
            "end_time": "7.5"
        },
        {
            "id": "368",
            "type": "input",
            "source_block_id": "614",
            "destination_block_id": "419",
            "crane": "1",
            "start_time": "13.099999904632568",
            "end_time": "17.099999904632568"
        },
        {
            "id": "369",
            "type": "input",
            "source_block_id": "600",
            "destination_block_id": "244",
            "crane": "1",
            "start_time": "6.0999999046325684",
            "end_time": "12.099999904632568"
        },
        {
            "id": "370",
            "type": "input",
            "source_block_id": "628",
            "destination_block_id": "521",
            "crane": "1",
            "start_time": "20.099999904632568",
            "end_time": "24.099999904632568"
        },
        {
            "id": "371",
            "type": "input",
            "source_block_id": "571",
            "destination_block_id": "127",
            "crane": "1",
            "start_time": "39.099999904632568",
            "end_time": "43.099999904632568"
        },
        {
            "id": "372",
            "type": "input",
            "source_block_id": "555",
            "destination_block_id": "194",
            "crane": "0",
            "start_time": "22.5",
            "end_time": "28.5"
        },
        {
            "id": "373",
            "type": "input",
            "source_block_id": "570",
            "destination_block_id": "511",
            "crane": "1",
            "start_time": "69.099999904632568",
            "end_time": "70.099999904632568"
        },
        {
            "id": "186",
            "type": "output",
            "source_block_id": "0",
            "destination_block_id": "608",
            "crane": "0",
            "start_time": "111.5",
            "end_time": "146.5"
        },
        {
            "id": "374",
            "type": "input",
            "source_block_id": "553",
            "destination_block_id": "81",
            "crane": "0",
            "start_time": "34.5",
            "end_time": "37.5"
        },
        {
            "id": "375",
            "type": "input",
            "source_block_id": "541",
            "destination_block_id": "38",
            "crane": "0",
            "start_time": "43.5",
            "end_time": "47.5"
        },
        {
            "id": "376",
            "type": "input",
            "source_block_id": "537",
            "destination_block_id": "180",
            "crane": "0",
            "start_time": "49.5",
            "end_time": "55.5"
        },
        {
            "id": "377",
            "type": "input",
            "source_block_id": "600",
            "destination_block_id": "200",
            "crane": "1",
            "start_time": "84.099999904632568",
            "end_time": "94.099999904632568"
        },
        {
            "id": "378",
            "type": "input",
            "source_block_id": "536",
            "destination_block_id": "363",
            "crane": "0",
            "start_time": "69.5",
            "end_time": "78.5"
        },
        {
            "id": "379",
            "type": "input",
            "source_block_id": "543",
            "destination_block_id": "9",
            "crane": "0",
            "start_time": "40.5",
            "end_time": "41.5"
        },
        {
            "id": "380",
            "type": "input",
            "source_block_id": "619",
            "destination_block_id": "456",
            "crane": "0",
            "start_time": "63.5",
            "end_time": "66.5"
        },
        {
            "id": "381",
            "type": "input",
            "source_block_id": "575",
            "destination_block_id": "228",
            "crane": "1",
            "start_time": "47.099999904632568",
            "end_time": "54.099999904632568"
        },
        {
            "id": "382",
            "type": "input",
            "source_block_id": "619",
            "destination_block_id": "385",
            "crane": "0",
            "start_time": "61.5",
            "end_time": "62.5"
        },
        {
            "id": "383",
            "type": "input",
            "source_block_id": "559",
            "destination_block_id": "327",
            "crane": "0",
            "start_time": "89.5",
            "end_time": "99.5"
        },
        {
            "id": "80",
            "type": "output",
            "source_block_id": "432",
            "destination_block_id": "566",
            "crane": "1",
            "start_time": "60.099999904632568",
            "end_time": "67.099999904632568"
        },
        {
            "id": "384",
            "type": "input",
            "source_block_id": "591",
            "destination_block_id": "304",
            "crane": "1",
            "start_time": "101.09999990463257",
            "end_time": "110.09999990463257"
        }
    ]
}
