{
    "objective": "339.21667552224869",
    "BAP cost": "505",
    "CSP cost": "173.43335104449744",
    "products": [
        {
            "id": "175",
            "type": "input",
            "source_block_id": "322",
            "destination_block_id": "0",
            "crane": "0",
            "start_time": "1.5",
            "end_time": "10.5"
        },
        {
            "id": "176",
            "type": "input",
            "source_block_id": "289",
            "destination_block_id": "59",
            "crane": "1",
            "start_time": "3.0999999046325684",
            "end_time": "12.099999904632568"
        },
        {
            "id": "177",
            "type": "input",
            "source_block_id": "268",
            "destination_block_id": "8",
            "crane": "0",
            "start_time": "24.5",
            "end_time": "25.5"
        },
        {
            "id": "178",
            "type": "input",
            "source_block_id": "308",
            "destination_block_id": "51",
            "crane": "0",
            "start_time": "12.5",
            "end_time": "14.5"
        },
        {
            "id": "179",
            "type": "input",
            "source_block_id": "282",
            "destination_block_id": "42",
            "crane": "1",
            "start_time": "18.099999904632568",
            "end_time": "20.099999904632568"
        },
        {
            "id": "180",
            "type": "input",
            "source_block_id": "255",
            "destination_block_id": "152",
            "crane": "0",
            "start_time": "48.400001525878906",
            "end_time": "52.400001525878906"
        },
        {
            "id": "181",
            "type": "input",
            "source_block_id": "264",
            "destination_block_id": "34",
            "crane": "0",
            "start_time": "19.5",
            "end_time": "22.5"
        },
        {
            "id": "16",
            "type": "output",
            "source_block_id": "69",
            "destination_block_id": "298",
            "crane": "1",
            "start_time": "22.099999904632568",
            "end_time": "26.099999904632568"
        },
        {
            "id": "182",
            "type": "input",
            "source_block_id": "307",
            "destination_block_id": "198",
            "crane": "1",
            "start_time": "28.099999904632568",
            "end_time": "34.099999904632568"
        },
        {
            "id": "183",
            "type": "input",
            "source_block_id": "323",
            "destination_block_id": "22",
            "crane": "1",
            "start_time": "42.299999237060547",
            "end_time": "51.299999237060547"
        },
        {
            "id": "184",
            "type": "input",
            "source_block_id": "258",
            "destination_block_id": "1",
            "crane": "0",
            "start_time": "31.200000762939453",
            "end_time": "33.200000762939453"
        },
        {
            "id": "185",
            "type": "input",
            "source_block_id": "256",
            "destination_block_id": "182",
            "crane": "0",
            "start_time": "34.200000762939453",
            "end_time": "42.200000762939453"
        },
        {
            "id": "186",
            "type": "input",
            "source_block_id": "323",
            "destination_block_id": "249",
            "crane": "1",
            "start_time": "36.099999904632568",
            "end_time": "37.099999904632568"
        },
        {
            "id": "187",
            "type": "input",
            "source_block_id": "299",
            "destination_block_id": "247",
            "crane": "1",
            "start_time": "38.299999237060547",
            "end_time": "39.299999237060547"
        },
        {
            "id": "188",
            "type": "input",
            "source_block_id": "292",
            "destination_block_id": "19",
            "crane": "1",
            "start_time": "53.299999237060547",
            "end_time": "54.299999237060547"
        },
        {
            "id": "189",
            "type": "input",
            "source_block_id": "284",
            "destination_block_id": "88",
            "crane": "1",
            "start_time": "57.299999237060547",
            "end_time": "61.299999237060547"
        },
        {
            "id": "190",
            "type": "input",
            "source_block_id": "259",
            "destination_block_id": "227",
            "crane": "0",
            "start_time": "46.400001525878906",
            "end_time": "47.400001525878906"
        },
        {
            "id": "191",
            "type": "input",
            "source_block_id": "312",
            "destination_block_id": "81",
            "crane": "0",
            "start_time": "55.400001525878906",
            "end_time": "62.400001525878906"
        },
        {
            "id": "141",
            "type": "output",
            "source_block_id": "194",
            "destination_block_id": "267",
            "crane": "1",
            "start_time": "78.299999237060547",
            "end_time": "90.299999237060547"
        },
        {
            "id": "192",
            "type": "input",
            "source_block_id": "289",
            "destination_block_id": "139",
            "crane": "1",
            "start_time": "68.299999237060547",
            "end_time": "73.299999237060547"
        }
    ]
}
