{
    "objective": "583.77368281086729",
    "BAP cost": "566",
    "CSP cost": "601.54736562173434",
    "products": [
        {
            "id": "1976",
            "type": "yard_movement",
            "source_block_id": "1824",
            "destination_block_id": "808",
            "crane": "0",
            "start_time": "16.5",
            "end_time": "20.5"
        },
        {
            "id": "2472",
            "type": "yard_movement",
            "source_block_id": "1413",
            "destination_block_id": "1659",
            "crane": "1",
            "start_time": "0",
            "end_time": "1"
        },
        {
            "id": "2500",
            "type": "input",
            "source_block_id": "5016",
            "destination_block_id": "47",
            "crane": "0",
            "start_time": "1.5",
            "end_time": "3.5"
        },
        {
            "id": "2501",
            "type": "input",
            "source_block_id": "5094",
            "destination_block_id": "3999",
            "crane": "1",
            "start_time": "191.5",
            "end_time": "207.5"
        },
        {
            "id": "2502",
            "type": "input",
            "source_block_id": "5014",
            "destination_block_id": "48",
            "crane": "0",
            "start_time": "6.5",
            "end_time": "9.5"
        },
        {
            "id": "2503",
            "type": "input",
            "source_block_id": "5046",
            "destination_block_id": "372",
            "crane": "1",
            "start_time": "62.5",
            "end_time": "64.5"
        },
        {
            "id": "2504",
            "type": "input",
            "source_block_id": "5016",
            "destination_block_id": "954",
            "crane": "0",
            "start_time": "227.5",
            "end_time": "260.5"
        },
        {
            "id": "2505",
            "type": "input",
            "source_block_id": "5143",
            "destination_block_id": "3223",
            "crane": "1",
            "start_time": "31.5",
            "end_time": "38.5"
        },
        {
            "id": "2506",
            "type": "input",
            "source_block_id": "5132",
            "destination_block_id": "3751",
            "crane": "0",
            "start_time": "46",
            "end_time": "47"
        },
        {
            "id": "2227",
            "type": "output",
            "source_block_id": "4786",
            "destination_block_id": "5065",
            "crane": "0",
            "start_time": "87.5",
            "end_time": "111.5"
        },
        {
            "id": "2507",
            "type": "input",
            "source_block_id": "5139",
            "destination_block_id": "3998",
            "crane": "1",
            "start_time": "24.5",
            "end_time": "27.5"
        },
        {
            "id": "2508",
            "type": "input",
            "source_block_id": "5034",
            "destination_block_id": "1289",
            "crane": "0",
            "start_time": "28",
            "end_time": "37"
        },
        {
            "id": "2509",
            "type": "input",
            "source_block_id": "5062",
            "destination_block_id": "333",
            "crane": "0",
            "start_time": "270.5",
            "end_time": "284.5"
        },
        {
            "id": "2510",
            "type": "input",
            "source_block_id": "5066",
            "destination_block_id": "157",
            "crane": "1",
            "start_time": "51.5",
            "end_time": "53.5"
        },
        {
            "id": "2511",
            "type": "input",
            "source_block_id": "5140",
            "destination_block_id": "2523",
            "crane": "0",
            "start_time": "50",
            "end_time": "58"
        },
        {
            "id": "2512",
            "type": "input",
            "source_block_id": "5030",
            "destination_block_id": "1043",
            "crane": "0",
            "start_time": "216.5",
            "end_time": "222.5"
        },
        {
            "id": "2513",
            "type": "input",
            "source_block_id": "5060",
            "destination_block_id": "377",
            "crane": "1",
            "start_time": "55.5",
            "end_time": "59.5"
        },
        {
            "id": "2514",
            "type": "input",
            "source_block_id": "5138",
            "destination_block_id": "557",
            "crane": "0",
            "start_time": "198.5",
            "end_time": "213.5"
        },
        {
            "id": "2515",
            "type": "input",
            "source_block_id": "5037",
            "destination_block_id": "3903",
            "crane": "1",
            "start_time": "83.5",
            "end_time": "96.5"
        },
        {
            "id": "2516",
            "type": "input",
            "source_block_id": "5095",
            "destination_block_id": "2403",
            "crane": "1",
            "start_time": "117.5",
            "end_time": "133.5"
        },
        {
            "id": "2517",
            "type": "input",
            "source_block_id": "5066",
            "destination_block_id": "158",
            "crane": "0",
            "start_time": "366.5",
            "end_time": "369.5"
        },
        {
            "id": "2518",
            "type": "input",
            "source_block_id": "5042",
            "destination_block_id": "314",
            "crane": "0",
            "start_time": "132.5",
            "end_time": "140.5"
        },
        {
            "id": "2519",
            "type": "input",
            "source_block_id": "5105",
            "destination_block_id": "497",
            "crane": "0",
            "start_time": "388.5",
            "end_time": "390.5"
        },
        {
            "id": "2520",
            "type": "input",
            "source_block_id": "5033",
            "destination_block_id": "3839",
            "crane": "0",
            "start_time": "345.5",
            "end_time": "350.5"
        },
        {
            "id": "2521",
            "type": "input",
            "source_block_id": "5072",
            "destination_block_id": "143",
            "crane": "1",
            "start_time": "143.5",
            "end_time": "150.5"
        },
        {
            "id": "2522",
            "type": "input",
            "source_block_id": "5136",
            "destination_block_id": "3752",
            "crane": "0",
            "start_time": "67.5",
            "end_time": "69.5"
        },
        {
            "id": "2523",
            "type": "input",
            "source_block_id": "5074",
            "destination_block_id": "4028",
            "crane": "0",
            "start_time": "304.5",
            "end_time": "335.5"
        },
        {
            "id": "2524",
            "type": "input",
            "source_block_id": "5122",
            "destination_block_id": "4544",
            "crane": "0",
            "start_time": "75.5",
            "end_time": "84.5"
        },
        {
            "id": "2525",
            "type": "input",
            "source_block_id": "5089",
            "destination_block_id": "4958",
            "crane": "1",
            "start_time": "109.5",
            "end_time": "112.5"
        },
        {
            "id": "2526",
            "type": "input",
            "source_block_id": "5138",
            "destination_block_id": "3509",
            "crane": "0",
            "start_time": "190.5",
            "end_time": "194.5"
        },
        {
            "id": "1972",
            "type": "yard_movement",
            "source_block_id": "1823",
            "destination_block_id": "1829",
            "crane": "0",
            "start_time": "146.5",
            "end_time": "147.5"
        },
        {
            "id": "1849",
            "type": "yard_movement",
            "source_block_id": "1412",
            "destination_block_id": "4728",
            "crane": "1",
            "start_time": "3",
            "end_time": "16"
        },
        {
            "id": "1946",
            "type": "yard_movement",
            "source_block_id": "1822",
            "destination_block_id": "1568",
            "crane": "0",
            "start_time": "149.5",
            "end_time": "150.5"
        },
        {
            "id": "1346",
            "type": "yard_movement",
            "source_block_id": "1411",
            "destination_block_id": "1167",
            "crane": "1",
            "start_time": "137.5",
            "end_time": "138.5"
        },
        {
            "id": "1403",
            "type": "yard_movement",
            "source_block_id": "1821",
            "destination_block_id": "3343",
            "crane": "0",
            "start_time": "152.5",
            "end_time": "158.5"
        },
        {
            "id": "1297",
            "type": "output",
            "source_block_id": "1410",
            "destination_block_id": "5087",
            "crane": "1",
            "start_time": "155.5",
            "end_time": "170.5"
        },
        {
            "id": "44",
            "type": "output",
            "source_block_id": "1820",
            "destination_block_id": "5024",
            "crane": "0",
            "start_time": "164.5",
            "end_time": "172.5"
        }
    ]
}
