{
    "objective": "1033.3916515685601",
    "BAP cost": "1152",
    "CSP cost": "914.78330313712058",
    "products": [
        {
            "id": "432",
            "type": "yard_movement",
            "source_block_id": "1823",
            "destination_block_id": "1638",
            "crane": "0",
            "start_time": "0",
            "end_time": "2"
        },
        {
            "id": "798",
            "type": "yard_movement",
            "source_block_id": "2164",
            "destination_block_id": "2158",
            "crane": "0",
            "start_time": "8.0999999046325684",
            "end_time": "9.0999999046325684"
        },
        {
            "id": "1718",
            "type": "yard_movement",
            "source_block_id": "844",
            "destination_block_id": "1224",
            "crane": "1",
            "start_time": "118.09999990463257",
            "end_time": "124.09999990463257"
        },
        {
            "id": "1837",
            "type": "input",
            "source_block_id": "2630",
            "destination_block_id": "2276",
            "crane": "0",
            "start_time": "34.699999809265137",
            "end_time": "36.699999809265137"
        },
        {
            "id": "1838",
            "type": "input",
            "source_block_id": "2659",
            "destination_block_id": "284",
            "crane": "1",
            "start_time": "3.0999999046325684",
            "end_time": "8.0999999046325684"
        },
        {
            "id": "1839",
            "type": "input",
            "source_block_id": "2637",
            "destination_block_id": "21",
            "crane": "0",
            "start_time": "63.699999809265137",
            "end_time": "64.699999809265137"
        },
        {
            "id": "1840",
            "type": "input",
            "source_block_id": "2683",
            "destination_block_id": "2248",
            "crane": "1",
            "start_time": "15.099999904632568",
            "end_time": "28.099999904632568"
        },
        {
            "id": "1841",
            "type": "input",
            "source_block_id": "2659",
            "destination_block_id": "1134",
            "crane": "0",
            "start_time": "125.69999980926514",
            "end_time": "132.69999980926514"
        },
        {
            "id": "1842",
            "type": "input",
            "source_block_id": "2662",
            "destination_block_id": "2365",
            "crane": "0",
            "start_time": "15.699999809265137",
            "end_time": "17.699999809265137"
        },
        {
            "id": "1843",
            "type": "input",
            "source_block_id": "2658",
            "destination_block_id": "1639",
            "crane": "1",
            "start_time": "79.099999904632568",
            "end_time": "85.099999904632568"
        },
        {
            "id": "1844",
            "type": "input",
            "source_block_id": "2683",
            "destination_block_id": "1183",
            "crane": "1",
            "start_time": "55.099999904632568",
            "end_time": "62.099999904632568"
        },
        {
            "id": "1845",
            "type": "input",
            "source_block_id": "2728",
            "destination_block_id": "2443",
            "crane": "1",
            "start_time": "34.099999904632568",
            "end_time": "37.099999904632568"
        },
        {
            "id": "1846",
            "type": "input",
            "source_block_id": "2654",
            "destination_block_id": "2511",
            "crane": "1",
            "start_time": "75.099999904632568",
            "end_time": "76.099999904632568"
        },
        {
            "id": "1847",
            "type": "input",
            "source_block_id": "2715",
            "destination_block_id": "1400",
            "crane": "0",
            "start_time": "41.699999809265137",
            "end_time": "42.699999809265137"
        },
        {
            "id": "1848",
            "type": "input",
            "source_block_id": "2707",
            "destination_block_id": "700",
            "crane": "0",
            "start_time": "83.699999809265137",
            "end_time": "84.699999809265137"
        },
        {
            "id": "1849",
            "type": "input",
            "source_block_id": "2713",
            "destination_block_id": "2109",
            "crane": "0",
            "start_time": "43.699999809265137",
            "end_time": "48.699999809265137"
        },
        {
            "id": "1850",
            "type": "input",
            "source_block_id": "2631",
            "destination_block_id": "729",
            "crane": "0",
            "start_time": "66.699999809265137",
            "end_time": "71.699999809265137"
        },
        {
            "id": "1851",
            "type": "input",
            "source_block_id": "2687",
            "destination_block_id": "147",
            "crane": "1",
            "start_time": "51.099999904632568",
            "end_time": "53.099999904632568"
        },
        {
            "id": "1852",
            "type": "input",
            "source_block_id": "2655",
            "destination_block_id": "94",
            "crane": "0",
            "start_time": "117.69999980926514",
            "end_time": "121.69999980926514"
        },
        {
            "id": "1853",
            "type": "input",
            "source_block_id": "2719",
            "destination_block_id": "728",
            "crane": "0",
            "start_time": "52.699999809265137",
            "end_time": "58.699999809265137"
        },
        {
            "id": "1854",
            "type": "input",
            "source_block_id": "2715",
            "destination_block_id": "878",
            "crane": "0",
            "start_time": "77.699999809265137",
            "end_time": "80.699999809265137"
        },
        {
            "id": "1855",
            "type": "input",
            "source_block_id": "2657",
            "destination_block_id": "2149",
            "crane": "0",
            "start_time": "139.69999980926514",
            "end_time": "152.69999980926514"
        },
        {
            "id": "1856",
            "type": "input",
            "source_block_id": "2707",
            "destination_block_id": "527",
            "crane": "0",
            "start_time": "85.699999809265137",
            "end_time": "87.699999809265137"
        },
        {
            "id": "1857",
            "type": "input",
            "source_block_id": "2660",
            "destination_block_id": "1349",
            "crane": "1",
            "start_time": "91.099999904632568",
            "end_time": "99.099999904632568"
        },
        {
            "id": "1858",
            "type": "input",
            "source_block_id": "2643",
            "destination_block_id": "248",
            "crane": "0",
            "start_time": "108.69999980926514",
            "end_time": "114.69999980926514"
        },
        {
            "id": "1859",
            "type": "input",
            "source_block_id": "2662",
            "destination_block_id": "2527",
            "crane": "1",
            "start_time": "71.099999904632568",
            "end_time": "73.099999904632568"
        },
        {
            "id": "1860",
            "type": "input",
            "source_block_id": "2667",
            "destination_block_id": "105",
            "crane": "1",
            "start_time": "107.09999990463257",
            "end_time": "108.09999990463257"
        },
        {
            "id": "1861",
            "type": "input",
            "source_block_id": "2667",
            "destination_block_id": "119",
            "crane": "1",
            "start_time": "109.09999990463257",
            "end_time": "113.09999990463257"
        },
        {
            "id": "1862",
            "type": "input",
            "source_block_id": "2724",
            "destination_block_id": "2249",
            "crane": "1",
            "start_time": "130.09999990463257",
            "end_time": "136.09999990463257"
        },
        {
            "id": "1863",
            "type": "input",
            "source_block_id": "2641",
            "destination_block_id": "1122",
            "crane": "0",
            "start_time": "94.699999809265137",
            "end_time": "101.69999980926514"
        },
        {
            "id": "309",
            "type": "yard_movement",
            "source_block_id": "1822",
            "destination_block_id": "1653",
            "crane": "0",
            "start_time": "4.0999999046325684",
            "end_time": "5.0999999046325684"
        },
        {
            "id": "680",
            "type": "yard_movement",
            "source_block_id": "2163",
            "destination_block_id": "2169",
            "crane": "0",
            "start_time": "10.099999904632568",
            "end_time": "11.099999904632568"
        },
        {
            "id": "1237",
            "type": "yard_movement",
            "source_block_id": "843",
            "destination_block_id": "1484",
            "crane": "1",
            "start_time": "144.09999990463257",
            "end_time": "156.09999990463257"
        },
        {
            "id": "293",
            "type": "output",
            "source_block_id": "1821",
            "destination_block_id": "2644",
            "crane": "0",
            "start_time": "21.699999809265137",
            "end_time": "27.699999809265137"
        },
        {
            "id": "587",
            "type": "output",
            "source_block_id": "2162",
            "destination_block_id": "2688",
            "crane": "0",
            "start_time": "155.69999980926514",
            "end_time": "173.69999980926514"
        },
        {
            "id": "825",
            "type": "yard_movement",
            "source_block_id": "842",
            "destination_block_id": "2318",
            "crane": "1",
            "start_time": "178.69999980926514",
            "end_time": "198.69999980926514"
        },
        {
            "id": "278",
            "type": "output",
            "source_block_id": "841",
            "destination_block_id": "2666",
            "crane": "1",
            "start_time": "218.69999980926514",
            "end_time": "229.69999980926514"
        }
    ]
}
