{
    "objective": "1097.9944775337499",
    "BAP cost": "1044",
    "CSP cost": "1151.9889550674993",
    "products": [
        {
            "id": "700",
            "type": "input",
            "source_block_id": "1028",
            "destination_block_id": "13",
            "crane": "0",
            "start_time": "1.5",
            "end_time": "2.5"
        },
        {
            "id": "701",
            "type": "input",
            "source_block_id": "1045",
            "destination_block_id": "972",
            "crane": "0",
            "start_time": "128.40000152587891",
            "end_time": "129.40000152587891"
        },
        {
            "id": "702",
            "type": "input",
            "source_block_id": "1060",
            "destination_block_id": "130",
            "crane": "1",
            "start_time": "6.0999999046325684",
            "end_time": "9.0999999046325684"
        },
        {
            "id": "703",
            "type": "input",
            "source_block_id": "1060",
            "destination_block_id": "29",
            "crane": "1",
            "start_time": "12.099999904632568",
            "end_time": "13.099999904632568"
        },
        {
            "id": "704",
            "type": "input",
            "source_block_id": "1112",
            "destination_block_id": "266",
            "crane": "0",
            "start_time": "377.69999694824219",
            "end_time": "394.69999694824219"
        },
        {
            "id": "705",
            "type": "input",
            "source_block_id": "1046",
            "destination_block_id": "21",
            "crane": "1",
            "start_time": "20.099999904632568",
            "end_time": "21.099999904632568"
        },
        {
            "id": "706",
            "type": "input",
            "source_block_id": "1097",
            "destination_block_id": "996",
            "crane": "1",
            "start_time": "104.09999990463257",
            "end_time": "105.09999990463257"
        },
        {
            "id": "391",
            "type": "output",
            "source_block_id": "166",
            "destination_block_id": "1080",
            "crane": "1",
            "start_time": "26.099999904632568",
            "end_time": "49.099999904632568"
        },
        {
            "id": "707",
            "type": "input",
            "source_block_id": "1140",
            "destination_block_id": "851",
            "crane": "0",
            "start_time": "24.5",
            "end_time": "26.5"
        },
        {
            "id": "708",
            "type": "input",
            "source_block_id": "1134",
            "destination_block_id": "650",
            "crane": "0",
            "start_time": "28.5",
            "end_time": "30.5"
        },
        {
            "id": "709",
            "type": "input",
            "source_block_id": "1074",
            "destination_block_id": "709",
            "crane": "0",
            "start_time": "321.69999694824219",
            "end_time": "348.69999694824219"
        },
        {
            "id": "710",
            "type": "input",
            "source_block_id": "1105",
            "destination_block_id": "44",
            "crane": "1",
            "start_time": "60.099999904632568",
            "end_time": "66.099999904632568"
        },
        {
            "id": "711",
            "type": "input",
            "source_block_id": "1049",
            "destination_block_id": "975",
            "crane": "0",
            "start_time": "122.40000152587891",
            "end_time": "124.40000152587891"
        },
        {
            "id": "712",
            "type": "input",
            "source_block_id": "1141",
            "destination_block_id": "747",
            "crane": "1",
            "start_time": "109.09999990463257",
            "end_time": "113.09999990463257"
        },
        {
            "id": "713",
            "type": "input",
            "source_block_id": "1140",
            "destination_block_id": "902",
            "crane": "0",
            "start_time": "41.200000762939453",
            "end_time": "44.200000762939453"
        },
        {
            "id": "714",
            "type": "input",
            "source_block_id": "1074",
            "destination_block_id": "247",
            "crane": "1",
            "start_time": "277.69999694824219",
            "end_time": "288.69999694824219"
        },
        {
            "id": "715",
            "type": "input",
            "source_block_id": "1011",
            "destination_block_id": "853",
            "crane": "0",
            "start_time": "46.400001525878906",
            "end_time": "49.400001525878906"
        },
        {
            "id": "716",
            "type": "input",
            "source_block_id": "1123",
            "destination_block_id": "594",
            "crane": "1",
            "start_time": "75.099999904632568",
            "end_time": "81.099999904632568"
        },
        {
            "id": "603",
            "type": "output",
            "source_block_id": "713",
            "destination_block_id": "1115",
            "crane": "1",
            "start_time": "209.69999694824219",
            "end_time": "246.69999694824219"
        },
        {
            "id": "717",
            "type": "input",
            "source_block_id": "1074",
            "destination_block_id": "689",
            "crane": "1",
            "start_time": "324.69999694824219",
            "end_time": "338.69999694824219"
        },
        {
            "id": "718",
            "type": "input",
            "source_block_id": "1014",
            "destination_block_id": "5",
            "crane": "0",
            "start_time": "67.400001525878906",
            "end_time": "68.400001525878906"
        },
        {
            "id": "719",
            "type": "input",
            "source_block_id": "1073",
            "destination_block_id": "254",
            "crane": "0",
            "start_time": "477.69999694824219",
            "end_time": "508.69999694824219"
        },
        {
            "id": "720",
            "type": "input",
            "source_block_id": "1123",
            "destination_block_id": "268",
            "crane": "0",
            "start_time": "428.69999694824219",
            "end_time": "460.69999694824219"
        },
        {
            "id": "721",
            "type": "input",
            "source_block_id": "1073",
            "destination_block_id": "986",
            "crane": "1",
            "start_time": "92.099999904632568",
            "end_time": "93.099999904632568"
        },
        {
            "id": "722",
            "type": "input",
            "source_block_id": "1075",
            "destination_block_id": "985",
            "crane": "1",
            "start_time": "90.099999904632568",
            "end_time": "91.099999904632568"
        },
        {
            "id": "723",
            "type": "input",
            "source_block_id": "1029",
            "destination_block_id": "531",
            "crane": "0",
            "start_time": "523.69999694824219",
            "end_time": "541.69999694824219"
        },
        {
            "id": "724",
            "type": "input",
            "source_block_id": "1110",
            "destination_block_id": "0",
            "crane": "0",
            "start_time": "74.400001525878906",
            "end_time": "77.400001525878906"
        },
        {
            "id": "725",
            "type": "input",
            "source_block_id": "1116",
            "destination_block_id": "259",
            "crane": "0",
            "start_time": "83.400001525878906",
            "end_time": "93.400001525878906"
        },
        {
            "id": "360",
            "type": "output",
            "source_block_id": "424",
            "destination_block_id": "1056",
            "crane": "1",
            "start_time": "181.69999694824219",
            "end_time": "190.69999694824219"
        },
        {
            "id": "726",
            "type": "input",
            "source_block_id": "1029",
            "destination_block_id": "758",
            "crane": "0",
            "start_time": "143.40000152587891",
            "end_time": "148.40000152587891"
        },
        {
            "id": "280",
            "type": "output",
            "source_block_id": "808",
            "destination_block_id": "1054",
            "crane": "0",
            "start_time": "209.69999694824219",
            "end_time": "227.69999694824219"
        },
        {
            "id": "727",
            "type": "input",
            "source_block_id": "1018",
            "destination_block_id": "208",
            "crane": "0",
            "start_time": "99.400001525878906",
            "end_time": "104.40000152587891"
        },
        {
            "id": "253",
            "type": "output",
            "source_block_id": "326",
            "destination_block_id": "1064",
            "crane": "1",
            "start_time": "163.69999694824219",
            "end_time": "170.69999694824219"
        },
        {
            "id": "306",
            "type": "output",
            "source_block_id": "451",
            "destination_block_id": "1015",
            "crane": "0",
            "start_time": "185.40000152587891",
            "end_time": "196.40000152587891"
        },
        {
            "id": "728",
            "type": "input",
            "source_block_id": "1045",
            "destination_block_id": "765",
            "crane": "0",
            "start_time": "130.40000152587891",
            "end_time": "136.40000152587891"
        },
        {
            "id": "483",
            "type": "output",
            "source_block_id": "360",
            "destination_block_id": "1051",
            "crane": "0",
            "start_time": "107.40000152587891",
            "end_time": "121.40000152587891"
        },
        {
            "id": "329",
            "type": "output",
            "source_block_id": "761",
            "destination_block_id": "1127",
            "crane": "0",
            "start_time": "268.69999694824219",
            "end_time": "307.69999694824219"
        },
        {
            "id": "729",
            "type": "input",
            "source_block_id": "1033",
            "destination_block_id": "964",
            "crane": "0",
            "start_time": "141.40000152587891",
            "end_time": "142.40000152587891"
        },
        {
            "id": "730",
            "type": "input",
            "source_block_id": "1133",
            "destination_block_id": "991",
            "crane": "1",
            "start_time": "118.69999694824219",
            "end_time": "127.69999694824219"
        },
        {
            "id": "731",
            "type": "input",
            "source_block_id": "1058",
            "destination_block_id": "416",
            "crane": "1",
            "start_time": "191.69999694824219",
            "end_time": "203.69999694824219"
        },
        {
            "id": "732",
            "type": "input",
            "source_block_id": "1009",
            "destination_block_id": "954",
            "crane": "0",
            "start_time": "153.40000152587891",
            "end_time": "154.40000152587891"
        },
        {
            "id": "733",
            "type": "input",
            "source_block_id": "1133",
            "destination_block_id": "699",
            "crane": "1",
            "start_time": "116.69999694824219",
            "end_time": "117.69999694824219"
        },
        {
            "id": "214",
            "type": "output",
            "source_block_id": "900",
            "destination_block_id": "1106",
            "crane": "0",
            "start_time": "160.40000152587891",
            "end_time": "177.40000152587891"
        },
        {
            "id": "734",
            "type": "input",
            "source_block_id": "1028",
            "destination_block_id": "404",
            "crane": "0",
            "start_time": "363.69999694824219",
            "end_time": "372.69999694824219"
        },
        {
            "id": "735",
            "type": "input",
            "source_block_id": "1072",
            "destination_block_id": "379",
            "crane": "1",
            "start_time": "261.69999694824219",
            "end_time": "269.69999694824219"
        },
        {
            "id": "613",
            "type": "output",
            "source_block_id": "127",
            "destination_block_id": "1065",
            "crane": "0",
            "start_time": "230.69999694824219",
            "end_time": "248.69999694824219"
        },
        {
            "id": "736",
            "type": "input",
            "source_block_id": "1139",
            "destination_block_id": "849",
            "crane": "1",
            "start_time": "136.69999694824219",
            "end_time": "137.69999694824219"
        },
        {
            "id": "737",
            "type": "input",
            "source_block_id": "1140",
            "destination_block_id": "900",
            "crane": "0",
            "start_time": "159.40000152587891",
            "end_time": "160.40000152587891"
        },
        {
            "id": "738",
            "type": "input",
            "source_block_id": "1060",
            "destination_block_id": "226",
            "crane": "1",
            "start_time": "172.69999694824219",
            "end_time": "177.69999694824219"
        },
        {
            "id": "739",
            "type": "input",
            "source_block_id": "1133",
            "destination_block_id": "582",
            "crane": "1",
            "start_time": "139.69999694824219",
            "end_time": "157.69999694824219"
        }
    ]
}
