{
    "objective": "702.0221929367342",
    "BAP cost": "151",
    "CSP cost": "1253.0443858734682",
    "products": [
        {
            "id": "500",
            "type": "input",
            "source_block_id": "1141",
            "destination_block_id": "949",
            "crane": "1",
            "start_time": "1.5",
            "end_time": "2.5"
        },
        {
            "id": "501",
            "type": "input",
            "source_block_id": "1089",
            "destination_block_id": "594",
            "crane": "1",
            "start_time": "8.5",
            "end_time": "17.5"
        },
        {
            "id": "502",
            "type": "input",
            "source_block_id": "1066",
            "destination_block_id": "78",
            "crane": "0",
            "start_time": "25.699999809265137",
            "end_time": "29.699999809265137"
        },
        {
            "id": "503",
            "type": "input",
            "source_block_id": "1035",
            "destination_block_id": "814",
            "crane": "0",
            "start_time": "109.09999847412109",
            "end_time": "113.09999847412109"
        },
        {
            "id": "504",
            "type": "input",
            "source_block_id": "1075",
            "destination_block_id": "379",
            "crane": "0",
            "start_time": "349.09999847412109",
            "end_time": "362.09999847412109"
        },
        {
            "id": "505",
            "type": "input",
            "source_block_id": "1046",
            "destination_block_id": "127",
            "crane": "0",
            "start_time": "15.699999809265137",
            "end_time": "20.699999809265137"
        },
        {
            "id": "506",
            "type": "input",
            "source_block_id": "1129",
            "destination_block_id": "649",
            "crane": "1",
            "start_time": "42.5",
            "end_time": "43.5"
        },
        {
            "id": "165",
            "type": "output",
            "source_block_id": "346",
            "destination_block_id": "1109",
            "crane": "1",
            "start_time": "22.5",
            "end_time": "26.5"
        },
        {
            "id": "507",
            "type": "input",
            "source_block_id": "1012",
            "destination_block_id": "5",
            "crane": "0",
            "start_time": "53.099998474121094",
            "end_time": "54.099998474121094"
        },
        {
            "id": "508",
            "type": "input",
            "source_block_id": "1098",
            "destination_block_id": "197",
            "crane": "1",
            "start_time": "29.5",
            "end_time": "33.5"
        },
        {
            "id": "509",
            "type": "input",
            "source_block_id": "1095",
            "destination_block_id": "834",
            "crane": "1",
            "start_time": "306.09999847412109",
            "end_time": "318.09999847412109"
        },
        {
            "id": "510",
            "type": "input",
            "source_block_id": "1006",
            "destination_block_id": "0",
            "crane": "0",
            "start_time": "57.099998474121094",
            "end_time": "59.099998474121094"
        },
        {
            "id": "511",
            "type": "input",
            "source_block_id": "1046",
            "destination_block_id": "21",
            "crane": "0",
            "start_time": "36.099998474121094",
            "end_time": "37.099998474121094"
        },
        {
            "id": "512",
            "type": "input",
            "source_block_id": "1049",
            "destination_block_id": "672",
            "crane": "0",
            "start_time": "222.09999847412109",
            "end_time": "229.09999847412109"
        },
        {
            "id": "513",
            "type": "input",
            "source_block_id": "1018",
            "destination_block_id": "7",
            "crane": "0",
            "start_time": "50.099998474121094",
            "end_time": "51.099998474121094"
        },
        {
            "id": "514",
            "type": "input",
            "source_block_id": "1090",
            "destination_block_id": "43",
            "crane": "1",
            "start_time": "198.5",
            "end_time": "199.5"
        },
        {
            "id": "515",
            "type": "input",
            "source_block_id": "1099",
            "destination_block_id": "636",
            "crane": "1",
            "start_time": "51.5",
            "end_time": "63.5"
        },
        {
            "id": "516",
            "type": "input",
            "source_block_id": "1005",
            "destination_block_id": "902",
            "crane": "0",
            "start_time": "89.099998474121094",
            "end_time": "91.099998474121094"
        },
        {
            "id": "418",
            "type": "output",
            "source_block_id": "821",
            "destination_block_id": "1069",
            "crane": "0",
            "start_time": "190.09999847412109",
            "end_time": "202.09999847412109"
        },
        {
            "id": "517",
            "type": "input",
            "source_block_id": "1133",
            "destination_block_id": "986",
            "crane": "1",
            "start_time": "349.09999847412109",
            "end_time": "363.09999847412109"
        },
        {
            "id": "518",
            "type": "input",
            "source_block_id": "1018",
            "destination_block_id": "153",
            "crane": "0",
            "start_time": "67.099998474121094",
            "end_time": "72.099998474121094"
        },
        {
            "id": "519",
            "type": "input",
            "source_block_id": "1035",
            "destination_block_id": "405",
            "crane": "0",
            "start_time": "477.09999847412109",
            "end_time": "489.09999847412109"
        },
        {
            "id": "520",
            "type": "input",
            "source_block_id": "1110",
            "destination_block_id": "100",
            "crane": "0",
            "start_time": "392.09999847412109",
            "end_time": "393.09999847412109"
        },
        {
            "id": "521",
            "type": "input",
            "source_block_id": "1011",
            "destination_block_id": "851",
            "crane": "0",
            "start_time": "130.09999847412109",
            "end_time": "133.09999847412109"
        },
        {
            "id": "522",
            "type": "input",
            "source_block_id": "1082",
            "destination_block_id": "141",
            "crane": "1",
            "start_time": "117.5",
            "end_time": "120.5"
        },
        {
            "id": "523",
            "type": "input",
            "source_block_id": "1141",
            "destination_block_id": "634",
            "crane": "0",
            "start_time": "443.09999847412109",
            "end_time": "459.09999847412109"
        },
        {
            "id": "524",
            "type": "input",
            "source_block_id": "1005",
            "destination_block_id": "853",
            "crane": "0",
            "start_time": "93.099998474121094",
            "end_time": "96.099998474121094"
        },
        {
            "id": "525",
            "type": "input",
            "source_block_id": "1074",
            "destination_block_id": "30",
            "crane": "1",
            "start_time": "76.5",
            "end_time": "82.5"
        },
        {
            "id": "167",
            "type": "output",
            "source_block_id": "159",
            "destination_block_id": "1068",
            "crane": "0",
            "start_time": "254.09999847412109",
            "end_time": "278.09999847412109"
        },
        {
            "id": "526",
            "type": "input",
            "source_block_id": "1034",
            "destination_block_id": "268",
            "crane": "0",
            "start_time": "173.09999847412109",
            "end_time": "179.09999847412109"
        },
        {
            "id": "249",
            "type": "output",
            "source_block_id": "128",
            "destination_block_id": "1092",
            "crane": "1",
            "start_time": "180.5",
            "end_time": "197.5"
        },
        {
            "id": "527",
            "type": "input",
            "source_block_id": "1035",
            "destination_block_id": "964",
            "crane": "0",
            "start_time": "117.09999847412109",
            "end_time": "119.09999847412109"
        },
        {
            "id": "484",
            "type": "output",
            "source_block_id": "648",
            "destination_block_id": "1054",
            "crane": "1",
            "start_time": "155.5",
            "end_time": "177.5"
        },
        {
            "id": "234",
            "type": "output",
            "source_block_id": "580",
            "destination_block_id": "1070",
            "crane": "1",
            "start_time": "93.5",
            "end_time": "105.5"
        },
        {
            "id": "528",
            "type": "input",
            "source_block_id": "1122",
            "destination_block_id": "500",
            "crane": "0",
            "start_time": "141.09999847412109",
            "end_time": "142.09999847412109"
        },
        {
            "id": "485",
            "type": "output",
            "source_block_id": "984",
            "destination_block_id": "1065",
            "crane": "0",
            "start_time": "211.09999847412109",
            "end_time": "214.09999847412109"
        },
        {
            "id": "393",
            "type": "output",
            "source_block_id": "48",
            "destination_block_id": "1065",
            "crane": "1",
            "start_time": "206.09999847412109",
            "end_time": "226.09999847412109"
        },
        {
            "id": "529",
            "type": "input",
            "source_block_id": "1078",
            "destination_block_id": "186",
            "crane": "1",
            "start_time": "109.5",
            "end_time": "113.5"
        },
        {
            "id": "530",
            "type": "input",
            "source_block_id": "1029",
            "destination_block_id": "758",
            "crane": "0",
            "start_time": "120.09999847412109",
            "end_time": "125.09999847412109"
        },
        {
            "id": "531",
            "type": "input",
            "source_block_id": "1077",
            "destination_block_id": "983",
            "crane": "0",
            "start_time": "206.09999847412109",
            "end_time": "210.09999847412109"
        },
        {
            "id": "532",
            "type": "input",
            "source_block_id": "1126",
            "destination_block_id": "255",
            "crane": "0",
            "start_time": "143.09999847412109",
            "end_time": "149.09999847412109"
        },
        {
            "id": "533",
            "type": "input",
            "source_block_id": "1125",
            "destination_block_id": "797",
            "crane": "1",
            "start_time": "129.5",
            "end_time": "134.5"
        },
        {
            "id": "198",
            "type": "output",
            "source_block_id": "847",
            "destination_block_id": "1119",
            "crane": "1",
            "start_time": "141.5",
            "end_time": "150.5"
        },
        {
            "id": "534",
            "type": "input",
            "source_block_id": "1095",
            "destination_block_id": "416",
            "crane": "0",
            "start_time": "299.09999847412109",
            "end_time": "329.09999847412109"
        },
        {
            "id": "535",
            "type": "input",
            "source_block_id": "1020",
            "destination_block_id": "111",
            "crane": "0",
            "start_time": "165.09999847412109",
            "end_time": "168.09999847412109"
        },
        {
            "id": "14",
            "type": "output",
            "source_block_id": "161",
            "destination_block_id": "1115",
            "crane": "1",
            "start_time": "252.09999847412109",
            "end_time": "291.09999847412109"
        },
        {
            "id": "536",
            "type": "input",
            "source_block_id": "1139",
            "destination_block_id": "799",
            "crane": "1",
            "start_time": "137.5",
            "end_time": "139.5"
        },
        {
            "id": "537",
            "type": "input",
            "source_block_id": "1114",
            "destination_block_id": "204",
            "crane": "0",
            "start_time": "155.09999847412109",
            "end_time": "160.09999847412109"
        },
        {
            "id": "538",
            "type": "input",
            "source_block_id": "1057",
            "destination_block_id": "976",
            "crane": "0",
            "start_time": "218.09999847412109",
            "end_time": "219.09999847412109"
        },
        {
            "id": "539",
            "type": "input",
            "source_block_id": "1036",
            "destination_block_id": "258",
            "crane": "0",
            "start_time": "243.09999847412109",
            "end_time": "252.09999847412109"
        }
    ]
}
