{
    "objective": "3727.5320325587068",
    "BAP cost": "4363",
    "CSP cost": "3092.064065117414",
    "products": [
        {
            "id": "1296",
            "type": "yard_movement",
            "source_block_id": "3214",
            "destination_block_id": "2958",
            "crane": "1",
            "start_time": "154.69999694824219",
            "end_time": "155.69999694824219"
        },
        {
            "id": "3410",
            "type": "yard_movement",
            "source_block_id": "1097",
            "destination_block_id": "4019",
            "crane": "0",
            "start_time": "49.5",
            "end_time": "65.5"
        },
        {
            "id": "3237",
            "type": "yard_movement",
            "source_block_id": "2118",
            "destination_block_id": "1872",
            "crane": "0",
            "start_time": "463.69999694824219",
            "end_time": "464.69999694824219"
        },
        {
            "id": "3151",
            "type": "yard_movement",
            "source_block_id": "206",
            "destination_block_id": "217",
            "crane": "1",
            "start_time": "166.69999694824219",
            "end_time": "168.69999694824219"
        },
        {
            "id": "2215",
            "type": "yard_movement",
            "source_block_id": "3679",
            "destination_block_id": "3678",
            "crane": "1",
            "start_time": "334.69999694824219",
            "end_time": "335.69999694824219"
        },
        {
            "id": "2863",
            "type": "yard_movement",
            "source_block_id": "1028",
            "destination_block_id": "302",
            "crane": "0",
            "start_time": "0",
            "end_time": "5"
        },
        {
            "id": "3094",
            "type": "yard_movement",
            "source_block_id": "3633",
            "destination_block_id": "3382",
            "crane": "1",
            "start_time": "0",
            "end_time": "1"
        },
        {
            "id": "3500",
            "type": "input",
            "source_block_id": "5089",
            "destination_block_id": "4722",
            "crane": "1",
            "start_time": "86.699999809265137",
            "end_time": "88.699999809265137"
        },
        {
            "id": "3501",
            "type": "input",
            "source_block_id": "5089",
            "destination_block_id": "4965",
            "crane": "1",
            "start_time": "78.699999809265137",
            "end_time": "79.699999809265137"
        },
        {
            "id": "3502",
            "type": "input",
            "source_block_id": "5138",
            "destination_block_id": "4756",
            "crane": "0",
            "start_time": "29.5",
            "end_time": "31.5"
        },
        {
            "id": "3503",
            "type": "input",
            "source_block_id": "5122",
            "destination_block_id": "2501",
            "crane": "0",
            "start_time": "16",
            "end_time": "17"
        },
        {
            "id": "3504",
            "type": "input",
            "source_block_id": "5032",
            "destination_block_id": "3763",
            "crane": "0",
            "start_time": "199.69999694824219",
            "end_time": "215.69999694824219"
        },
        {
            "id": "3505",
            "type": "input",
            "source_block_id": "5049",
            "destination_block_id": "4617",
            "crane": "1",
            "start_time": "15.699999809265137",
            "end_time": "17.699999809265137"
        },
        {
            "id": "3506",
            "type": "input",
            "source_block_id": "5114",
            "destination_block_id": "1512",
            "crane": "0",
            "start_time": "109.69999694824219",
            "end_time": "112.69999694824219"
        },
        {
            "id": "3507",
            "type": "input",
            "source_block_id": "5136",
            "destination_block_id": "3502",
            "crane": "0",
            "start_time": "24.5",
            "end_time": "26.5"
        },
        {
            "id": "3508",
            "type": "input",
            "source_block_id": "5094",
            "destination_block_id": "492",
            "crane": "1",
            "start_time": "51.699999809265137",
            "end_time": "53.699999809265137"
        },
        {
            "id": "3509",
            "type": "input",
            "source_block_id": "5095",
            "destination_block_id": "4983",
            "crane": "0",
            "start_time": "437.69999694824219",
            "end_time": "440.69999694824219"
        },
        {
            "id": "3510",
            "type": "input",
            "source_block_id": "5098",
            "destination_block_id": "735",
            "crane": "1",
            "start_time": "45.699999809265137",
            "end_time": "48.699999809265137"
        },
        {
            "id": "3511",
            "type": "input",
            "source_block_id": "5095",
            "destination_block_id": "4982",
            "crane": "1",
            "start_time": "197.69999694824219",
            "end_time": "199.69999694824219"
        },
        {
            "id": "3512",
            "type": "input",
            "source_block_id": "5039",
            "destination_block_id": "4845",
            "crane": "1",
            "start_time": "239.69999694824219",
            "end_time": "240.69999694824219"
        },
        {
            "id": "3513",
            "type": "input",
            "source_block_id": "5117",
            "destination_block_id": "1492",
            "crane": "1",
            "start_time": "107.69999980926514",
            "end_time": "109.69999980926514"
        },
        {
            "id": "3514",
            "type": "input",
            "source_block_id": "5020",
            "destination_block_id": "1554",
            "crane": "0",
            "start_time": "238.69999694824219",
            "end_time": "245.69999694824219"
        },
        {
            "id": "3515",
            "type": "input",
            "source_block_id": "5102",
            "destination_block_id": "736",
            "crane": "1",
            "start_time": "55.699999809265137",
            "end_time": "58.699999809265137"
        },
        {
            "id": "3516",
            "type": "input",
            "source_block_id": "5099",
            "destination_block_id": "4995",
            "crane": "1",
            "start_time": "92.699999809265137",
            "end_time": "93.699999809265137"
        },
        {
            "id": "3517",
            "type": "input",
            "source_block_id": "5129",
            "destination_block_id": "3242",
            "crane": "1",
            "start_time": "68.699999809265137",
            "end_time": "70.699999809265137"
        },
        {
            "id": "3518",
            "type": "input",
            "source_block_id": "5089",
            "destination_block_id": "4452",
            "crane": "1",
            "start_time": "80.699999809265137",
            "end_time": "83.699999809265137"
        },
        {
            "id": "3519",
            "type": "input",
            "source_block_id": "5140",
            "destination_block_id": "4256",
            "crane": "0",
            "start_time": "218.69999694824219",
            "end_time": "220.69999694824219"
        },
        {
            "id": "3520",
            "type": "input",
            "source_block_id": "5007",
            "destination_block_id": "4757",
            "crane": "0",
            "start_time": "69.5",
            "end_time": "71.5"
        },
        {
            "id": "3521",
            "type": "input",
            "source_block_id": "5110",
            "destination_block_id": "251",
            "crane": "0",
            "start_time": "90.5",
            "end_time": "92.5"
        },
        {
            "id": "3522",
            "type": "input",
            "source_block_id": "5009",
            "destination_block_id": "4761",
            "crane": "0",
            "start_time": "73.5",
            "end_time": "74.5"
        },
        {
            "id": "3523",
            "type": "input",
            "source_block_id": "5099",
            "destination_block_id": "4996",
            "crane": "1",
            "start_time": "146.69999694824219",
            "end_time": "147.69999694824219"
        },
        {
            "id": "3524",
            "type": "input",
            "source_block_id": "5095",
            "destination_block_id": "4742",
            "crane": "1",
            "start_time": "201.69999694824219",
            "end_time": "203.69999694824219"
        },
        {
            "id": "3525",
            "type": "input",
            "source_block_id": "5123",
            "destination_block_id": "2241",
            "crane": "1",
            "start_time": "103.69999980926514",
            "end_time": "105.69999980926514"
        },
        {
            "id": "1315",
            "type": "output",
            "source_block_id": "2444",
            "destination_block_id": "5137",
            "crane": "1",
            "start_time": "181.69999694824219",
            "end_time": "193.69999694824219"
        },
        {
            "id": "3526",
            "type": "input",
            "source_block_id": "5098",
            "destination_block_id": "482",
            "crane": "1",
            "start_time": "122.69999694824219",
            "end_time": "124.69999694824219"
        },
        {
            "id": "3527",
            "type": "input",
            "source_block_id": "5050",
            "destination_block_id": "379",
            "crane": "0",
            "start_time": "138.69999694824219",
            "end_time": "142.69999694824219"
        },
        {
            "id": "1016",
            "type": "output",
            "source_block_id": "2569",
            "destination_block_id": "5121",
            "crane": "0",
            "start_time": "388.69999694824219",
            "end_time": "425.69999694824219"
        },
        {
            "id": "3528",
            "type": "input",
            "source_block_id": "5008",
            "destination_block_id": "267",
            "crane": "0",
            "start_time": "96.5",
            "end_time": "98.5"
        },
        {
            "id": "3529",
            "type": "input",
            "source_block_id": "5114",
            "destination_block_id": "752",
            "crane": "0",
            "start_time": "105.69999694824219",
            "end_time": "107.69999694824219"
        },
        {
            "id": "3530",
            "type": "input",
            "source_block_id": "5062",
            "destination_block_id": "162",
            "crane": "0",
            "start_time": "147.69999694824219",
            "end_time": "149.69999694824219"
        },
        {
            "id": "3531",
            "type": "input",
            "source_block_id": "5014",
            "destination_block_id": "22",
            "crane": "0",
            "start_time": "252.69999694824219",
            "end_time": "254.69999694824219"
        },
        {
            "id": "3532",
            "type": "input",
            "source_block_id": "5036",
            "destination_block_id": "76",
            "crane": "0",
            "start_time": "127.69999694824219",
            "end_time": "129.69999694824219"
        },
        {
            "id": "3533",
            "type": "input",
            "source_block_id": "5102",
            "destination_block_id": "493",
            "crane": "1",
            "start_time": "116.69999694824219",
            "end_time": "119.69999694824219"
        },
        {
            "id": "3534",
            "type": "input",
            "source_block_id": "5140",
            "destination_block_id": "4750",
            "crane": "0",
            "start_time": "374.69999694824219",
            "end_time": "375.69999694824219"
        },
        {
            "id": "3535",
            "type": "input",
            "source_block_id": "5133",
            "destination_block_id": "3496",
            "crane": "1",
            "start_time": "207.69999694824219",
            "end_time": "208.69999694824219"
        },
        {
            "id": "2975",
            "type": "output",
            "source_block_id": "4344",
            "destination_block_id": "5135",
            "crane": "1",
            "start_time": "381.69999694824219",
            "end_time": "413.69999694824219"
        },
        {
            "id": "3536",
            "type": "input",
            "source_block_id": "5123",
            "destination_block_id": "2242",
            "crane": "1",
            "start_time": "132.69999694824219",
            "end_time": "134.69999694824219"
        },
        {
            "id": "3537",
            "type": "input",
            "source_block_id": "5009",
            "destination_block_id": "4527",
            "crane": "0",
            "start_time": "178.69999694824219",
            "end_time": "180.69999694824219"
        },
        {
            "id": "3538",
            "type": "input",
            "source_block_id": "5094",
            "destination_block_id": "230",
            "crane": "1",
            "start_time": "171.69999694824219",
            "end_time": "172.69999694824219"
        },
        {
            "id": "3539",
            "type": "input",
            "source_block_id": "5098",
            "destination_block_id": "231",
            "crane": "1",
            "start_time": "351.69999694824219",
            "end_time": "353.69999694824219"
        },
        {
            "id": "749",
            "type": "output",
            "source_block_id": "3213",
            "destination_block_id": "5002",
            "crane": "0",
            "start_time": "313.69999694824219",
            "end_time": "355.69999694824219"
        },
        {
            "id": "3011",
            "type": "output",
            "source_block_id": "1096",
            "destination_block_id": "5111",
            "crane": "0",
            "start_time": "273.69999694824219",
            "end_time": "304.69999694824219"
        },
        {
            "id": "1916",
            "type": "yard_movement",
            "source_block_id": "2117",
            "destination_block_id": "1873",
            "crane": "0",
            "start_time": "465.69999694824219",
            "end_time": "466.69999694824219"
        },
        {
            "id": "868",
            "type": "output",
            "source_block_id": "205",
            "destination_block_id": "5080",
            "crane": "1",
            "start_time": "317.69999694824219",
            "end_time": "319.69999694824219"
        },
        {
            "id": "2149",
            "type": "output",
            "source_block_id": "3678",
            "destination_block_id": "5100",
            "crane": "1",
            "start_time": "335.69999694824219",
            "end_time": "350.69999694824219"
        },
        {
            "id": "1910",
            "type": "yard_movement",
            "source_block_id": "1027",
            "destination_block_id": "1021",
            "crane": "0",
            "start_time": "10",
            "end_time": "11"
        },
        {
            "id": "3056",
            "type": "output",
            "source_block_id": "3632",
            "destination_block_id": "5100",
            "crane": "1",
            "start_time": "21.699999809265137",
            "end_time": "44.699999809265137"
        },
        {
            "id": "1364",
            "type": "yard_movement",
            "source_block_id": "2116",
            "destination_block_id": "584",
            "crane": "0",
            "start_time": "468.69999694824219",
            "end_time": "475.69999694824219"
        },
        {
            "id": "1764",
            "type": "output",
            "source_block_id": "1026",
            "destination_block_id": "5131",
            "crane": "1",
            "start_time": "256.69999694824219",
            "end_time": "301.69999694824219"
        },
        {
            "id": "165",
            "type": "output",
            "source_block_id": "2115",
            "destination_block_id": "5109",
            "crane": "0",
            "start_time": "482.69999694824219",
            "end_time": "509.69999694824219"
        }
    ]
}
