{
    "objective": "1191.8316875105779",
    "BAP cost": "861",
    "CSP cost": "1522.6633750211556",
    "products": [
        {
            "id": "265",
            "type": "yard_movement",
            "source_block_id": "1471",
            "destination_block_id": "1367",
            "crane": "1",
            "start_time": "254.80000305175781",
            "end_time": "255.80000305175781"
        },
        {
            "id": "327",
            "type": "yard_movement",
            "source_block_id": "1352",
            "destination_block_id": "1226",
            "crane": "1",
            "start_time": "14.699999809265137",
            "end_time": "21.699999809265137"
        },
        {
            "id": "472",
            "type": "input",
            "source_block_id": "1653",
            "destination_block_id": "210",
            "crane": "0",
            "start_time": "1.5",
            "end_time": "2.5"
        },
        {
            "id": "473",
            "type": "input",
            "source_block_id": "1589",
            "destination_block_id": "552",
            "crane": "0",
            "start_time": "16.5",
            "end_time": "22.5"
        },
        {
            "id": "474",
            "type": "input",
            "source_block_id": "1663",
            "destination_block_id": "633",
            "crane": "0",
            "start_time": "7.5",
            "end_time": "9.5"
        },
        {
            "id": "475",
            "type": "input",
            "source_block_id": "1678",
            "destination_block_id": "1572",
            "crane": "1",
            "start_time": "9.6999998092651367",
            "end_time": "10.699999809265137"
        },
        {
            "id": "476",
            "type": "input",
            "source_block_id": "1611",
            "destination_block_id": "54",
            "crane": "1",
            "start_time": "74.699999809265137",
            "end_time": "75.699999809265137"
        },
        {
            "id": "477",
            "type": "input",
            "source_block_id": "1637",
            "destination_block_id": "308",
            "crane": "1",
            "start_time": "44.699999809265137",
            "end_time": "47.699999809265137"
        },
        {
            "id": "478",
            "type": "input",
            "source_block_id": "1633",
            "destination_block_id": "84",
            "crane": "1",
            "start_time": "41.699999809265137",
            "end_time": "42.699999809265137"
        },
        {
            "id": "479",
            "type": "input",
            "source_block_id": "1632",
            "destination_block_id": "1014",
            "crane": "1",
            "start_time": "25.699999809265137",
            "end_time": "31.699999809265137"
        },
        {
            "id": "480",
            "type": "input",
            "source_block_id": "1591",
            "destination_block_id": "556",
            "crane": "0",
            "start_time": "28.5",
            "end_time": "34.5"
        },
        {
            "id": "481",
            "type": "input",
            "source_block_id": "1617",
            "destination_block_id": "366",
            "crane": "1",
            "start_time": "66.699999809265137",
            "end_time": "70.699999809265137"
        },
        {
            "id": "482",
            "type": "input",
            "source_block_id": "1584",
            "destination_block_id": "1482",
            "crane": "0",
            "start_time": "44.5",
            "end_time": "45.5"
        },
        {
            "id": "483",
            "type": "input",
            "source_block_id": "1650",
            "destination_block_id": "516",
            "crane": "1",
            "start_time": "50.699999809265137",
            "end_time": "54.699999809265137"
        },
        {
            "id": "484",
            "type": "input",
            "source_block_id": "1605",
            "destination_block_id": "39",
            "crane": "1",
            "start_time": "81.699999809265137",
            "end_time": "82.699999809265137"
        },
        {
            "id": "485",
            "type": "input",
            "source_block_id": "1653",
            "destination_block_id": "211",
            "crane": "0",
            "start_time": "62.799999237060547",
            "end_time": "63.799999237060547"
        },
        {
            "id": "486",
            "type": "input",
            "source_block_id": "1589",
            "destination_block_id": "19",
            "crane": "0",
            "start_time": "74.799999237060547",
            "end_time": "75.799999237060547"
        },
        {
            "id": "487",
            "type": "input",
            "source_block_id": "1649",
            "destination_block_id": "221",
            "crane": "0",
            "start_time": "65.799999237060547",
            "end_time": "69.799999237060547"
        },
        {
            "id": "488",
            "type": "input",
            "source_block_id": "1586",
            "destination_block_id": "1385",
            "crane": "0",
            "start_time": "49.799999237060547",
            "end_time": "51.799999237060547"
        },
        {
            "id": "352",
            "type": "output",
            "source_block_id": "810",
            "destination_block_id": "1585",
            "crane": "0",
            "start_time": "224.80000305175781",
            "end_time": "245.80000305175781"
        },
        {
            "id": "489",
            "type": "input",
            "source_block_id": "1582",
            "destination_block_id": "1477",
            "crane": "0",
            "start_time": "143.80000305175781",
            "end_time": "144.80000305175781"
        },
        {
            "id": "490",
            "type": "input",
            "source_block_id": "1621",
            "destination_block_id": "64",
            "crane": "1",
            "start_time": "64.699999809265137",
            "end_time": "65.699999809265137"
        },
        {
            "id": "491",
            "type": "input",
            "source_block_id": "1664",
            "destination_block_id": "837",
            "crane": "1",
            "start_time": "131.19999694824219",
            "end_time": "132.19999694824219"
        },
        {
            "id": "492",
            "type": "input",
            "source_block_id": "1609",
            "destination_block_id": "155",
            "crane": "1",
            "start_time": "77.699999809265137",
            "end_time": "79.699999809265137"
        },
        {
            "id": "493",
            "type": "input",
            "source_block_id": "1589",
            "destination_block_id": "25",
            "crane": "0",
            "start_time": "76.799999237060547",
            "end_time": "78.799999237060547"
        },
        {
            "id": "494",
            "type": "input",
            "source_block_id": "1587",
            "destination_block_id": "18",
            "crane": "0",
            "start_time": "72.799999237060547",
            "end_time": "73.799999237060547"
        },
        {
            "id": "495",
            "type": "input",
            "source_block_id": "1647",
            "destination_block_id": "100",
            "crane": "1",
            "start_time": "118.19999694824219",
            "end_time": "120.19999694824219"
        },
        {
            "id": "496",
            "type": "input",
            "source_block_id": "1604",
            "destination_block_id": "1506",
            "crane": "0",
            "start_time": "97.800003051757812",
            "end_time": "98.800003051757812"
        },
        {
            "id": "497",
            "type": "input",
            "source_block_id": "1674",
            "destination_block_id": "1257",
            "crane": "1",
            "start_time": "137.19999694824219",
            "end_time": "138.19999694824219"
        },
        {
            "id": "498",
            "type": "input",
            "source_block_id": "1587",
            "destination_block_id": "871",
            "crane": "0",
            "start_time": "81.800003051757812",
            "end_time": "90.800003051757812"
        },
        {
            "id": "266",
            "type": "output",
            "source_block_id": "561",
            "destination_block_id": "1623",
            "crane": "1",
            "start_time": "92.199996948242188",
            "end_time": "103.19999694824219"
        },
        {
            "id": "499",
            "type": "input",
            "source_block_id": "1609",
            "destination_block_id": "149",
            "crane": "1",
            "start_time": "86.199996948242188",
            "end_time": "88.199996948242188"
        },
        {
            "id": "78",
            "type": "output",
            "source_block_id": "411",
            "destination_block_id": "1639",
            "crane": "1",
            "start_time": "155.19999694824219",
            "end_time": "159.19999694824219"
        },
        {
            "id": "66",
            "type": "output",
            "source_block_id": "718",
            "destination_block_id": "1585",
            "crane": "0",
            "start_time": "178.80000305175781",
            "end_time": "203.80000305175781"
        },
        {
            "id": "500",
            "type": "input",
            "source_block_id": "1581",
            "destination_block_id": "8",
            "crane": "0",
            "start_time": "118.80000305175781",
            "end_time": "120.80000305175781"
        },
        {
            "id": "350",
            "type": "output",
            "source_block_id": "1174",
            "destination_block_id": "1577",
            "crane": "0",
            "start_time": "104.80000305175781",
            "end_time": "116.80000305175781"
        },
        {
            "id": "248",
            "type": "output",
            "source_block_id": "279",
            "destination_block_id": "1636",
            "crane": "1",
            "start_time": "169.19999694824219",
            "end_time": "182.19999694824219"
        },
        {
            "id": "501",
            "type": "input",
            "source_block_id": "1637",
            "destination_block_id": "410",
            "crane": "1",
            "start_time": "110.19999694824219",
            "end_time": "114.19999694824219"
        },
        {
            "id": "502",
            "type": "input",
            "source_block_id": "1652",
            "destination_block_id": "312",
            "crane": "1",
            "start_time": "125.19999694824219",
            "end_time": "126.19999694824219"
        },
        {
            "id": "503",
            "type": "input",
            "source_block_id": "1584",
            "destination_block_id": "1481",
            "crane": "0",
            "start_time": "145.80000305175781",
            "end_time": "147.80000305175781"
        },
        {
            "id": "504",
            "type": "input",
            "source_block_id": "1589",
            "destination_block_id": "319",
            "crane": "0",
            "start_time": "124.80000305175781",
            "end_time": "129.80000305175781"
        },
        {
            "id": "505",
            "type": "input",
            "source_block_id": "1647",
            "destination_block_id": "208",
            "crane": "1",
            "start_time": "122.19999694824219",
            "end_time": "124.19999694824219"
        },
        {
            "id": "506",
            "type": "input",
            "source_block_id": "1609",
            "destination_block_id": "160",
            "crane": "0",
            "start_time": "165.80000305175781",
            "end_time": "167.80000305175781"
        },
        {
            "id": "507",
            "type": "input",
            "source_block_id": "1674",
            "destination_block_id": "1464",
            "crane": "1",
            "start_time": "139.19999694824219",
            "end_time": "141.19999694824219"
        },
        {
            "id": "408",
            "type": "output",
            "source_block_id": "1464",
            "destination_block_id": "1654",
            "crane": "1",
            "start_time": "141.19999694824219",
            "end_time": "152.19999694824219"
        },
        {
            "id": "508",
            "type": "input",
            "source_block_id": "1610",
            "destination_block_id": "823",
            "crane": "1",
            "start_time": "195.19999694824219",
            "end_time": "208.19999694824219"
        },
        {
            "id": "509",
            "type": "input",
            "source_block_id": "1669",
            "destination_block_id": "945",
            "crane": "0",
            "start_time": "136.80000305175781",
            "end_time": "137.80000305175781"
        },
        {
            "id": "510",
            "type": "input",
            "source_block_id": "1586",
            "destination_block_id": "1486",
            "crane": "0",
            "start_time": "149.80000305175781",
            "end_time": "150.80000305175781"
        },
        {
            "id": "511",
            "type": "input",
            "source_block_id": "1625",
            "destination_block_id": "73",
            "crane": "1",
            "start_time": "166.19999694824219",
            "end_time": "167.19999694824219"
        },
        {
            "id": "198",
            "type": "output",
            "source_block_id": "1470",
            "destination_block_id": "1660",
            "crane": "1",
            "start_time": "257.80000305175781",
            "end_time": "292.80000305175781"
        },
        {
            "id": "187",
            "type": "output",
            "source_block_id": "1351",
            "destination_block_id": "1596",
            "crane": "1",
            "start_time": "224.80000305175781",
            "end_time": "245.80000305175781"
        },
        {
            "id": "10",
            "type": "output",
            "source_block_id": "717",
            "destination_block_id": "1628",
            "crane": "1",
            "start_time": "209.19999694824219",
            "end_time": "218.19999694824219"
        }
    ]
}
