{
    "objective": "2345.7489827807458",
    "BAP cost": "3012",
    "CSP cost": "1679.4979655614916",
    "products": [
        {
            "id": "549",
            "type": "yard_movement",
            "source_block_id": "649",
            "destination_block_id": "281",
            "crane": "0",
            "start_time": "0",
            "end_time": "3"
        },
        {
            "id": "564",
            "type": "yard_movement",
            "source_block_id": "569",
            "destination_block_id": "354",
            "crane": "1",
            "start_time": "144.19999694824219",
            "end_time": "151.19999694824219"
        },
        {
            "id": "524",
            "type": "yard_movement",
            "source_block_id": "134",
            "destination_block_id": "263",
            "crane": "0",
            "start_time": "158.29999923706055",
            "end_time": "159.29999923706055"
        },
        {
            "id": "596",
            "type": "yard_movement",
            "source_block_id": "887",
            "destination_block_id": "183",
            "crane": "0",
            "start_time": "191.29999923706055",
            "end_time": "200.29999923706055"
        },
        {
            "id": "476",
            "type": "yard_movement",
            "source_block_id": "1124",
            "destination_block_id": "1248",
            "crane": "1",
            "start_time": "0",
            "end_time": "1"
        },
        {
            "id": "468",
            "type": "yard_movement",
            "source_block_id": "1074",
            "destination_block_id": "1068",
            "crane": "0",
            "start_time": "110.29999923706055",
            "end_time": "111.29999923706055"
        },
        {
            "id": "420",
            "type": "yard_movement",
            "source_block_id": "909",
            "destination_block_id": "1039",
            "crane": "0",
            "start_time": "93.299999237060547",
            "end_time": "94.299999237060547"
        },
        {
            "id": "625",
            "type": "input",
            "source_block_id": "1266",
            "destination_block_id": "30",
            "crane": "0",
            "start_time": "27.699999809265137",
            "end_time": "28.699999809265137"
        },
        {
            "id": "626",
            "type": "input",
            "source_block_id": "1323",
            "destination_block_id": "228",
            "crane": "1",
            "start_time": "4",
            "end_time": "12"
        },
        {
            "id": "627",
            "type": "input",
            "source_block_id": "1259",
            "destination_block_id": "1017",
            "crane": "0",
            "start_time": "11",
            "end_time": "13"
        },
        {
            "id": "628",
            "type": "input",
            "source_block_id": "1307",
            "destination_block_id": "242",
            "crane": "1",
            "start_time": "17",
            "end_time": "19"
        },
        {
            "id": "629",
            "type": "input",
            "source_block_id": "1262",
            "destination_block_id": "26",
            "crane": "0",
            "start_time": "29.699999809265137",
            "end_time": "30.699999809265137"
        },
        {
            "id": "630",
            "type": "input",
            "source_block_id": "1259",
            "destination_block_id": "1142",
            "crane": "0",
            "start_time": "15.699999809265137",
            "end_time": "17.699999809265137"
        },
        {
            "id": "631",
            "type": "input",
            "source_block_id": "1300",
            "destination_block_id": "121",
            "crane": "1",
            "start_time": "21",
            "end_time": "22"
        },
        {
            "id": "632",
            "type": "input",
            "source_block_id": "1292",
            "destination_block_id": "222",
            "crane": "1",
            "start_time": "26",
            "end_time": "28"
        },
        {
            "id": "633",
            "type": "input",
            "source_block_id": "1316",
            "destination_block_id": "881",
            "crane": "0",
            "start_time": "47.299999237060547",
            "end_time": "49.299999237060547"
        },
        {
            "id": "634",
            "type": "input",
            "source_block_id": "1270",
            "destination_block_id": "312",
            "crane": "1",
            "start_time": "38.299999237060547",
            "end_time": "41.299999237060547"
        },
        {
            "id": "635",
            "type": "input",
            "source_block_id": "1258",
            "destination_block_id": "410",
            "crane": "0",
            "start_time": "33.299999237060547",
            "end_time": "37.299999237060547"
        },
        {
            "id": "636",
            "type": "input",
            "source_block_id": "1312",
            "destination_block_id": "626",
            "crane": "0",
            "start_time": "45.299999237060547",
            "end_time": "46.299999237060547"
        },
        {
            "id": "637",
            "type": "input",
            "source_block_id": "1278",
            "destination_block_id": "56",
            "crane": "1",
            "start_time": "44.299999237060547",
            "end_time": "46.299999237060547"
        },
        {
            "id": "638",
            "type": "input",
            "source_block_id": "1289",
            "destination_block_id": "953",
            "crane": "1",
            "start_time": "61.799999237060547",
            "end_time": "64.799999237060547"
        },
        {
            "id": "639",
            "type": "input",
            "source_block_id": "1296",
            "destination_block_id": "122",
            "crane": "1",
            "start_time": "108.19999694824219",
            "end_time": "110.19999694824219"
        },
        {
            "id": "640",
            "type": "input",
            "source_block_id": "1316",
            "destination_block_id": "752",
            "crane": "0",
            "start_time": "51.299999237060547",
            "end_time": "53.299999237060547"
        },
        {
            "id": "641",
            "type": "input",
            "source_block_id": "1268",
            "destination_block_id": "36",
            "crane": "1",
            "start_time": "49.799999237060547",
            "end_time": "50.799999237060547"
        },
        {
            "id": "518",
            "type": "output",
            "source_block_id": "632",
            "destination_block_id": "1304",
            "crane": "0",
            "start_time": "54.299999237060547",
            "end_time": "59.299999237060547"
        },
        {
            "id": "642",
            "type": "input",
            "source_block_id": "1287",
            "destination_block_id": "1182",
            "crane": "1",
            "start_time": "67.799999237060547",
            "end_time": "73.799999237060547"
        },
        {
            "id": "643",
            "type": "input",
            "source_block_id": "1308",
            "destination_block_id": "382",
            "crane": "0",
            "start_time": "61.299999237060547",
            "end_time": "63.299999237060547"
        },
        {
            "id": "644",
            "type": "input",
            "source_block_id": "1283",
            "destination_block_id": "1200",
            "crane": "1",
            "start_time": "77.799999237060547",
            "end_time": "78.799999237060547"
        },
        {
            "id": "645",
            "type": "input",
            "source_block_id": "1285",
            "destination_block_id": "1201",
            "crane": "1",
            "start_time": "79.799999237060547",
            "end_time": "80.799999237060547"
        },
        {
            "id": "646",
            "type": "input",
            "source_block_id": "1312",
            "destination_block_id": "252",
            "crane": "0",
            "start_time": "65.299999237060547",
            "end_time": "67.299999237060547"
        },
        {
            "id": "647",
            "type": "input",
            "source_block_id": "1258",
            "destination_block_id": "424",
            "crane": "0",
            "start_time": "70.299999237060547",
            "end_time": "76.299999237060547"
        },
        {
            "id": "648",
            "type": "input",
            "source_block_id": "1322",
            "destination_block_id": "1149",
            "crane": "0",
            "start_time": "86.299999237060547",
            "end_time": "91.299999237060547"
        },
        {
            "id": "649",
            "type": "input",
            "source_block_id": "1257",
            "destination_block_id": "1125",
            "crane": "0",
            "start_time": "83.299999237060547",
            "end_time": "85.299999237060547"
        },
        {
            "id": "650",
            "type": "input",
            "source_block_id": "1282",
            "destination_block_id": "76",
            "crane": "1",
            "start_time": "156.19999694824219",
            "end_time": "157.19999694824219"
        },
        {
            "id": "651",
            "type": "input",
            "source_block_id": "1299",
            "destination_block_id": "1242",
            "crane": "1",
            "start_time": "88.799999237060547",
            "end_time": "90.799999237060547"
        },
        {
            "id": "377",
            "type": "output",
            "source_block_id": "342",
            "destination_block_id": "1267",
            "crane": "1",
            "start_time": "199.19999694824219",
            "end_time": "210.19999694824219"
        },
        {
            "id": "652",
            "type": "input",
            "source_block_id": "1279",
            "destination_block_id": "573",
            "crane": "0",
            "start_time": "100.29999923706055",
            "end_time": "106.29999923706055"
        },
        {
            "id": "653",
            "type": "input",
            "source_block_id": "1300",
            "destination_block_id": "747",
            "crane": "1",
            "start_time": "112.19999694824219",
            "end_time": "118.19999694824219"
        },
        {
            "id": "535",
            "type": "output",
            "source_block_id": "855",
            "destination_block_id": "1294",
            "crane": "1",
            "start_time": "100.19999694824219",
            "end_time": "107.19999694824219"
        },
        {
            "id": "654",
            "type": "input",
            "source_block_id": "1259",
            "destination_block_id": "1158",
            "crane": "0",
            "start_time": "139.29999923706055",
            "end_time": "142.29999923706055"
        },
        {
            "id": "655",
            "type": "input",
            "source_block_id": "1289",
            "destination_block_id": "1082",
            "crane": "1",
            "start_time": "138.19999694824219",
            "end_time": "140.19999694824219"
        },
        {
            "id": "656",
            "type": "input",
            "source_block_id": "1286",
            "destination_block_id": "88",
            "crane": "1",
            "start_time": "166.19999694824219",
            "end_time": "169.19999694824219"
        },
        {
            "id": "657",
            "type": "input",
            "source_block_id": "1323",
            "destination_block_id": "1225",
            "crane": "1",
            "start_time": "122.19999694824219",
            "end_time": "127.19999694824219"
        },
        {
            "id": "658",
            "type": "input",
            "source_block_id": "1287",
            "destination_block_id": "1075",
            "crane": "1",
            "start_time": "130.19999694824219",
            "end_time": "132.19999694824219"
        },
        {
            "id": "659",
            "type": "input",
            "source_block_id": "1280",
            "destination_block_id": "82",
            "crane": "1",
            "start_time": "158.19999694824219",
            "end_time": "160.19999694824219"
        },
        {
            "id": "660",
            "type": "input",
            "source_block_id": "1287",
            "destination_block_id": "1081",
            "crane": "1",
            "start_time": "134.19999694824219",
            "end_time": "136.19999694824219"
        },
        {
            "id": "661",
            "type": "input",
            "source_block_id": "1310",
            "destination_block_id": "627",
            "crane": "0",
            "start_time": "149.29999923706055",
            "end_time": "151.29999923706055"
        },
        {
            "id": "662",
            "type": "input",
            "source_block_id": "1310",
            "destination_block_id": "14",
            "crane": "0",
            "start_time": "153.29999923706055",
            "end_time": "157.29999923706055"
        },
        {
            "id": "663",
            "type": "input",
            "source_block_id": "1323",
            "destination_block_id": "372",
            "crane": "1",
            "start_time": "186.19999694824219",
            "end_time": "193.19999694824219"
        },
        {
            "id": "664",
            "type": "input",
            "source_block_id": "1286",
            "destination_block_id": "92",
            "crane": "1",
            "start_time": "162.19999694824219",
            "end_time": "164.19999694824219"
        },
        {
            "id": "543",
            "type": "yard_movement",
            "source_block_id": "648",
            "destination_block_id": "527",
            "crane": "0",
            "start_time": "21.699999809265137",
            "end_time": "22.699999809265137"
        },
        {
            "id": "368",
            "type": "output",
            "source_block_id": "568",
            "destination_block_id": "1303",
            "crane": "1",
            "start_time": "173.19999694824219",
            "end_time": "185.19999694824219"
        },
        {
            "id": "400",
            "type": "yard_movement",
            "source_block_id": "133",
            "destination_block_id": "407",
            "crane": "0",
            "start_time": "182.29999923706055",
            "end_time": "187.29999923706055"
        },
        {
            "id": "138",
            "type": "yard_movement",
            "source_block_id": "886",
            "destination_block_id": "3",
            "crane": "0",
            "start_time": "266.29999923706055",
            "end_time": "273.29999923706055"
        },
        {
            "id": "375",
            "type": "yard_movement",
            "source_block_id": "1123",
            "destination_block_id": "1243",
            "crane": "1",
            "start_time": "91.799999237060547",
            "end_time": "92.799999237060547"
        },
        {
            "id": "461",
            "type": "output",
            "source_block_id": "1073",
            "destination_block_id": "1250",
            "crane": "0",
            "start_time": "112.29999923706055",
            "end_time": "127.29999923706055"
        },
        {
            "id": "404",
            "type": "yard_movement",
            "source_block_id": "908",
            "destination_block_id": "903",
            "crane": "0",
            "start_time": "135.29999923706055",
            "end_time": "136.29999923706055"
        },
        {
            "id": "505",
            "type": "yard_movement",
            "source_block_id": "647",
            "destination_block_id": "528",
            "crane": "0",
            "start_time": "162.29999923706055",
            "end_time": "163.29999923706055"
        },
        {
            "id": "374",
            "type": "yard_movement",
            "source_block_id": "132",
            "destination_block_id": "257",
            "crane": "0",
            "start_time": "210.29999923706055",
            "end_time": "211.29999923706055"
        },
        {
            "id": "69",
            "type": "output",
            "source_block_id": "885",
            "destination_block_id": "1311",
            "crane": "1",
            "start_time": "277.19999694824219",
            "end_time": "300.19999694824219"
        },
        {
            "id": "317",
            "type": "yard_movement",
            "source_block_id": "1122",
            "destination_block_id": "991",
            "crane": "1",
            "start_time": "93.799999237060547",
            "end_time": "94.799999237060547"
        },
        {
            "id": "345",
            "type": "yard_movement",
            "source_block_id": "907",
            "destination_block_id": "546",
            "crane": "1",
            "start_time": "213.19999694824219",
            "end_time": "216.19999694824219"
        },
        {
            "id": "431",
            "type": "yard_movement",
            "source_block_id": "646",
            "destination_block_id": "1143",
            "crane": "0",
            "start_time": "165.29999923706055",
            "end_time": "169.29999923706055"
        },
        {
            "id": "231",
            "type": "yard_movement",
            "source_block_id": "131",
            "destination_block_id": "1202",
            "crane": "0",
            "start_time": "239.29999923706055",
            "end_time": "253.29999923706055"
        },
        {
            "id": "232",
            "type": "yard_movement",
            "source_block_id": "1121",
            "destination_block_id": "447",
            "crane": "1",
            "start_time": "231.19999694824219",
            "end_time": "241.19999694824219"
        },
        {
            "id": "316",
            "type": "yard_movement",
            "source_block_id": "906",
            "destination_block_id": "278",
            "crane": "0",
            "start_time": "216.29999923706055",
            "end_time": "221.29999923706055"
        },
        {
            "id": "402",
            "type": "output",
            "source_block_id": "645",
            "destination_block_id": "1260",
            "crane": "0",
            "start_time": "173.29999923706055",
            "end_time": "179.29999923706055"
        },
        {
            "id": "156",
            "type": "output",
            "source_block_id": "130",
            "destination_block_id": "1294",
            "crane": "0",
            "start_time": "279.19999694824219",
            "end_time": "299.19999694824219"
        },
        {
            "id": "133",
            "type": "output",
            "source_block_id": "1120",
            "destination_block_id": "1290",
            "crane": "1",
            "start_time": "251.19999694824219",
            "end_time": "260.19999694824219"
        },
        {
            "id": "142",
            "type": "output",
            "source_block_id": "905",
            "destination_block_id": "1318",
            "crane": "0",
            "start_time": "226.29999923706055",
            "end_time": "233.29999923706055"
        }
    ]
}
