{
    "objective": "869.6897794999968",
    "BAP cost": "608",
    "CSP cost": "1131.3795589999936",
    "products": [
        {
            "id": "28",
            "type": "yard_movement",
            "source_block_id": "181",
            "destination_block_id": "107",
            "crane": "1",
            "start_time": "127.69999694824219",
            "end_time": "128.69999694824219"
        },
        {
            "id": "200",
            "type": "yard_movement",
            "source_block_id": "97",
            "destination_block_id": "25",
            "crane": "0",
            "start_time": "14.600000381469727",
            "end_time": "15.600000381469727"
        },
        {
            "id": "205",
            "type": "yard_movement",
            "source_block_id": "742",
            "destination_block_id": "739",
            "crane": "1",
            "start_time": "49.200000762939453",
            "end_time": "50.200000762939453"
        },
        {
            "id": "224",
            "type": "yard_movement",
            "source_block_id": "212",
            "destination_block_id": "136",
            "crane": "1",
            "start_time": "8.0999999046325684",
            "end_time": "9.0999999046325684"
        },
        {
            "id": "225",
            "type": "input",
            "source_block_id": "786",
            "destination_block_id": "186",
            "crane": "0",
            "start_time": "1.5",
            "end_time": "6.5"
        },
        {
            "id": "226",
            "type": "input",
            "source_block_id": "807",
            "destination_block_id": "296",
            "crane": "1",
            "start_time": "3.0999999046325684",
            "end_time": "5.0999999046325684"
        },
        {
            "id": "227",
            "type": "input",
            "source_block_id": "808",
            "destination_block_id": "460",
            "crane": "0",
            "start_time": "28.600000381469727",
            "end_time": "32.600000381469727"
        },
        {
            "id": "228",
            "type": "input",
            "source_block_id": "755",
            "destination_block_id": "479",
            "crane": "0",
            "start_time": "36.600000381469727",
            "end_time": "44.600000381469727"
        },
        {
            "id": "229",
            "type": "input",
            "source_block_id": "770",
            "destination_block_id": "24",
            "crane": "0",
            "start_time": "12.600000381469727",
            "end_time": "13.600000381469727"
        },
        {
            "id": "230",
            "type": "input",
            "source_block_id": "786",
            "destination_block_id": "58",
            "crane": "1",
            "start_time": "15.699999809265137",
            "end_time": "17.699999809265137"
        },
        {
            "id": "231",
            "type": "input",
            "source_block_id": "792",
            "destination_block_id": "264",
            "crane": "1",
            "start_time": "18.699999809265137",
            "end_time": "25.699999809265137"
        },
        {
            "id": "85",
            "type": "output",
            "source_block_id": "588",
            "destination_block_id": "814",
            "crane": "0",
            "start_time": "187.60000038146973",
            "end_time": "209.60000038146973"
        },
        {
            "id": "232",
            "type": "input",
            "source_block_id": "816",
            "destination_block_id": "375",
            "crane": "0",
            "start_time": "24.600000381469727",
            "end_time": "25.600000381469727"
        },
        {
            "id": "233",
            "type": "input",
            "source_block_id": "800",
            "destination_block_id": "66",
            "crane": "1",
            "start_time": "109.69999694824219",
            "end_time": "111.69999694824219"
        },
        {
            "id": "234",
            "type": "input",
            "source_block_id": "782",
            "destination_block_id": "53",
            "crane": "1",
            "start_time": "31.200000762939453",
            "end_time": "33.200000762939453"
        },
        {
            "id": "235",
            "type": "input",
            "source_block_id": "792",
            "destination_block_id": "283",
            "crane": "1",
            "start_time": "36.200000762939453",
            "end_time": "40.200000762939453"
        },
        {
            "id": "236",
            "type": "input",
            "source_block_id": "783",
            "destination_block_id": "718",
            "crane": "0",
            "start_time": "50.600000381469727",
            "end_time": "51.600000381469727"
        },
        {
            "id": "237",
            "type": "input",
            "source_block_id": "823",
            "destination_block_id": "672",
            "crane": "1",
            "start_time": "46.200000762939453",
            "end_time": "47.200000762939453"
        },
        {
            "id": "238",
            "type": "input",
            "source_block_id": "789",
            "destination_block_id": "653",
            "crane": "1",
            "start_time": "64.200000762939453",
            "end_time": "66.200000762939453"
        },
        {
            "id": "239",
            "type": "input",
            "source_block_id": "787",
            "destination_block_id": "730",
            "crane": "1",
            "start_time": "60.200000762939453",
            "end_time": "61.200000762939453"
        },
        {
            "id": "240",
            "type": "input",
            "source_block_id": "795",
            "destination_block_id": "499",
            "crane": "1",
            "start_time": "51.200000762939453",
            "end_time": "56.200000762939453"
        },
        {
            "id": "241",
            "type": "input",
            "source_block_id": "823",
            "destination_block_id": "430",
            "crane": "1",
            "start_time": "168.89999389648438",
            "end_time": "175.89999389648438"
        },
        {
            "id": "242",
            "type": "input",
            "source_block_id": "784",
            "destination_block_id": "48",
            "crane": "1",
            "start_time": "94.699996948242188",
            "end_time": "95.699996948242188"
        },
        {
            "id": "243",
            "type": "input",
            "source_block_id": "762",
            "destination_block_id": "8",
            "crane": "0",
            "start_time": "61.600000381469727",
            "end_time": "64.600000381469727"
        },
        {
            "id": "244",
            "type": "input",
            "source_block_id": "789",
            "destination_block_id": "726",
            "crane": "1",
            "start_time": "62.200000762939453",
            "end_time": "63.200000762939453"
        },
        {
            "id": "245",
            "type": "input",
            "source_block_id": "783",
            "destination_block_id": "724",
            "crane": "1",
            "start_time": "68.200000762939453",
            "end_time": "69.200000762939453"
        },
        {
            "id": "246",
            "type": "input",
            "source_block_id": "808",
            "destination_block_id": "163",
            "crane": "0",
            "start_time": "71.600000381469727",
            "end_time": "76.600000381469727"
        },
        {
            "id": "247",
            "type": "input",
            "source_block_id": "808",
            "destination_block_id": "304",
            "crane": "0",
            "start_time": "67.600000381469727",
            "end_time": "69.600000381469727"
        },
        {
            "id": "248",
            "type": "input",
            "source_block_id": "787",
            "destination_block_id": "663",
            "crane": "1",
            "start_time": "70.699996948242188",
            "end_time": "74.699996948242188"
        },
        {
            "id": "249",
            "type": "input",
            "source_block_id": "810",
            "destination_block_id": "454",
            "crane": "0",
            "start_time": "94.600000381469727",
            "end_time": "97.600000381469727"
        },
        {
            "id": "250",
            "type": "input",
            "source_block_id": "823",
            "destination_block_id": "598",
            "crane": "1",
            "start_time": "78.699996948242188",
            "end_time": "80.699996948242188"
        },
        {
            "id": "251",
            "type": "input",
            "source_block_id": "757",
            "destination_block_id": "541",
            "crane": "0",
            "start_time": "101.60000038146973",
            "end_time": "104.60000038146973"
        },
        {
            "id": "47",
            "type": "output",
            "source_block_id": "66",
            "destination_block_id": "788",
            "crane": "1",
            "start_time": "111.69999694824219",
            "end_time": "115.69999694824219"
        },
        {
            "id": "252",
            "type": "input",
            "source_block_id": "816",
            "destination_block_id": "227",
            "crane": "0",
            "start_time": "89.600000381469727",
            "end_time": "92.600000381469727"
        },
        {
            "id": "72",
            "type": "output",
            "source_block_id": "444",
            "destination_block_id": "814",
            "crane": "1",
            "start_time": "188.60000038146973",
            "end_time": "212.60000038146973"
        },
        {
            "id": "253",
            "type": "input",
            "source_block_id": "784",
            "destination_block_id": "277",
            "crane": "1",
            "start_time": "96.699996948242188",
            "end_time": "100.69999694824219"
        },
        {
            "id": "18",
            "type": "output",
            "source_block_id": "684",
            "destination_block_id": "773",
            "crane": "0",
            "start_time": "156.60000038146973",
            "end_time": "163.60000038146973"
        },
        {
            "id": "254",
            "type": "input",
            "source_block_id": "759",
            "destination_block_id": "543",
            "crane": "0",
            "start_time": "107.60000038146973",
            "end_time": "110.60000038146973"
        },
        {
            "id": "255",
            "type": "input",
            "source_block_id": "762",
            "destination_block_id": "16",
            "crane": "0",
            "start_time": "118.60000038146973",
            "end_time": "119.60000038146973"
        },
        {
            "id": "256",
            "type": "input",
            "source_block_id": "756",
            "destination_block_id": "1",
            "crane": "0",
            "start_time": "122.60000038146973",
            "end_time": "124.60000038146973"
        },
        {
            "id": "257",
            "type": "input",
            "source_block_id": "816",
            "destination_block_id": "381",
            "crane": "0",
            "start_time": "130.60000038146973",
            "end_time": "133.60000038146973"
        },
        {
            "id": "258",
            "type": "input",
            "source_block_id": "792",
            "destination_block_id": "184",
            "crane": "1",
            "start_time": "117.69999694824219",
            "end_time": "126.69999694824219"
        },
        {
            "id": "152",
            "type": "output",
            "source_block_id": "699",
            "destination_block_id": "774",
            "crane": "0",
            "start_time": "165.60000038146973",
            "end_time": "175.60000038146973"
        },
        {
            "id": "259",
            "type": "input",
            "source_block_id": "757",
            "destination_block_id": "553",
            "crane": "0",
            "start_time": "143.60000038146973",
            "end_time": "150.60000038146973"
        },
        {
            "id": "260",
            "type": "input",
            "source_block_id": "783",
            "destination_block_id": "720",
            "crane": "1",
            "start_time": "147.89999389648438",
            "end_time": "148.89999389648438"
        },
        {
            "id": "213",
            "type": "output",
            "source_block_id": "457",
            "destination_block_id": "753",
            "crane": "0",
            "start_time": "134.60000038146973",
            "end_time": "138.60000038146973"
        },
        {
            "id": "261",
            "type": "input",
            "source_block_id": "782",
            "destination_block_id": "43",
            "crane": "0",
            "start_time": "179.60000038146973",
            "end_time": "180.60000038146973"
        },
        {
            "id": "262",
            "type": "input",
            "source_block_id": "755",
            "destination_block_id": "677",
            "crane": "0",
            "start_time": "139.60000038146973",
            "end_time": "141.60000038146973"
        },
        {
            "id": "263",
            "type": "input",
            "source_block_id": "778",
            "destination_block_id": "36",
            "crane": "1",
            "start_time": "135.89999389648438",
            "end_time": "136.89999389648438"
        },
        {
            "id": "264",
            "type": "input",
            "source_block_id": "795",
            "destination_block_id": "648",
            "crane": "1",
            "start_time": "154.89999389648438",
            "end_time": "159.89999389648438"
        },
        {
            "id": "0",
            "type": "output",
            "source_block_id": "180",
            "destination_block_id": "781",
            "crane": "1",
            "start_time": "138.89999389648438",
            "end_time": "146.89999389648438"
        },
        {
            "id": "16",
            "type": "output",
            "source_block_id": "96",
            "destination_block_id": "820",
            "crane": "0",
            "start_time": "79.600000381469727",
            "end_time": "87.600000381469727"
        },
        {
            "id": "25",
            "type": "output",
            "source_block_id": "741",
            "destination_block_id": "788",
            "crane": "1",
            "start_time": "82.699996948242188",
            "end_time": "92.699996948242188"
        },
        {
            "id": "61",
            "type": "yard_movement",
            "source_block_id": "211",
            "destination_block_id": "214",
            "crane": "1",
            "start_time": "10.099999904632568",
            "end_time": "11.099999904632568"
        },
        {
            "id": "19",
            "type": "output",
            "source_block_id": "210",
            "destination_block_id": "805",
            "crane": "1",
            "start_time": "103.69999694824219",
            "end_time": "108.69999694824219"
        }
    ]
}
