{
    "objective": "629.03173821828818",
    "BAP cost": "119",
    "CSP cost": "1139.0634764365764",
    "products": [
        {
            "id": "75",
            "type": "input",
            "source_block_id": "285",
            "destination_block_id": "164",
            "crane": "1",
            "start_time": "45.099999904632568",
            "end_time": "49.099999904632568"
        },
        {
            "id": "76",
            "type": "input",
            "source_block_id": "295",
            "destination_block_id": "62",
            "crane": "0",
            "start_time": "3.0999999046325684",
            "end_time": "12.099999904632568"
        },
        {
            "id": "77",
            "type": "input",
            "source_block_id": "300",
            "destination_block_id": "148",
            "crane": "1",
            "start_time": "6.0999999046325684",
            "end_time": "12.099999904632568"
        },
        {
            "id": "78",
            "type": "input",
            "source_block_id": "270",
            "destination_block_id": "53",
            "crane": "0",
            "start_time": "15.099999904632568",
            "end_time": "21.099999904632568"
        },
        {
            "id": "79",
            "type": "input",
            "source_block_id": "296",
            "destination_block_id": "44",
            "crane": "1",
            "start_time": "18.099999904632568",
            "end_time": "21.099999904632568"
        },
        {
            "id": "80",
            "type": "input",
            "source_block_id": "299",
            "destination_block_id": "192",
            "crane": "1",
            "start_time": "32.099999904632568",
            "end_time": "38.099999904632568"
        },
        {
            "id": "81",
            "type": "input",
            "source_block_id": "256",
            "destination_block_id": "25",
            "crane": "0",
            "start_time": "24.099999904632568",
            "end_time": "26.099999904632568"
        },
        {
            "id": "51",
            "type": "output",
            "source_block_id": "93",
            "destination_block_id": "321",
            "crane": "1",
            "start_time": "23.099999904632568",
            "end_time": "30.099999904632568"
        },
        {
            "id": "82",
            "type": "input",
            "source_block_id": "310",
            "destination_block_id": "75",
            "crane": "0",
            "start_time": "28.099999904632568",
            "end_time": "29.099999904632568"
        },
        {
            "id": "83",
            "type": "input",
            "source_block_id": "283",
            "destination_block_id": "216",
            "crane": "1",
            "start_time": "41.099999904632568",
            "end_time": "43.099999904632568"
        },
        {
            "id": "84",
            "type": "input",
            "source_block_id": "312",
            "destination_block_id": "27",
            "crane": "0",
            "start_time": "31.200000762939453",
            "end_time": "34.200000762939453"
        },
        {
            "id": "85",
            "type": "input",
            "source_block_id": "259",
            "destination_block_id": "227",
            "crane": "0",
            "start_time": "80.200000762939453",
            "end_time": "81.200000762939453"
        },
        {
            "id": "86",
            "type": "input",
            "source_block_id": "264",
            "destination_block_id": "8",
            "crane": "0",
            "start_time": "38.200000762939453",
            "end_time": "40.200000762939453"
        },
        {
            "id": "87",
            "type": "input",
            "source_block_id": "310",
            "destination_block_id": "125",
            "crane": "0",
            "start_time": "73.200000762939453",
            "end_time": "75.200000762939453"
        },
        {
            "id": "88",
            "type": "input",
            "source_block_id": "264",
            "destination_block_id": "10",
            "crane": "0",
            "start_time": "42.200000762939453",
            "end_time": "46.200000762939453"
        },
        {
            "id": "89",
            "type": "input",
            "source_block_id": "270",
            "destination_block_id": "39",
            "crane": "0",
            "start_time": "47.200000762939453",
            "end_time": "52.200000762939453"
        },
        {
            "id": "90",
            "type": "input",
            "source_block_id": "300",
            "destination_block_id": "71",
            "crane": "1",
            "start_time": "89.299999237060547",
            "end_time": "92.299999237060547"
        },
        {
            "id": "91",
            "type": "input",
            "source_block_id": "261",
            "destination_block_id": "231",
            "crane": "0",
            "start_time": "89.200000762939453",
            "end_time": "91.200000762939453"
        },
        {
            "id": "68",
            "type": "output",
            "source_block_id": "14",
            "destination_block_id": "314",
            "crane": "0",
            "start_time": "53.200000762939453",
            "end_time": "68.200000762939453"
        },
        {
            "id": "92",
            "type": "input",
            "source_block_id": "283",
            "destination_block_id": "220",
            "crane": "1",
            "start_time": "55.200000762939453",
            "end_time": "60.200000762939453"
        },
        {
            "id": "93",
            "type": "input",
            "source_block_id": "299",
            "destination_block_id": "91",
            "crane": "1",
            "start_time": "66.299999237060547",
            "end_time": "73.299999237060547"
        },
        {
            "id": "94",
            "type": "input",
            "source_block_id": "296",
            "destination_block_id": "22",
            "crane": "1",
            "start_time": "80.299999237060547",
            "end_time": "81.299999237060547"
        },
        {
            "id": "95",
            "type": "input",
            "source_block_id": "295",
            "destination_block_id": "222",
            "crane": "1",
            "start_time": "62.299999237060547",
            "end_time": "64.299999237060547"
        },
        {
            "id": "96",
            "type": "input",
            "source_block_id": "312",
            "destination_block_id": "51",
            "crane": "0",
            "start_time": "69.200000762939453",
            "end_time": "71.200000762939453"
        },
        {
            "id": "97",
            "type": "input",
            "source_block_id": "255",
            "destination_block_id": "201",
            "crane": "0",
            "start_time": "84.200000762939453",
            "end_time": "86.200000762939453"
        },
        {
            "id": "98",
            "type": "input",
            "source_block_id": "296",
            "destination_block_id": "117",
            "crane": "1",
            "start_time": "95.299999237060547",
            "end_time": "100.29999923706055"
        },
        {
            "id": "99",
            "type": "input",
            "source_block_id": "292",
            "destination_block_id": "20",
            "crane": "1",
            "start_time": "77.299999237060547",
            "end_time": "78.299999237060547"
        },
        {
            "id": "100",
            "type": "input",
            "source_block_id": "255",
            "destination_block_id": "225",
            "crane": "0",
            "start_time": "82.200000762939453",
            "end_time": "83.200000762939453"
        },
        {
            "id": "27",
            "type": "output",
            "source_block_id": "35",
            "destination_block_id": "277",
            "crane": "0",
            "start_time": "109.69999694824219",
            "end_time": "118.69999694824219"
        },
        {
            "id": "101",
            "type": "input",
            "source_block_id": "300",
            "destination_block_id": "73",
            "crane": "1",
            "start_time": "83.299999237060547",
            "end_time": "86.299999237060547"
        },
        {
            "id": "48",
            "type": "output",
            "source_block_id": "121",
            "destination_block_id": "251",
            "crane": "0",
            "start_time": "168.69999694824219",
            "end_time": "190.69999694824219"
        },
        {
            "id": "102",
            "type": "input",
            "source_block_id": "308",
            "destination_block_id": "77",
            "crane": "0",
            "start_time": "98.200000762939453",
            "end_time": "101.20000076293945"
        },
        {
            "id": "46",
            "type": "output",
            "source_block_id": "50",
            "destination_block_id": "271",
            "crane": "0",
            "start_time": "147.69999694824219",
            "end_time": "156.69999694824219"
        },
        {
            "id": "45",
            "type": "output",
            "source_block_id": "173",
            "destination_block_id": "271",
            "crane": "1",
            "start_time": "212.69999694824219",
            "end_time": "226.69999694824219"
        },
        {
            "id": "103",
            "type": "input",
            "source_block_id": "283",
            "destination_block_id": "238",
            "crane": "0",
            "start_time": "121.69999694824219",
            "end_time": "123.69999694824219"
        },
        {
            "id": "33",
            "type": "output",
            "source_block_id": "161",
            "destination_block_id": "317",
            "crane": "1",
            "start_time": "185.89999389648438",
            "end_time": "199.89999389648438"
        },
        {
            "id": "3",
            "type": "output",
            "source_block_id": "174",
            "destination_block_id": "277",
            "crane": "1",
            "start_time": "169.89999389648438",
            "end_time": "181.89999389648438"
        },
        {
            "id": "104",
            "type": "input",
            "source_block_id": "264",
            "destination_block_id": "59",
            "crane": "0",
            "start_time": "105.69999694824219",
            "end_time": "108.69999694824219"
        },
        {
            "id": "105",
            "type": "input",
            "source_block_id": "286",
            "destination_block_id": "41",
            "crane": "1",
            "start_time": "109.5",
            "end_time": "111.5"
        },
        {
            "id": "106",
            "type": "input",
            "source_block_id": "296",
            "destination_block_id": "119",
            "crane": "1",
            "start_time": "117.5",
            "end_time": "122.5"
        },
        {
            "id": "107",
            "type": "input",
            "source_block_id": "289",
            "destination_block_id": "89",
            "crane": "1",
            "start_time": "138.89999389648438",
            "end_time": "145.89999389648438"
        },
        {
            "id": "108",
            "type": "input",
            "source_block_id": "264",
            "destination_block_id": "56",
            "crane": "0",
            "start_time": "137.69999694824219",
            "end_time": "140.69999694824219"
        },
        {
            "id": "34",
            "type": "output",
            "source_block_id": "64",
            "destination_block_id": "305",
            "crane": "1",
            "start_time": "146.89999389648438",
            "end_time": "157.89999389648438"
        },
        {
            "id": "109",
            "type": "input",
            "source_block_id": "285",
            "destination_block_id": "162",
            "crane": "0",
            "start_time": "126.69999694824219",
            "end_time": "130.69999694824219"
        },
        {
            "id": "110",
            "type": "input",
            "source_block_id": "299",
            "destination_block_id": "248",
            "crane": "1",
            "start_time": "128.5",
            "end_time": "129.5"
        },
        {
            "id": "37",
            "type": "output",
            "source_block_id": "128",
            "destination_block_id": "293",
            "crane": "0",
            "start_time": "195.69999694824219",
            "end_time": "212.69999694824219"
        },
        {
            "id": "111",
            "type": "input",
            "source_block_id": "307",
            "destination_block_id": "198",
            "crane": "1",
            "start_time": "158.89999389648438",
            "end_time": "164.89999389648438"
        },
        {
            "id": "112",
            "type": "input",
            "source_block_id": "323",
            "destination_block_id": "174",
            "crane": "1",
            "start_time": "166.89999389648438",
            "end_time": "169.89999389648438"
        },
        {
            "id": "113",
            "type": "input",
            "source_block_id": "287",
            "destination_block_id": "244",
            "crane": "1",
            "start_time": "135.89999389648438",
            "end_time": "137.89999389648438"
        },
        {
            "id": "114",
            "type": "input",
            "source_block_id": "258",
            "destination_block_id": "1",
            "crane": "0",
            "start_time": "143.69999694824219",
            "end_time": "145.69999694824219"
        }
    ]
}
