{
    "objective": "4025.777959205865",
    "BAP cost": "4183",
    "CSP cost": "3868.5559184117305",
    "products": [
        {
            "id": "1394",
            "type": "yard_movement",
            "source_block_id": "1070",
            "destination_block_id": "1216",
            "crane": "0",
            "start_time": "21.099999904632568",
            "end_time": "22.099999904632568"
        },
        {
            "id": "1189",
            "type": "yard_movement",
            "source_block_id": "308",
            "destination_block_id": "460",
            "crane": "0",
            "start_time": "72.799999237060547",
            "end_time": "73.799999237060547"
        },
        {
            "id": "893",
            "type": "yard_movement",
            "source_block_id": "1639",
            "destination_block_id": "1488",
            "crane": "0",
            "start_time": "428",
            "end_time": "429"
        },
        {
            "id": "1120",
            "type": "yard_movement",
            "source_block_id": "2804",
            "destination_block_id": "2807",
            "crane": "1",
            "start_time": "84.5",
            "end_time": "85.5"
        },
        {
            "id": "1021",
            "type": "yard_movement",
            "source_block_id": "617",
            "destination_block_id": "619",
            "crane": "0",
            "start_time": "222.79999923706055",
            "end_time": "223.79999923706055"
        },
        {
            "id": "1500",
            "type": "input",
            "source_block_id": "3072",
            "destination_block_id": "105",
            "crane": "1",
            "start_time": "1.5",
            "end_time": "2.5"
        },
        {
            "id": "1501",
            "type": "input",
            "source_block_id": "3018",
            "destination_block_id": "180",
            "crane": "0",
            "start_time": "260.79999923706055",
            "end_time": "262.79999923706055"
        },
        {
            "id": "1502",
            "type": "input",
            "source_block_id": "3005",
            "destination_block_id": "2854",
            "crane": "0",
            "start_time": "6.0999999046325684",
            "end_time": "7.0999999046325684"
        },
        {
            "id": "1503",
            "type": "input",
            "source_block_id": "3134",
            "destination_block_id": "2400",
            "crane": "0",
            "start_time": "11.099999904632568",
            "end_time": "12.099999904632568"
        },
        {
            "id": "1504",
            "type": "input",
            "source_block_id": "3011",
            "destination_block_id": "2866",
            "crane": "1",
            "start_time": "479",
            "end_time": "480"
        },
        {
            "id": "1505",
            "type": "input",
            "source_block_id": "3116",
            "destination_block_id": "604",
            "crane": "0",
            "start_time": "28.099999904632568",
            "end_time": "30.099999904632568"
        },
        {
            "id": "1506",
            "type": "input",
            "source_block_id": "3116",
            "destination_block_id": "1052",
            "crane": "0",
            "start_time": "32.099999904632568",
            "end_time": "34.099999904632568"
        },
        {
            "id": "1507",
            "type": "input",
            "source_block_id": "3072",
            "destination_block_id": "103",
            "crane": "1",
            "start_time": "24.5",
            "end_time": "25.5"
        },
        {
            "id": "1508",
            "type": "input",
            "source_block_id": "3049",
            "destination_block_id": "2913",
            "crane": "1",
            "start_time": "45.5",
            "end_time": "47.5"
        },
        {
            "id": "1509",
            "type": "input",
            "source_block_id": "3073",
            "destination_block_id": "2953",
            "crane": "1",
            "start_time": "310",
            "end_time": "311"
        },
        {
            "id": "1510",
            "type": "input",
            "source_block_id": "3116",
            "destination_block_id": "755",
            "crane": "0",
            "start_time": "36.099999904632568",
            "end_time": "38.099999904632568"
        },
        {
            "id": "1511",
            "type": "input",
            "source_block_id": "3014",
            "destination_block_id": "1832",
            "crane": "0",
            "start_time": "77.799999237060547",
            "end_time": "90.799999237060547"
        },
        {
            "id": "1512",
            "type": "input",
            "source_block_id": "3077",
            "destination_block_id": "2967",
            "crane": "1",
            "start_time": "87.5",
            "end_time": "89.5"
        },
        {
            "id": "1513",
            "type": "input",
            "source_block_id": "3007",
            "destination_block_id": "2707",
            "crane": "0",
            "start_time": "54.799999237060547",
            "end_time": "56.799999237060547"
        },
        {
            "id": "1514",
            "type": "input",
            "source_block_id": "3102",
            "destination_block_id": "148",
            "crane": "1",
            "start_time": "170.5",
            "end_time": "171.5"
        },
        {
            "id": "1515",
            "type": "input",
            "source_block_id": "3132",
            "destination_block_id": "1803",
            "crane": "0",
            "start_time": "60.799999237060547",
            "end_time": "62.799999237060547"
        },
        {
            "id": "1516",
            "type": "input",
            "source_block_id": "3136",
            "destination_block_id": "2401",
            "crane": "0",
            "start_time": "49.799999237060547",
            "end_time": "50.799999237060547"
        },
        {
            "id": "953",
            "type": "output",
            "source_block_id": "1528",
            "destination_block_id": "3065",
            "crane": "1",
            "start_time": "59.5",
            "end_time": "81.5"
        },
        {
            "id": "1517",
            "type": "input",
            "source_block_id": "3032",
            "destination_block_id": "197",
            "crane": "0",
            "start_time": "345.79999923706055",
            "end_time": "347.79999923706055"
        },
        {
            "id": "1518",
            "type": "input",
            "source_block_id": "3049",
            "destination_block_id": "2775",
            "crane": "0",
            "start_time": "133.79999923706055",
            "end_time": "135.79999923706055"
        },
        {
            "id": "1519",
            "type": "input",
            "source_block_id": "3016",
            "destination_block_id": "26",
            "crane": "0",
            "start_time": "667",
            "end_time": "669"
        },
        {
            "id": "1520",
            "type": "input",
            "source_block_id": "3125",
            "destination_block_id": "1498",
            "crane": "1",
            "start_time": "203",
            "end_time": "204"
        },
        {
            "id": "1521",
            "type": "input",
            "source_block_id": "3062",
            "destination_block_id": "94",
            "crane": "1",
            "start_time": "132.5",
            "end_time": "133.5"
        },
        {
            "id": "1522",
            "type": "input",
            "source_block_id": "3133",
            "destination_block_id": "2248",
            "crane": "1",
            "start_time": "104.5",
            "end_time": "105.5"
        },
        {
            "id": "1523",
            "type": "input",
            "source_block_id": "3066",
            "destination_block_id": "95",
            "crane": "1",
            "start_time": "447",
            "end_time": "449"
        },
        {
            "id": "1524",
            "type": "input",
            "source_block_id": "3078",
            "destination_block_id": "112",
            "crane": "1",
            "start_time": "124.5",
            "end_time": "125.5"
        },
        {
            "id": "1525",
            "type": "input",
            "source_block_id": "3035",
            "destination_block_id": "2895",
            "crane": "0",
            "start_time": "124.79999923706055",
            "end_time": "125.79999923706055"
        },
        {
            "id": "1526",
            "type": "input",
            "source_block_id": "3133",
            "destination_block_id": "2397",
            "crane": "1",
            "start_time": "102.5",
            "end_time": "103.5"
        },
        {
            "id": "1074",
            "type": "output",
            "source_block_id": "1853",
            "destination_block_id": "3023",
            "crane": "1",
            "start_time": "275",
            "end_time": "283"
        },
        {
            "id": "1527",
            "type": "input",
            "source_block_id": "3095",
            "destination_block_id": "2989",
            "crane": "1",
            "start_time": "96.5",
            "end_time": "97.5"
        },
        {
            "id": "761",
            "type": "output",
            "source_block_id": "911",
            "destination_block_id": "3019",
            "crane": "0",
            "start_time": "284.79999923706055",
            "end_time": "298.79999923706055"
        },
        {
            "id": "1528",
            "type": "input",
            "source_block_id": "3009",
            "destination_block_id": "1361",
            "crane": "0",
            "start_time": "98.799999237060547",
            "end_time": "109.79999923706055"
        },
        {
            "id": "749",
            "type": "output",
            "source_block_id": "743",
            "destination_block_id": "3084",
            "crane": "1",
            "start_time": "115.5",
            "end_time": "121.5"
        },
        {
            "id": "1226",
            "type": "output",
            "source_block_id": "187",
            "destination_block_id": "3065",
            "crane": "0",
            "start_time": "394",
            "end_time": "413"
        },
        {
            "id": "1529",
            "type": "input",
            "source_block_id": "3099",
            "destination_block_id": "2996",
            "crane": "1",
            "start_time": "215",
            "end_time": "217"
        },
        {
            "id": "1530",
            "type": "input",
            "source_block_id": "3033",
            "destination_block_id": "2892",
            "crane": "0",
            "start_time": "121.79999923706055",
            "end_time": "122.79999923706055"
        },
        {
            "id": "1531",
            "type": "input",
            "source_block_id": "3018",
            "destination_block_id": "181",
            "crane": "0",
            "start_time": "264.79999923706055",
            "end_time": "266.79999923706055"
        },
        {
            "id": "1532",
            "type": "input",
            "source_block_id": "3005",
            "destination_block_id": "2851",
            "crane": "0",
            "start_time": "206.79999923706055",
            "end_time": "207.79999923706055"
        },
        {
            "id": "1533",
            "type": "input",
            "source_block_id": "3062",
            "destination_block_id": "243",
            "crane": "0",
            "start_time": "320.79999923706055",
            "end_time": "322.79999923706055"
        },
        {
            "id": "1534",
            "type": "input",
            "source_block_id": "3042",
            "destination_block_id": "63",
            "crane": "1",
            "start_time": "262",
            "end_time": "263"
        },
        {
            "id": "1535",
            "type": "input",
            "source_block_id": "3032",
            "destination_block_id": "53",
            "crane": "0",
            "start_time": "341.79999923706055",
            "end_time": "343.79999923706055"
        },
        {
            "id": "650",
            "type": "output",
            "source_block_id": "1488",
            "destination_block_id": "3113",
            "crane": "1",
            "start_time": "148.5",
            "end_time": "153.5"
        },
        {
            "id": "1536",
            "type": "input",
            "source_block_id": "3112",
            "destination_block_id": "601",
            "crane": "0",
            "start_time": "184.79999923706055",
            "end_time": "185.79999923706055"
        },
        {
            "id": "1537",
            "type": "input",
            "source_block_id": "3012",
            "destination_block_id": "16",
            "crane": "0",
            "start_time": "176.79999923706055",
            "end_time": "177.79999923706055"
        },
        {
            "id": "1538",
            "type": "input",
            "source_block_id": "3088",
            "destination_block_id": "277",
            "crane": "1",
            "start_time": "160.5",
            "end_time": "162.5"
        },
        {
            "id": "1539",
            "type": "input",
            "source_block_id": "3030",
            "destination_block_id": "192",
            "crane": "0",
            "start_time": "165.79999923706055",
            "end_time": "167.79999923706055"
        },
        {
            "id": "1540",
            "type": "input",
            "source_block_id": "3062",
            "destination_block_id": "98",
            "crane": "1",
            "start_time": "248",
            "end_time": "250"
        },
        {
            "id": "1541",
            "type": "input",
            "source_block_id": "3050",
            "destination_block_id": "73",
            "crane": "0",
            "start_time": "154.79999923706055",
            "end_time": "155.79999923706055"
        },
        {
            "id": "1542",
            "type": "input",
            "source_block_id": "3117",
            "destination_block_id": "374",
            "crane": "1",
            "start_time": "331",
            "end_time": "357"
        },
        {
            "id": "1543",
            "type": "input",
            "source_block_id": "3008",
            "destination_block_id": "6",
            "crane": "0",
            "start_time": "179.79999923706055",
            "end_time": "180.79999923706055"
        },
        {
            "id": "1544",
            "type": "input",
            "source_block_id": "3062",
            "destination_block_id": "87",
            "crane": "0",
            "start_time": "324.79999923706055",
            "end_time": "325.79999923706055"
        },
        {
            "id": "1545",
            "type": "input",
            "source_block_id": "3097",
            "destination_block_id": "2836",
            "crane": "1",
            "start_time": "219",
            "end_time": "221"
        },
        {
            "id": "1546",
            "type": "input",
            "source_block_id": "3060",
            "destination_block_id": "88",
            "crane": "0",
            "start_time": "326.79999923706055",
            "end_time": "327.79999923706055"
        },
        {
            "id": "1547",
            "type": "input",
            "source_block_id": "3128",
            "destination_block_id": "1801",
            "crane": "0",
            "start_time": "193.79999923706055",
            "end_time": "194.79999923706055"
        },
        {
            "id": "1548",
            "type": "input",
            "source_block_id": "3074",
            "destination_block_id": "109",
            "crane": "1",
            "start_time": "188",
            "end_time": "189"
        },
        {
            "id": "1549",
            "type": "input",
            "source_block_id": "3138",
            "destination_block_id": "2550",
            "crane": "0",
            "start_time": "236.79999923706055",
            "end_time": "237.79999923706055"
        },
        {
            "id": "1550",
            "type": "input",
            "source_block_id": "3009",
            "destination_block_id": "2862",
            "crane": "0",
            "start_time": "202.79999923706055",
            "end_time": "203.79999923706055"
        },
        {
            "id": "1551",
            "type": "input",
            "source_block_id": "3105",
            "destination_block_id": "146",
            "crane": "1",
            "start_time": "174",
            "end_time": "176"
        },
        {
            "id": "1552",
            "type": "input",
            "source_block_id": "3050",
            "destination_block_id": "80",
            "crane": "1",
            "start_time": "242",
            "end_time": "244"
        },
        {
            "id": "1553",
            "type": "input",
            "source_block_id": "3110",
            "destination_block_id": "152",
            "crane": "0",
            "start_time": "277.79999923706055",
            "end_time": "279.79999923706055"
        },
        {
            "id": "1554",
            "type": "input",
            "source_block_id": "3112",
            "destination_block_id": "602",
            "crane": "0",
            "start_time": "250.79999923706055",
            "end_time": "252.79999923706055"
        },
        {
            "id": "841",
            "type": "output",
            "source_block_id": "1053",
            "destination_block_id": "3093",
            "crane": "1",
            "start_time": "380",
            "end_time": "424"
        },
        {
            "id": "1555",
            "type": "input",
            "source_block_id": "3126",
            "destination_block_id": "1501",
            "crane": "0",
            "start_time": "243.79999923706055",
            "end_time": "244.79999923706055"
        },
        {
            "id": "1556",
            "type": "input",
            "source_block_id": "3033",
            "destination_block_id": "2893",
            "crane": "1",
            "start_time": "288",
            "end_time": "289"
        },
        {
            "id": "1557",
            "type": "input",
            "source_block_id": "3009",
            "destination_block_id": "2863",
            "crane": "1",
            "start_time": "477",
            "end_time": "478"
        },
        {
            "id": "912",
            "type": "output",
            "source_block_id": "1069",
            "destination_block_id": "3111",
            "crane": "0",
            "start_time": "484",
            "end_time": "528"
        },
        {
            "id": "1168",
            "type": "output",
            "source_block_id": "307",
            "destination_block_id": "3113",
            "crane": "0",
            "start_time": "576",
            "end_time": "624"
        },
        {
            "id": "170",
            "type": "output",
            "source_block_id": "1638",
            "destination_block_id": "3118",
            "crane": "0",
            "start_time": "430",
            "end_time": "477"
        },
        {
            "id": "926",
            "type": "yard_movement",
            "source_block_id": "2803",
            "destination_block_id": "2653",
            "crane": "1",
            "start_time": "312",
            "end_time": "313"
        },
        {
            "id": "791",
            "type": "yard_movement",
            "source_block_id": "616",
            "destination_block_id": "463",
            "crane": "0",
            "start_time": "573",
            "end_time": "574"
        },
        {
            "id": "817",
            "type": "output",
            "source_block_id": "2802",
            "destination_block_id": "3115",
            "crane": "1",
            "start_time": "314",
            "end_time": "330"
        },
        {
            "id": "790",
            "type": "output",
            "source_block_id": "615",
            "destination_block_id": "3093",
            "crane": "1",
            "start_time": "576",
            "end_time": "616"
        }
    ]
}
