{
    "objective": "1614.9188714270365",
    "BAP cost": "299",
    "CSP cost": "2930.837742854073",
    "products": [
        {
            "id": "300",
            "type": "input",
            "source_block_id": "1141",
            "destination_block_id": "949",
            "crane": "1",
            "start_time": "83.700000762939453",
            "end_time": "84.700000762939453"
        },
        {
            "id": "301",
            "type": "input",
            "source_block_id": "1138",
            "destination_block_id": "853",
            "crane": "0",
            "start_time": "3.0999999046325684",
            "end_time": "7.0999999046325684"
        },
        {
            "id": "302",
            "type": "input",
            "source_block_id": "1094",
            "destination_block_id": "94",
            "crane": "1",
            "start_time": "119.70000076293945",
            "end_time": "121.70000076293945"
        },
        {
            "id": "303",
            "type": "input",
            "source_block_id": "1050",
            "destination_block_id": "272",
            "crane": "1",
            "start_time": "9.6999998092651367",
            "end_time": "15.699999809265137"
        },
        {
            "id": "304",
            "type": "input",
            "source_block_id": "1012",
            "destination_block_id": "108",
            "crane": "0",
            "start_time": "404.30000305175781",
            "end_time": "407.30000305175781"
        },
        {
            "id": "305",
            "type": "input",
            "source_block_id": "1030",
            "destination_block_id": "114",
            "crane": "1",
            "start_time": "23.699999809265137",
            "end_time": "26.699999809265137"
        },
        {
            "id": "306",
            "type": "input",
            "source_block_id": "1114",
            "destination_block_id": "254",
            "crane": "0",
            "start_time": "19.099999904632568",
            "end_time": "24.099999904632568"
        },
        {
            "id": "141",
            "type": "output",
            "source_block_id": "507",
            "destination_block_id": "1109",
            "crane": "1",
            "start_time": "459.30000305175781",
            "end_time": "502.30000305175781"
        },
        {
            "id": "307",
            "type": "input",
            "source_block_id": "1125",
            "destination_block_id": "399",
            "crane": "1",
            "start_time": "105.70000076293945",
            "end_time": "108.70000076293945"
        },
        {
            "id": "308",
            "type": "input",
            "source_block_id": "1134",
            "destination_block_id": "600",
            "crane": "0",
            "start_time": "44.099999904632568",
            "end_time": "47.099999904632568"
        },
        {
            "id": "309",
            "type": "input",
            "source_block_id": "1123",
            "destination_block_id": "698",
            "crane": "1",
            "start_time": "160.70000076293945",
            "end_time": "164.70000076293945"
        },
        {
            "id": "310",
            "type": "input",
            "source_block_id": "1011",
            "destination_block_id": "902",
            "crane": "0",
            "start_time": "39.099999904632568",
            "end_time": "41.099999904632568"
        },
        {
            "id": "311",
            "type": "input",
            "source_block_id": "1039",
            "destination_block_id": "968",
            "crane": "1",
            "start_time": "44.699999809265137",
            "end_time": "45.699999809265137"
        },
        {
            "id": "312",
            "type": "input",
            "source_block_id": "1105",
            "destination_block_id": "99",
            "crane": "1",
            "start_time": "115.70000076293945",
            "end_time": "116.70000076293945"
        },
        {
            "id": "313",
            "type": "input",
            "source_block_id": "1112",
            "destination_block_id": "406",
            "crane": "0",
            "start_time": "55.099999904632568",
            "end_time": "62.099999904632568"
        },
        {
            "id": "314",
            "type": "input",
            "source_block_id": "1112",
            "destination_block_id": "101",
            "crane": "0",
            "start_time": "190.30000305175781",
            "end_time": "192.30000305175781"
        },
        {
            "id": "315",
            "type": "input",
            "source_block_id": "1103",
            "destination_block_id": "998",
            "crane": "1",
            "start_time": "86.700000762939453",
            "end_time": "88.700000762939453"
        },
        {
            "id": "316",
            "type": "input",
            "source_block_id": "1088",
            "destination_block_id": "43",
            "crane": "1",
            "start_time": "123.70000076293945",
            "end_time": "124.70000076293945"
        },
        {
            "id": "63",
            "type": "output",
            "source_block_id": "924",
            "destination_block_id": "1131",
            "crane": "1",
            "start_time": "52.700000762939453",
            "end_time": "78.700000762939453"
        },
        {
            "id": "317",
            "type": "input",
            "source_block_id": "1143",
            "destination_block_id": "594",
            "crane": "1",
            "start_time": "357.19999694824219",
            "end_time": "365.19999694824219"
        },
        {
            "id": "318",
            "type": "input",
            "source_block_id": "1008",
            "destination_block_id": "152",
            "crane": "0",
            "start_time": "83.099999904632568",
            "end_time": "87.099999904632568"
        },
        {
            "id": "319",
            "type": "input",
            "source_block_id": "1042",
            "destination_block_id": "116",
            "crane": "0",
            "start_time": "578.30000305175781",
            "end_time": "582.30000305175781"
        },
        {
            "id": "320",
            "type": "input",
            "source_block_id": "1018",
            "destination_block_id": "5",
            "crane": "0",
            "start_time": "78.099999904632568",
            "end_time": "81.099999904632568"
        },
        {
            "id": "321",
            "type": "input",
            "source_block_id": "1012",
            "destination_block_id": "60",
            "crane": "0",
            "start_time": "71.099999904632568",
            "end_time": "76.099999904632568"
        },
        {
            "id": "322",
            "type": "input",
            "source_block_id": "1029",
            "destination_block_id": "964",
            "crane": "0",
            "start_time": "108.09999990463257",
            "end_time": "109.09999990463257"
        },
        {
            "id": "323",
            "type": "input",
            "source_block_id": "1116",
            "destination_block_id": "252",
            "crane": "0",
            "start_time": "416.30000305175781",
            "end_time": "419.30000305175781"
        },
        {
            "id": "324",
            "type": "input",
            "source_block_id": "1089",
            "destination_block_id": "992",
            "crane": "1",
            "start_time": "95.700000762939453",
            "end_time": "96.700000762939453"
        },
        {
            "id": "325",
            "type": "input",
            "source_block_id": "1097",
            "destination_block_id": "894",
            "crane": "1",
            "start_time": "89.700000762939453",
            "end_time": "92.700000762939453"
        },
        {
            "id": "256",
            "type": "output",
            "source_block_id": "278",
            "destination_block_id": "1038",
            "crane": "0",
            "start_time": "123.09999990463257",
            "end_time": "133.09999990463257"
        },
        {
            "id": "326",
            "type": "input",
            "source_block_id": "1078",
            "destination_block_id": "135",
            "crane": "1",
            "start_time": "140.70000076293945",
            "end_time": "143.70000076293945"
        },
        {
            "id": "269",
            "type": "output",
            "source_block_id": "302",
            "destination_block_id": "1135",
            "crane": "0",
            "start_time": "459.30000305175781",
            "end_time": "507.30000305175781"
        },
        {
            "id": "327",
            "type": "input",
            "source_block_id": "1112",
            "destination_block_id": "303",
            "crane": "0",
            "start_time": "90.099999904632568",
            "end_time": "94.099999904632568"
        },
        {
            "id": "159",
            "type": "output",
            "source_block_id": "183",
            "destination_block_id": "1010",
            "crane": "0",
            "start_time": "264.30000305175781",
            "end_time": "293.30000305175781"
        },
        {
            "id": "169",
            "type": "output",
            "source_block_id": "123",
            "destination_block_id": "1111",
            "crane": "1",
            "start_time": "389.30000305175781",
            "end_time": "416.30000305175781"
        },
        {
            "id": "328",
            "type": "input",
            "source_block_id": "1046",
            "destination_block_id": "21",
            "crane": "0",
            "start_time": "137.09999990463257",
            "end_time": "138.09999990463257"
        },
        {
            "id": "228",
            "type": "output",
            "source_block_id": "393",
            "destination_block_id": "1119",
            "crane": "1",
            "start_time": "151.70000076293945",
            "end_time": "158.70000076293945"
        },
        {
            "id": "254",
            "type": "output",
            "source_block_id": "550",
            "destination_block_id": "1085",
            "crane": "0",
            "start_time": "315.30000305175781",
            "end_time": "356.30000305175781"
        },
        {
            "id": "329",
            "type": "input",
            "source_block_id": "1006",
            "destination_block_id": "50",
            "crane": "0",
            "start_time": "185.30000305175781",
            "end_time": "187.30000305175781"
        },
        {
            "id": "330",
            "type": "input",
            "source_block_id": "1012",
            "destination_block_id": "103",
            "crane": "0",
            "start_time": "176.30000305175781",
            "end_time": "179.30000305175781"
        },
        {
            "id": "331",
            "type": "input",
            "source_block_id": "1088",
            "destination_block_id": "41",
            "crane": "1",
            "start_time": "125.70000076293945",
            "end_time": "127.70000076293945"
        },
        {
            "id": "332",
            "type": "input",
            "source_block_id": "1074",
            "destination_block_id": "186",
            "crane": "1",
            "start_time": "132.70000076293945",
            "end_time": "136.70000076293945"
        },
        {
            "id": "333",
            "type": "input",
            "source_block_id": "1030",
            "destination_block_id": "13",
            "crane": "0",
            "start_time": "150.30000305175781",
            "end_time": "151.30000305175781"
        },
        {
            "id": "0",
            "type": "output",
            "source_block_id": "930",
            "destination_block_id": "1071",
            "crane": "0",
            "start_time": "243.30000305175781",
            "end_time": "247.30000305175781"
        },
        {
            "id": "334",
            "type": "input",
            "source_block_id": "1128",
            "destination_block_id": "354",
            "crane": "0",
            "start_time": "306.30000305175781",
            "end_time": "311.30000305175781"
        },
        {
            "id": "335",
            "type": "input",
            "source_block_id": "1143",
            "destination_block_id": "744",
            "crane": "1",
            "start_time": "249.19999694824219",
            "end_time": "255.19999694824219"
        },
        {
            "id": "275",
            "type": "output",
            "source_block_id": "194",
            "destination_block_id": "1047",
            "crane": "1",
            "start_time": "266.19999694824219",
            "end_time": "288.19999694824219"
        },
        {
            "id": "336",
            "type": "input",
            "source_block_id": "1089",
            "destination_block_id": "943",
            "crane": "1",
            "start_time": "240.19999694824219",
            "end_time": "242.19999694824219"
        },
        {
            "id": "337",
            "type": "input",
            "source_block_id": "1016",
            "destination_block_id": "11",
            "crane": "0",
            "start_time": "157.30000305175781",
            "end_time": "161.30000305175781"
        },
        {
            "id": "338",
            "type": "input",
            "source_block_id": "1014",
            "destination_block_id": "208",
            "crane": "0",
            "start_time": "166.30000305175781",
            "end_time": "171.30000305175781"
        },
        {
            "id": "339",
            "type": "input",
            "source_block_id": "1129",
            "destination_block_id": "649",
            "crane": "1",
            "start_time": "166.70000076293945",
            "end_time": "167.70000076293945"
        },
        {
            "id": "174",
            "type": "output",
            "source_block_id": "201",
            "destination_block_id": "1023",
            "crane": "0",
            "start_time": "668.30000305175781",
            "end_time": "684.30000305175781"
        },
        {
            "id": "340",
            "type": "input",
            "source_block_id": "1036",
            "destination_block_id": "19",
            "crane": "0",
            "start_time": "143.30000305175781",
            "end_time": "145.30000305175781"
        },
        {
            "id": "341",
            "type": "input",
            "source_block_id": "1009",
            "destination_block_id": "807",
            "crane": "0",
            "start_time": "212.30000305175781",
            "end_time": "216.30000305175781"
        },
        {
            "id": "342",
            "type": "input",
            "source_block_id": "1141",
            "destination_block_id": "545",
            "crane": "0",
            "start_time": "616.30000305175781",
            "end_time": "624.30000305175781"
        },
        {
            "id": "343",
            "type": "input",
            "source_block_id": "1008",
            "destination_block_id": "1",
            "crane": "0",
            "start_time": "182.30000305175781",
            "end_time": "184.30000305175781"
        },
        {
            "id": "344",
            "type": "input",
            "source_block_id": "1075",
            "destination_block_id": "640",
            "crane": "0",
            "start_time": "361.30000305175781",
            "end_time": "369.30000305175781"
        },
        {
            "id": "345",
            "type": "input",
            "source_block_id": "1033",
            "destination_block_id": "965",
            "crane": "0",
            "start_time": "224.30000305175781",
            "end_time": "225.30000305175781"
        },
        {
            "id": "346",
            "type": "input",
            "source_block_id": "1105",
            "destination_block_id": "297",
            "crane": "1",
            "start_time": "338.19999694824219",
            "end_time": "343.19999694824219"
        },
        {
            "id": "347",
            "type": "input",
            "source_block_id": "1082",
            "destination_block_id": "90",
            "crane": "1",
            "start_time": "212.19999694824219",
            "end_time": "214.19999694824219"
        },
        {
            "id": "348",
            "type": "input",
            "source_block_id": "1139",
            "destination_block_id": "749",
            "crane": "1",
            "start_time": "180.19999694824219",
            "end_time": "183.19999694824219"
        },
        {
            "id": "349",
            "type": "input",
            "source_block_id": "1077",
            "destination_block_id": "987",
            "crane": "1",
            "start_time": "233.19999694824219",
            "end_time": "234.19999694824219"
        },
        {
            "id": "350",
            "type": "input",
            "source_block_id": "1141",
            "destination_block_id": "899",
            "crane": "1",
            "start_time": "173.70000076293945",
            "end_time": "174.70000076293945"
        },
        {
            "id": "351",
            "type": "input",
            "source_block_id": "1102",
            "destination_block_id": "97",
            "crane": "1",
            "start_time": "198.19999694824219",
            "end_time": "201.19999694824219"
        },
        {
            "id": "352",
            "type": "input",
            "source_block_id": "1141",
            "destination_block_id": "849",
            "crane": "1",
            "start_time": "177.19999694824219",
            "end_time": "179.19999694824219"
        },
        {
            "id": "353",
            "type": "input",
            "source_block_id": "1138",
            "destination_block_id": "951",
            "crane": "0",
            "start_time": "208.30000305175781",
            "end_time": "210.30000305175781"
        },
        {
            "id": "354",
            "type": "input",
            "source_block_id": "1039",
            "destination_block_id": "868",
            "crane": "0",
            "start_time": "228.30000305175781",
            "end_time": "231.30000305175781"
        },
        {
            "id": "187",
            "type": "output",
            "source_block_id": "270",
            "destination_block_id": "1115",
            "crane": "1",
            "start_time": "303.19999694824219",
            "end_time": "333.19999694824219"
        },
        {
            "id": "355",
            "type": "input",
            "source_block_id": "1082",
            "destination_block_id": "38",
            "crane": "1",
            "start_time": "208.19999694824219",
            "end_time": "210.19999694824219"
        },
        {
            "id": "356",
            "type": "input",
            "source_block_id": "1112",
            "destination_block_id": "200",
            "crane": "0",
            "start_time": "194.30000305175781",
            "end_time": "195.30000305175781"
        },
        {
            "id": "357",
            "type": "input",
            "source_block_id": "1005",
            "destination_block_id": "904",
            "crane": "0",
            "start_time": "556.30000305175781",
            "end_time": "559.30000305175781"
        }
    ]
}
