{
    "objective": "4312.4985447569134",
    "BAP cost": "4947",
    "CSP cost": "3677.9970895138254",
    "products": [
        {
            "id": "620",
            "type": "yard_movement",
            "source_block_id": "1250",
            "destination_block_id": "1252",
            "crane": "1",
            "start_time": "25.099999904632568",
            "end_time": "26.099999904632568"
        },
        {
            "id": "754",
            "type": "yard_movement",
            "source_block_id": "557",
            "destination_block_id": "661",
            "crane": "1",
            "start_time": "341.69999980926514",
            "end_time": "342.69999980926514"
        },
        {
            "id": "756",
            "type": "yard_movement",
            "source_block_id": "1534",
            "destination_block_id": "1432",
            "crane": "1",
            "start_time": "15.099999904632568",
            "end_time": "16.099999904632568"
        },
        {
            "id": "858",
            "type": "yard_movement",
            "source_block_id": "725",
            "destination_block_id": "826",
            "crane": "1",
            "start_time": "99.099999904632568",
            "end_time": "100.09999990463257"
        },
        {
            "id": "899",
            "type": "yard_movement",
            "source_block_id": "497",
            "destination_block_id": "359",
            "crane": "0",
            "start_time": "261.69999980926514",
            "end_time": "272.69999980926514"
        },
        {
            "id": "943",
            "type": "yard_movement",
            "source_block_id": "1376",
            "destination_block_id": "926",
            "crane": "0",
            "start_time": "343.69999980926514",
            "end_time": "368.69999980926514"
        },
        {
            "id": "1102",
            "type": "input",
            "source_block_id": "1604",
            "destination_block_id": "1412",
            "crane": "1",
            "start_time": "1.5",
            "end_time": "3.5"
        },
        {
            "id": "1103",
            "type": "input",
            "source_block_id": "1587",
            "destination_block_id": "125",
            "crane": "0",
            "start_time": "3.0999999046325684",
            "end_time": "5.0999999046325684"
        },
        {
            "id": "1104",
            "type": "input",
            "source_block_id": "1610",
            "destination_block_id": "1514",
            "crane": "1",
            "start_time": "6.0999999046325684",
            "end_time": "8.0999999046325684"
        },
        {
            "id": "1105",
            "type": "input",
            "source_block_id": "1586",
            "destination_block_id": "539",
            "crane": "0",
            "start_time": "30.699999809265137",
            "end_time": "40.699999809265137"
        },
        {
            "id": "1106",
            "type": "input",
            "source_block_id": "1607",
            "destination_block_id": "149",
            "crane": "0",
            "start_time": "139.69999980926514",
            "end_time": "141.69999980926514"
        },
        {
            "id": "1107",
            "type": "input",
            "source_block_id": "1657",
            "destination_block_id": "526",
            "crane": "0",
            "start_time": "15.699999809265137",
            "end_time": "16.699999809265137"
        },
        {
            "id": "1108",
            "type": "input",
            "source_block_id": "1582",
            "destination_block_id": "1474",
            "crane": "0",
            "start_time": "26.699999809265137",
            "end_time": "27.699999809265137"
        },
        {
            "id": "204",
            "type": "output",
            "source_block_id": "532",
            "destination_block_id": "1630",
            "crane": "0",
            "start_time": "76.699999809265137",
            "end_time": "100.69999980926514"
        },
        {
            "id": "1109",
            "type": "input",
            "source_block_id": "1635",
            "destination_block_id": "92",
            "crane": "1",
            "start_time": "65.099999904632568",
            "end_time": "67.099999904632568"
        },
        {
            "id": "1110",
            "type": "input",
            "source_block_id": "1595",
            "destination_block_id": "131",
            "crane": "0",
            "start_time": "56.699999809265137",
            "end_time": "58.699999809265137"
        },
        {
            "id": "1111",
            "type": "input",
            "source_block_id": "1625",
            "destination_block_id": "71",
            "crane": "1",
            "start_time": "57.099999904632568",
            "end_time": "59.099999904632568"
        },
        {
            "id": "1112",
            "type": "input",
            "source_block_id": "1620",
            "destination_block_id": "1530",
            "crane": "1",
            "start_time": "38.099999904632568",
            "end_time": "39.099999904632568"
        },
        {
            "id": "1113",
            "type": "input",
            "source_block_id": "1614",
            "destination_block_id": "994",
            "crane": "1",
            "start_time": "41.099999904632568",
            "end_time": "47.099999904632568"
        },
        {
            "id": "1114",
            "type": "input",
            "source_block_id": "1665",
            "destination_block_id": "946",
            "crane": "0",
            "start_time": "45.699999809265137",
            "end_time": "46.699999809265137"
        },
        {
            "id": "1115",
            "type": "input",
            "source_block_id": "1589",
            "destination_block_id": "121",
            "crane": "0",
            "start_time": "60.699999809265137",
            "end_time": "62.699999809265137"
        },
        {
            "id": "1116",
            "type": "input",
            "source_block_id": "1621",
            "destination_block_id": "170",
            "crane": "0",
            "start_time": "150.69999980926514",
            "end_time": "152.69999980926514"
        },
        {
            "id": "1117",
            "type": "input",
            "source_block_id": "1650",
            "destination_block_id": "202",
            "crane": "1",
            "start_time": "76.099999904632568",
            "end_time": "79.099999904632568"
        },
        {
            "id": "1118",
            "type": "input",
            "source_block_id": "1652",
            "destination_block_id": "416",
            "crane": "1",
            "start_time": "88.099999904632568",
            "end_time": "90.099999904632568"
        },
        {
            "id": "298",
            "type": "output",
            "source_block_id": "216",
            "destination_block_id": "1615",
            "crane": "0",
            "start_time": "238.69999980926514",
            "end_time": "255.69999980926514"
        },
        {
            "id": "1119",
            "type": "input",
            "source_block_id": "1678",
            "destination_block_id": "1573",
            "crane": "1",
            "start_time": "116.69999980926514",
            "end_time": "117.69999980926514"
        },
        {
            "id": "1120",
            "type": "input",
            "source_block_id": "1591",
            "destination_block_id": "122",
            "crane": "0",
            "start_time": "64.699999809265137",
            "end_time": "66.699999809265137"
        },
        {
            "id": "1121",
            "type": "input",
            "source_block_id": "1589",
            "destination_block_id": "641",
            "crane": "0",
            "start_time": "68.699999809265137",
            "end_time": "75.699999809265137"
        },
        {
            "id": "1122",
            "type": "input",
            "source_block_id": "1611",
            "destination_block_id": "160",
            "crane": "0",
            "start_time": "144.69999980926514",
            "end_time": "146.69999980926514"
        },
        {
            "id": "1123",
            "type": "input",
            "source_block_id": "1614",
            "destination_block_id": "1525",
            "crane": "1",
            "start_time": "185.69999980926514",
            "end_time": "186.69999980926514"
        },
        {
            "id": "1124",
            "type": "input",
            "source_block_id": "1632",
            "destination_block_id": "1555",
            "crane": "0",
            "start_time": "101.69999980926514",
            "end_time": "102.69999980926514"
        },
        {
            "id": "1125",
            "type": "input",
            "source_block_id": "1652",
            "destination_block_id": "104",
            "crane": "1",
            "start_time": "72.099999904632568",
            "end_time": "74.099999904632568"
        },
        {
            "id": "1126",
            "type": "input",
            "source_block_id": "1664",
            "destination_block_id": "944",
            "crane": "1",
            "start_time": "94.099999904632568",
            "end_time": "96.099999904632568"
        },
        {
            "id": "1127",
            "type": "input",
            "source_block_id": "1635",
            "destination_block_id": "311",
            "crane": "1",
            "start_time": "82.099999904632568",
            "end_time": "86.099999904632568"
        },
        {
            "id": "1128",
            "type": "input",
            "source_block_id": "1609",
            "destination_block_id": "44",
            "crane": "0",
            "start_time": "161.69999980926514",
            "end_time": "163.69999980926514"
        },
        {
            "id": "1129",
            "type": "input",
            "source_block_id": "1608",
            "destination_block_id": "1210",
            "crane": "0",
            "start_time": "115.69999980926514",
            "end_time": "119.69999980926514"
        },
        {
            "id": "715",
            "type": "output",
            "source_block_id": "1405",
            "destination_block_id": "1618",
            "crane": "1",
            "start_time": "195.69999980926514",
            "end_time": "202.69999980926514"
        },
        {
            "id": "1130",
            "type": "input",
            "source_block_id": "1653",
            "destination_block_id": "213",
            "crane": "0",
            "start_time": "178.69999980926514",
            "end_time": "180.69999980926514"
        },
        {
            "id": "1131",
            "type": "input",
            "source_block_id": "1604",
            "destination_block_id": "1405",
            "crane": "1",
            "start_time": "193.69999980926514",
            "end_time": "195.69999980926514"
        },
        {
            "id": "1132",
            "type": "input",
            "source_block_id": "1678",
            "destination_block_id": "1469",
            "crane": "1",
            "start_time": "118.69999980926514",
            "end_time": "120.69999980926514"
        },
        {
            "id": "1133",
            "type": "input",
            "source_block_id": "1620",
            "destination_block_id": "1531",
            "crane": "1",
            "start_time": "178.69999980926514",
            "end_time": "179.69999980926514"
        },
        {
            "id": "1134",
            "type": "input",
            "source_block_id": "1650",
            "destination_block_id": "919",
            "crane": "1",
            "start_time": "134.69999980926514",
            "end_time": "143.69999980926514"
        },
        {
            "id": "1135",
            "type": "input",
            "source_block_id": "1625",
            "destination_block_id": "74",
            "crane": "1",
            "start_time": "234.69999980926514",
            "end_time": "236.69999980926514"
        },
        {
            "id": "536",
            "type": "output",
            "source_block_id": "1168",
            "destination_block_id": "1588",
            "crane": "0",
            "start_time": "206.69999980926514",
            "end_time": "210.69999980926514"
        },
        {
            "id": "1136",
            "type": "input",
            "source_block_id": "1610",
            "destination_block_id": "1516",
            "crane": "0",
            "start_time": "123.69999980926514",
            "end_time": "124.69999980926514"
        },
        {
            "id": "1137",
            "type": "input",
            "source_block_id": "1611",
            "destination_block_id": "57",
            "crane": "0",
            "start_time": "276.69999980926514",
            "end_time": "278.69999980926514"
        },
        {
            "id": "508",
            "type": "output",
            "source_block_id": "84",
            "destination_block_id": "1592",
            "crane": "1",
            "start_time": "310.69999980926514",
            "end_time": "331.69999980926514"
        },
        {
            "id": "1138",
            "type": "input",
            "source_block_id": "1663",
            "destination_block_id": "947",
            "crane": "0",
            "start_time": "224.69999980926514",
            "end_time": "226.69999980926514"
        },
        {
            "id": "1139",
            "type": "input",
            "source_block_id": "1589",
            "destination_block_id": "16",
            "crane": "0",
            "start_time": "171.69999980926514",
            "end_time": "172.69999980926514"
        },
        {
            "id": "1140",
            "type": "input",
            "source_block_id": "1581",
            "destination_block_id": "14",
            "crane": "0",
            "start_time": "183.69999980926514",
            "end_time": "185.69999980926514"
        },
        {
            "id": "1141",
            "type": "input",
            "source_block_id": "1584",
            "destination_block_id": "1483",
            "crane": "0",
            "start_time": "213.69999980926514",
            "end_time": "214.69999980926514"
        },
        {
            "id": "1009",
            "type": "output",
            "source_block_id": "1184",
            "destination_block_id": "1627",
            "crane": "1",
            "start_time": "215.69999980926514",
            "end_time": "231.69999980926514"
        },
        {
            "id": "1142",
            "type": "input",
            "source_block_id": "1593",
            "destination_block_id": "22",
            "crane": "0",
            "start_time": "169.69999980926514",
            "end_time": "170.69999980926514"
        },
        {
            "id": "1143",
            "type": "input",
            "source_block_id": "1632",
            "destination_block_id": "1557",
            "crane": "1",
            "start_time": "168.69999980926514",
            "end_time": "170.69999980926514"
        },
        {
            "id": "1144",
            "type": "input",
            "source_block_id": "1670",
            "destination_block_id": "1259",
            "crane": "1",
            "start_time": "152.69999980926514",
            "end_time": "154.69999980926514"
        },
        {
            "id": "1145",
            "type": "input",
            "source_block_id": "1621",
            "destination_block_id": "65",
            "crane": "0",
            "start_time": "154.69999980926514",
            "end_time": "156.69999980926514"
        },
        {
            "id": "1146",
            "type": "input",
            "source_block_id": "1670",
            "destination_block_id": "1151",
            "crane": "1",
            "start_time": "156.69999980926514",
            "end_time": "158.69999980926514"
        },
        {
            "id": "1147",
            "type": "input",
            "source_block_id": "1674",
            "destination_block_id": "1571",
            "crane": "1",
            "start_time": "160.69999980926514",
            "end_time": "162.69999980926514"
        },
        {
            "id": "1148",
            "type": "input",
            "source_block_id": "1609",
            "destination_block_id": "161",
            "crane": "1",
            "start_time": "298.69999980926514",
            "end_time": "300.69999980926514"
        },
        {
            "id": "1149",
            "type": "input",
            "source_block_id": "1595",
            "destination_block_id": "140",
            "crane": "0",
            "start_time": "190.69999980926514",
            "end_time": "192.69999980926514"
        },
        {
            "id": "1150",
            "type": "input",
            "source_block_id": "1614",
            "destination_block_id": "1424",
            "crane": "1",
            "start_time": "181.69999980926514",
            "end_time": "183.69999980926514"
        },
        {
            "id": "1151",
            "type": "input",
            "source_block_id": "1608",
            "destination_block_id": "1519",
            "crane": "1",
            "start_time": "207.69999980926514",
            "end_time": "208.69999980926514"
        },
        {
            "id": "1152",
            "type": "input",
            "source_block_id": "1586",
            "destination_block_id": "1482",
            "crane": "0",
            "start_time": "211.69999980926514",
            "end_time": "212.69999980926514"
        },
        {
            "id": "1153",
            "type": "input",
            "source_block_id": "1625",
            "destination_block_id": "75",
            "crane": "1",
            "start_time": "232.69999980926514",
            "end_time": "233.69999980926514"
        },
        {
            "id": "1154",
            "type": "input",
            "source_block_id": "1648",
            "destination_block_id": "1574",
            "crane": "1",
            "start_time": "251.69999980926514",
            "end_time": "253.69999980926514"
        },
        {
            "id": "1155",
            "type": "input",
            "source_block_id": "1595",
            "destination_block_id": "443",
            "crane": "0",
            "start_time": "194.69999980926514",
            "end_time": "199.69999980926514"
        },
        {
            "id": "1156",
            "type": "input",
            "source_block_id": "1637",
            "destination_block_id": "203",
            "crane": "1",
            "start_time": "268.69999980926514",
            "end_time": "270.69999980926514"
        },
        {
            "id": "1157",
            "type": "input",
            "source_block_id": "1607",
            "destination_block_id": "549",
            "crane": "0",
            "start_time": "282.69999980926514",
            "end_time": "289.69999980926514"
        },
        {
            "id": "1158",
            "type": "input",
            "source_block_id": "1584",
            "destination_block_id": "1484",
            "crane": "0",
            "start_time": "215.69999980926514",
            "end_time": "217.69999980926514"
        },
        {
            "id": "1159",
            "type": "input",
            "source_block_id": "1649",
            "destination_block_id": "214",
            "crane": "0",
            "start_time": "235.69999980926514",
            "end_time": "237.69999980926514"
        },
        {
            "id": "559",
            "type": "yard_movement",
            "source_block_id": "1249",
            "destination_block_id": "1145",
            "crane": "1",
            "start_time": "27.099999904632568",
            "end_time": "28.099999904632568"
        },
        {
            "id": "743",
            "type": "yard_movement",
            "source_block_id": "556",
            "destination_block_id": "663",
            "crane": "1",
            "start_time": "343.69999980926514",
            "end_time": "344.69999980926514"
        },
        {
            "id": "67",
            "type": "output",
            "source_block_id": "1533",
            "destination_block_id": "1675",
            "crane": "0",
            "start_time": "306.69999980926514",
            "end_time": "328.69999980926514"
        },
        {
            "id": "431",
            "type": "output",
            "source_block_id": "724",
            "destination_block_id": "1638",
            "crane": "1",
            "start_time": "102.69999980926514",
            "end_time": "111.69999980926514"
        },
        {
            "id": "847",
            "type": "output",
            "source_block_id": "496",
            "destination_block_id": "1597",
            "crane": "1",
            "start_time": "277.69999980926514",
            "end_time": "292.69999980926514"
        },
        {
            "id": "403",
            "type": "output",
            "source_block_id": "1375",
            "destination_block_id": "1668",
            "crane": "0",
            "start_time": "393.69999980926514",
            "end_time": "425.69999980926514"
        },
        {
            "id": "152",
            "type": "output",
            "source_block_id": "1248",
            "destination_block_id": "1656",
            "crane": "1",
            "start_time": "123.69999980926514",
            "end_time": "131.69999980926514"
        },
        {
            "id": "153",
            "type": "output",
            "source_block_id": "555",
            "destination_block_id": "1628",
            "crane": "1",
            "start_time": "345.69999980926514",
            "end_time": "360.69999980926514"
        }
    ]
}
