{
    "objective": "4119.1719269331879",
    "BAP cost": "4696",
    "CSP cost": "3542.343853866374",
    "products": [
        {
            "id": "596",
            "type": "yard_movement",
            "source_block_id": "887",
            "destination_block_id": "891",
            "crane": "0",
            "start_time": "253",
            "end_time": "254"
        },
        {
            "id": "564",
            "type": "yard_movement",
            "source_block_id": "569",
            "destination_block_id": "688",
            "crane": "1",
            "start_time": "75",
            "end_time": "76"
        },
        {
            "id": "549",
            "type": "yard_movement",
            "source_block_id": "649",
            "destination_block_id": "769",
            "crane": "0",
            "start_time": "7.5",
            "end_time": "8.5"
        },
        {
            "id": "524",
            "type": "yard_movement",
            "source_block_id": "134",
            "destination_block_id": "83",
            "crane": "0",
            "start_time": "338",
            "end_time": "353"
        },
        {
            "id": "476",
            "type": "yard_movement",
            "source_block_id": "1124",
            "destination_block_id": "1119",
            "crane": "1",
            "start_time": "0",
            "end_time": "1"
        },
        {
            "id": "470",
            "type": "yard_movement",
            "source_block_id": "1013",
            "destination_block_id": "509",
            "crane": "0",
            "start_time": "93.5",
            "end_time": "97.5"
        },
        {
            "id": "420",
            "type": "yard_movement",
            "source_block_id": "909",
            "destination_block_id": "903",
            "crane": "0",
            "start_time": "11.5",
            "end_time": "12.5"
        },
        {
            "id": "468",
            "type": "yard_movement",
            "source_block_id": "1074",
            "destination_block_id": "213",
            "crane": "0",
            "start_time": "274",
            "end_time": "281"
        },
        {
            "id": "625",
            "type": "input",
            "source_block_id": "1266",
            "destination_block_id": "157",
            "crane": "0",
            "start_time": "1.5",
            "end_time": "3.5"
        },
        {
            "id": "626",
            "type": "input",
            "source_block_id": "1323",
            "destination_block_id": "1108",
            "crane": "1",
            "start_time": "6",
            "end_time": "10"
        },
        {
            "id": "627",
            "type": "input",
            "source_block_id": "1259",
            "destination_block_id": "1136",
            "crane": "0",
            "start_time": "15.5",
            "end_time": "16.5"
        },
        {
            "id": "628",
            "type": "input",
            "source_block_id": "1307",
            "destination_block_id": "372",
            "crane": "1",
            "start_time": "17",
            "end_time": "19"
        },
        {
            "id": "629",
            "type": "input",
            "source_block_id": "1262",
            "destination_block_id": "26",
            "crane": "0",
            "start_time": "33.5",
            "end_time": "34.5"
        },
        {
            "id": "630",
            "type": "input",
            "source_block_id": "1259",
            "destination_block_id": "1142",
            "crane": "0",
            "start_time": "17.5",
            "end_time": "19.5"
        },
        {
            "id": "631",
            "type": "input",
            "source_block_id": "1300",
            "destination_block_id": "121",
            "crane": "1",
            "start_time": "22",
            "end_time": "23"
        },
        {
            "id": "632",
            "type": "input",
            "source_block_id": "1292",
            "destination_block_id": "183",
            "crane": "1",
            "start_time": "27",
            "end_time": "36"
        },
        {
            "id": "633",
            "type": "input",
            "source_block_id": "1316",
            "destination_block_id": "626",
            "crane": "0",
            "start_time": "43.5",
            "end_time": "44.5"
        },
        {
            "id": "634",
            "type": "input",
            "source_block_id": "1270",
            "destination_block_id": "198",
            "crane": "1",
            "start_time": "39",
            "end_time": "44"
        },
        {
            "id": "635",
            "type": "input",
            "source_block_id": "1258",
            "destination_block_id": "136",
            "crane": "0",
            "start_time": "36.5",
            "end_time": "38.5"
        },
        {
            "id": "636",
            "type": "input",
            "source_block_id": "1312",
            "destination_block_id": "527",
            "crane": "0",
            "start_time": "45.5",
            "end_time": "51.5"
        },
        {
            "id": "637",
            "type": "input",
            "source_block_id": "1278",
            "destination_block_id": "424",
            "crane": "1",
            "start_time": "47",
            "end_time": "51"
        },
        {
            "id": "638",
            "type": "input",
            "source_block_id": "1289",
            "destination_block_id": "1220",
            "crane": "1",
            "start_time": "60",
            "end_time": "61"
        },
        {
            "id": "639",
            "type": "input",
            "source_block_id": "1296",
            "destination_block_id": "122",
            "crane": "1",
            "start_time": "108.19999694824219",
            "end_time": "110.19999694824219"
        },
        {
            "id": "640",
            "type": "input",
            "source_block_id": "1316",
            "destination_block_id": "1001",
            "crane": "0",
            "start_time": "83.5",
            "end_time": "85.5"
        },
        {
            "id": "641",
            "type": "input",
            "source_block_id": "1268",
            "destination_block_id": "36",
            "crane": "0",
            "start_time": "71.5",
            "end_time": "72.5"
        },
        {
            "id": "518",
            "type": "output",
            "source_block_id": "632",
            "destination_block_id": "1304",
            "crane": "0",
            "start_time": "55.5",
            "end_time": "60.5"
        },
        {
            "id": "642",
            "type": "input",
            "source_block_id": "1287",
            "destination_block_id": "1206",
            "crane": "1",
            "start_time": "63",
            "end_time": "64"
        },
        {
            "id": "643",
            "type": "input",
            "source_block_id": "1308",
            "destination_block_id": "278",
            "crane": "0",
            "start_time": "62.5",
            "end_time": "68.5"
        },
        {
            "id": "644",
            "type": "input",
            "source_block_id": "1283",
            "destination_block_id": "1196",
            "crane": "1",
            "start_time": "65",
            "end_time": "66"
        },
        {
            "id": "645",
            "type": "input",
            "source_block_id": "1285",
            "destination_block_id": "573",
            "crane": "1",
            "start_time": "68",
            "end_time": "74"
        },
        {
            "id": "646",
            "type": "input",
            "source_block_id": "1312",
            "destination_block_id": "879",
            "crane": "0",
            "start_time": "150.69999694824219",
            "end_time": "154.69999694824219"
        },
        {
            "id": "647",
            "type": "input",
            "source_block_id": "1258",
            "destination_block_id": "147",
            "crane": "0",
            "start_time": "76.5",
            "end_time": "78.5"
        },
        {
            "id": "648",
            "type": "input",
            "source_block_id": "1322",
            "destination_block_id": "1125",
            "crane": "0",
            "start_time": "86.5",
            "end_time": "87.5"
        },
        {
            "id": "649",
            "type": "input",
            "source_block_id": "1257",
            "destination_block_id": "1002",
            "crane": "0",
            "start_time": "89.5",
            "end_time": "91.5"
        },
        {
            "id": "650",
            "type": "input",
            "source_block_id": "1282",
            "destination_block_id": "92",
            "crane": "1",
            "start_time": "124.19999694824219",
            "end_time": "127.19999694824219"
        },
        {
            "id": "651",
            "type": "input",
            "source_block_id": "1299",
            "destination_block_id": "623",
            "crane": "1",
            "start_time": "191",
            "end_time": "197"
        },
        {
            "id": "377",
            "type": "output",
            "source_block_id": "342",
            "destination_block_id": "1267",
            "crane": "0",
            "start_time": "282",
            "end_time": "293"
        },
        {
            "id": "652",
            "type": "input",
            "source_block_id": "1279",
            "destination_block_id": "948",
            "crane": "1",
            "start_time": "89",
            "end_time": "92"
        },
        {
            "id": "653",
            "type": "input",
            "source_block_id": "1300",
            "destination_block_id": "242",
            "crane": "1",
            "start_time": "112.19999694824219",
            "end_time": "114.19999694824219"
        },
        {
            "id": "535",
            "type": "output",
            "source_block_id": "855",
            "destination_block_id": "1294",
            "crane": "1",
            "start_time": "100.19999694824219",
            "end_time": "107.19999694824219"
        },
        {
            "id": "654",
            "type": "input",
            "source_block_id": "1259",
            "destination_block_id": "1137",
            "crane": "0",
            "start_time": "105.69999694824219",
            "end_time": "107.69999694824219"
        },
        {
            "id": "655",
            "type": "input",
            "source_block_id": "1289",
            "destination_block_id": "1207",
            "crane": "1",
            "start_time": "153",
            "end_time": "155"
        },
        {
            "id": "656",
            "type": "input",
            "source_block_id": "1286",
            "destination_block_id": "212",
            "crane": "1",
            "start_time": "120.19999694824219",
            "end_time": "122.19999694824219"
        },
        {
            "id": "657",
            "type": "input",
            "source_block_id": "1323",
            "destination_block_id": "1249",
            "crane": "1",
            "start_time": "202",
            "end_time": "206"
        },
        {
            "id": "658",
            "type": "input",
            "source_block_id": "1287",
            "destination_block_id": "1221",
            "crane": "1",
            "start_time": "150",
            "end_time": "152"
        },
        {
            "id": "659",
            "type": "input",
            "source_block_id": "1280",
            "destination_block_id": "82",
            "crane": "1",
            "start_time": "131.19999694824219",
            "end_time": "133.19999694824219"
        },
        {
            "id": "660",
            "type": "input",
            "source_block_id": "1287",
            "destination_block_id": "1082",
            "crane": "1",
            "start_time": "161",
            "end_time": "163"
        },
        {
            "id": "661",
            "type": "input",
            "source_block_id": "1310",
            "destination_block_id": "14",
            "crane": "0",
            "start_time": "142.69999694824219",
            "end_time": "146.69999694824219"
        },
        {
            "id": "662",
            "type": "input",
            "source_block_id": "1310",
            "destination_block_id": "501",
            "crane": "0",
            "start_time": "140.69999694824219",
            "end_time": "141.69999694824219"
        },
        {
            "id": "663",
            "type": "input",
            "source_block_id": "1323",
            "destination_block_id": "231",
            "crane": "1",
            "start_time": "277",
            "end_time": "285"
        },
        {
            "id": "664",
            "type": "input",
            "source_block_id": "1286",
            "destination_block_id": "222",
            "crane": "1",
            "start_time": "139",
            "end_time": "141"
        },
        {
            "id": "473",
            "type": "output",
            "source_block_id": "1241",
            "destination_block_id": "1294",
            "crane": "1",
            "start_time": "333",
            "end_time": "343"
        },
        {
            "id": "665",
            "type": "input",
            "source_block_id": "1257",
            "destination_block_id": "797",
            "crane": "0",
            "start_time": "158.69999694824219",
            "end_time": "165.69999694824219"
        },
        {
            "id": "666",
            "type": "input",
            "source_block_id": "1278",
            "destination_block_id": "1182",
            "crane": "1",
            "start_time": "231",
            "end_time": "241"
        },
        {
            "id": "667",
            "type": "input",
            "source_block_id": "1261",
            "destination_block_id": "1017",
            "crane": "0",
            "start_time": "170.69999694824219",
            "end_time": "172.69999694824219"
        },
        {
            "id": "668",
            "type": "input",
            "source_block_id": "1287",
            "destination_block_id": "1081",
            "crane": "1",
            "start_time": "157",
            "end_time": "159"
        },
        {
            "id": "669",
            "type": "input",
            "source_block_id": "1323",
            "destination_block_id": "123",
            "crane": "1",
            "start_time": "259",
            "end_time": "268"
        },
        {
            "id": "670",
            "type": "input",
            "source_block_id": "1285",
            "destination_block_id": "991",
            "crane": "1",
            "start_time": "168",
            "end_time": "175"
        },
        {
            "id": "671",
            "type": "input",
            "source_block_id": "1287",
            "destination_block_id": "1200",
            "crane": "1",
            "start_time": "165",
            "end_time": "167"
        },
        {
            "id": "672",
            "type": "input",
            "source_block_id": "1270",
            "destination_block_id": "574",
            "crane": "1",
            "start_time": "221",
            "end_time": "226"
        },
        {
            "id": "673",
            "type": "input",
            "source_block_id": "1264",
            "destination_block_id": "281",
            "crane": "0",
            "start_time": "193",
            "end_time": "196"
        },
        {
            "id": "674",
            "type": "input",
            "source_block_id": "1295",
            "destination_block_id": "1225",
            "crane": "1",
            "start_time": "178",
            "end_time": "179"
        },
        {
            "id": "675",
            "type": "input",
            "source_block_id": "1264",
            "destination_block_id": "30",
            "crane": "0",
            "start_time": "191",
            "end_time": "192"
        },
        {
            "id": "676",
            "type": "input",
            "source_block_id": "1278",
            "destination_block_id": "56",
            "crane": "1",
            "start_time": "217",
            "end_time": "219"
        },
        {
            "id": "677",
            "type": "input",
            "source_block_id": "1287",
            "destination_block_id": "863",
            "crane": "1",
            "start_time": "182",
            "end_time": "187"
        },
        {
            "id": "678",
            "type": "input",
            "source_block_id": "1259",
            "destination_block_id": "153",
            "crane": "0",
            "start_time": "179",
            "end_time": "188"
        },
        {
            "id": "679",
            "type": "input",
            "source_block_id": "1266",
            "destination_block_id": "1208",
            "crane": "0",
            "start_time": "199",
            "end_time": "209"
        },
        {
            "id": "680",
            "type": "input",
            "source_block_id": "1316",
            "destination_block_id": "930",
            "crane": "0",
            "start_time": "304",
            "end_time": "316"
        },
        {
            "id": "681",
            "type": "input",
            "source_block_id": "1256",
            "destination_block_id": "137",
            "crane": "0",
            "start_time": "233",
            "end_time": "235"
        },
        {
            "id": "682",
            "type": "input",
            "source_block_id": "1312",
            "destination_block_id": "653",
            "crane": "0",
            "start_time": "238",
            "end_time": "244"
        },
        {
            "id": "138",
            "type": "yard_movement",
            "source_block_id": "886",
            "destination_block_id": "588",
            "crane": "0",
            "start_time": "255",
            "end_time": "270"
        },
        {
            "id": "368",
            "type": "output",
            "source_block_id": "568",
            "destination_block_id": "1303",
            "crane": "1",
            "start_time": "246",
            "end_time": "258"
        },
        {
            "id": "543",
            "type": "yard_movement",
            "source_block_id": "648",
            "destination_block_id": "3",
            "crane": "0",
            "start_time": "23.5",
            "end_time": "28.5"
        },
        {
            "id": "400",
            "type": "yard_movement",
            "source_block_id": "133",
            "destination_block_id": "589",
            "crane": "0",
            "start_time": "368",
            "end_time": "384"
        },
        {
            "id": "375",
            "type": "yard_movement",
            "source_block_id": "1123",
            "destination_block_id": "1248",
            "crane": "1",
            "start_time": "2",
            "end_time": "3"
        },
        {
            "id": "456",
            "type": "yard_movement",
            "source_block_id": "1012",
            "destination_block_id": "1049",
            "crane": "0",
            "start_time": "108.69999694824219",
            "end_time": "115.69999694824219"
        },
        {
            "id": "404",
            "type": "yard_movement",
            "source_block_id": "908",
            "destination_block_id": "1039",
            "crane": "1",
            "start_time": "82",
            "end_time": "83"
        },
        {
            "id": "461",
            "type": "output",
            "source_block_id": "1073",
            "destination_block_id": "1250",
            "crane": "0",
            "start_time": "319",
            "end_time": "334"
        },
        {
            "id": "69",
            "type": "output",
            "source_block_id": "885",
            "destination_block_id": "1311",
            "crane": "1",
            "start_time": "304",
            "end_time": "327"
        },
        {
            "id": "505",
            "type": "yard_movement",
            "source_block_id": "647",
            "destination_block_id": "279",
            "crane": "0",
            "start_time": "120.69999694824219",
            "end_time": "123.69999694824219"
        },
        {
            "id": "374",
            "type": "yard_movement",
            "source_block_id": "132",
            "destination_block_id": "138",
            "crane": "0",
            "start_time": "400",
            "end_time": "401"
        },
        {
            "id": "317",
            "type": "yard_movement",
            "source_block_id": "1122",
            "destination_block_id": "174",
            "crane": "1",
            "start_time": "352",
            "end_time": "367"
        },
        {
            "id": "160",
            "type": "output",
            "source_block_id": "1011",
            "destination_block_id": "1254",
            "crane": "0",
            "start_time": "223",
            "end_time": "232"
        },
        {
            "id": "345",
            "type": "yard_movement",
            "source_block_id": "907",
            "destination_block_id": "776",
            "crane": "0",
            "start_time": "118.69999694824219",
            "end_time": "119.69999694824219"
        },
        {
            "id": "431",
            "type": "yard_movement",
            "source_block_id": "646",
            "destination_block_id": "652",
            "crane": "0",
            "start_time": "126.69999694824219",
            "end_time": "127.69999694824219"
        },
        {
            "id": "231",
            "type": "yard_movement",
            "source_block_id": "131",
            "destination_block_id": "624",
            "crane": "0",
            "start_time": "403",
            "end_time": "426"
        },
        {
            "id": "232",
            "type": "yard_movement",
            "source_block_id": "1121",
            "destination_block_id": "124",
            "crane": "1",
            "start_time": "382",
            "end_time": "390"
        },
        {
            "id": "316",
            "type": "yard_movement",
            "source_block_id": "906",
            "destination_block_id": "632",
            "crane": "0",
            "start_time": "246",
            "end_time": "251"
        },
        {
            "id": "402",
            "type": "output",
            "source_block_id": "645",
            "destination_block_id": "1260",
            "crane": "0",
            "start_time": "129.69999694824219",
            "end_time": "135.69999694824219"
        },
        {
            "id": "156",
            "type": "output",
            "source_block_id": "130",
            "destination_block_id": "1294",
            "crane": "0",
            "start_time": "449",
            "end_time": "469"
        },
        {
            "id": "133",
            "type": "output",
            "source_block_id": "1120",
            "destination_block_id": "1290",
            "crane": "1",
            "start_time": "398",
            "end_time": "407"
        },
        {
            "id": "142",
            "type": "output",
            "source_block_id": "905",
            "destination_block_id": "1318",
            "crane": "0",
            "start_time": "296",
            "end_time": "303"
        }
    ]
}
