{
    "objective": "209.68774954508646",
    "BAP cost": "98",
    "CSP cost": "321.37549909017287",
    "products": [
        {
            "id": "1983",
            "type": "yard_movement",
            "source_block_id": "2417",
            "destination_block_id": "11",
            "crane": "0",
            "start_time": "56.5",
            "end_time": "72.5"
        },
        {
            "id": "2100",
            "type": "input",
            "source_block_id": "3139",
            "destination_block_id": "1465",
            "crane": "1",
            "start_time": "42.099999904632568",
            "end_time": "54.099999904632568"
        },
        {
            "id": "2101",
            "type": "input",
            "source_block_id": "3134",
            "destination_block_id": "1466",
            "crane": "0",
            "start_time": "136.09999990463257",
            "end_time": "175.09999990463257"
        },
        {
            "id": "2102",
            "type": "input",
            "source_block_id": "3034",
            "destination_block_id": "2249",
            "crane": "1",
            "start_time": "6.0999999046325684",
            "end_time": "39.099999904632568"
        },
        {
            "id": "2103",
            "type": "input",
            "source_block_id": "3134",
            "destination_block_id": "1502",
            "crane": "0",
            "start_time": "9.6999998092651367",
            "end_time": "14.699999809265137"
        },
        {
            "id": "2104",
            "type": "input",
            "source_block_id": "3078",
            "destination_block_id": "1724",
            "crane": "0",
            "start_time": "185.09999990463257",
            "end_time": "199.09999990463257"
        },
        {
            "id": "2105",
            "type": "input",
            "source_block_id": "3099",
            "destination_block_id": "1400",
            "crane": "1",
            "start_time": "93.099999904632568",
            "end_time": "125.09999990463257"
        },
        {
            "id": "2106",
            "type": "input",
            "source_block_id": "3005",
            "destination_block_id": "1358",
            "crane": "0",
            "start_time": "38.5",
            "end_time": "49.5"
        },
        {
            "id": "2107",
            "type": "input",
            "source_block_id": "3116",
            "destination_block_id": "1354",
            "crane": "0",
            "start_time": "24.5",
            "end_time": "27.5"
        },
        {
            "id": "2108",
            "type": "input",
            "source_block_id": "3105",
            "destination_block_id": "278",
            "crane": "1",
            "start_time": "66.099999904632568",
            "end_time": "74.099999904632568"
        },
        {
            "id": "272",
            "type": "yard_movement",
            "source_block_id": "2416",
            "destination_block_id": "53",
            "crane": "0",
            "start_time": "88.5",
            "end_time": "104.5"
        },
        {
            "id": "57",
            "type": "output",
            "source_block_id": "2415",
            "destination_block_id": "3080",
            "crane": "1",
            "start_time": "136.09999990463257",
            "end_time": "170.09999990463257"
        }
    ]
}
