{
    "objective": "199.41801966725515",
    "BAP cost": "44",
    "CSP cost": "354.8360393345103",
    "products": [
        {
            "id": "3094",
            "type": "yard_movement",
            "source_block_id": "3633",
            "destination_block_id": "1554",
            "crane": "0",
            "start_time": "0",
            "end_time": "16"
        },
        {
            "id": "3500",
            "type": "input",
            "source_block_id": "5089",
            "destination_block_id": "3419",
            "crane": "1",
            "start_time": "1.5",
            "end_time": "11.5"
        },
        {
            "id": "3501",
            "type": "input",
            "source_block_id": "5089",
            "destination_block_id": "379",
            "crane": "0",
            "start_time": "157.5",
            "end_time": "176.5"
        },
        {
            "id": "3502",
            "type": "input",
            "source_block_id": "5138",
            "destination_block_id": "4869",
            "crane": "0",
            "start_time": "113.5",
            "end_time": "137.5"
        },
        {
            "id": "3503",
            "type": "input",
            "source_block_id": "5122",
            "destination_block_id": "159",
            "crane": "1",
            "start_time": "110.5",
            "end_time": "142.5"
        },
        {
            "id": "3504",
            "type": "input",
            "source_block_id": "5032",
            "destination_block_id": "2534",
            "crane": "0",
            "start_time": "186.5",
            "end_time": "197.5"
        },
        {
            "id": "3505",
            "type": "input",
            "source_block_id": "5049",
            "destination_block_id": "2604",
            "crane": "1",
            "start_time": "21.5",
            "end_time": "31.5"
        },
        {
            "id": "3506",
            "type": "input",
            "source_block_id": "5114",
            "destination_block_id": "4019",
            "crane": "0",
            "start_time": "27",
            "end_time": "38"
        },
        {
            "id": "3507",
            "type": "input",
            "source_block_id": "5136",
            "destination_block_id": "404",
            "crane": "0",
            "start_time": "42",
            "end_time": "73"
        },
        {
            "id": "3508",
            "type": "input",
            "source_block_id": "5094",
            "destination_block_id": "1129",
            "crane": "1",
            "start_time": "63.5",
            "end_time": "84.5"
        },
        {
            "id": "3056",
            "type": "output",
            "source_block_id": "3632",
            "destination_block_id": "5100",
            "crane": "1",
            "start_time": "37.5",
            "end_time": "60.5"
        }
    ]
}
