{
    "objective": "215.90713348232475",
    "BAP cost": "26",
    "CSP cost": "405.81426696464951",
    "products": [
        {
            "id": "1255",
            "type": "yard_movement",
            "source_block_id": "2534",
            "destination_block_id": "1638",
            "crane": "0",
            "start_time": "118.5",
            "end_time": "123.5"
        },
        {
            "id": "1312",
            "type": "input",
            "source_block_id": "2683",
            "destination_block_id": "2079",
            "crane": "1",
            "start_time": "1.5",
            "end_time": "13.5"
        },
        {
            "id": "1313",
            "type": "input",
            "source_block_id": "2714",
            "destination_block_id": "1448",
            "crane": "1",
            "start_time": "68.5",
            "end_time": "94.5"
        },
        {
            "id": "1314",
            "type": "input",
            "source_block_id": "2713",
            "destination_block_id": "2479",
            "crane": "0",
            "start_time": "6.0999999046325684",
            "end_time": "13.099999904632568"
        },
        {
            "id": "1315",
            "type": "input",
            "source_block_id": "2714",
            "destination_block_id": "2036",
            "crane": "1",
            "start_time": "18.5",
            "end_time": "31.5"
        },
        {
            "id": "1316",
            "type": "input",
            "source_block_id": "2675",
            "destination_block_id": "1858",
            "crane": "1",
            "start_time": "43.5",
            "end_time": "54.5"
        },
        {
            "id": "1317",
            "type": "input",
            "source_block_id": "2662",
            "destination_block_id": "1122",
            "crane": "0",
            "start_time": "37.099999904632568",
            "end_time": "46.099999904632568"
        },
        {
            "id": "1318",
            "type": "input",
            "source_block_id": "2658",
            "destination_block_id": "1624",
            "crane": "0",
            "start_time": "23.099999904632568",
            "end_time": "29.099999904632568"
        },
        {
            "id": "1319",
            "type": "input",
            "source_block_id": "2632",
            "destination_block_id": "2248",
            "crane": "1",
            "start_time": "101.5",
            "end_time": "128.5"
        },
        {
            "id": "1320",
            "type": "input",
            "source_block_id": "2660",
            "destination_block_id": "237",
            "crane": "0",
            "start_time": "55.099999904632568",
            "end_time": "69.099999904632568"
        },
        {
            "id": "1151",
            "type": "yard_movement",
            "source_block_id": "2533",
            "destination_block_id": "1123",
            "crane": "0",
            "start_time": "128.5",
            "end_time": "136.5"
        },
        {
            "id": "105",
            "type": "yard_movement",
            "source_block_id": "2532",
            "destination_block_id": "1124",
            "crane": "1",
            "start_time": "141.5",
            "end_time": "149.5"
        },
        {
            "id": "94",
            "type": "output",
            "source_block_id": "2531",
            "destination_block_id": "2665",
            "crane": "0",
            "start_time": "154.5",
            "end_time": "169.5"
        }
    ]
}
