{
    "objective": "93.454452524083663",
    "BAP cost": "1",
    "CSP cost": "185.9089050481673",
    "products": [
        {
            "id": "66",
            "type": "yard_movement",
            "source_block_id": "718",
            "destination_block_id": "1017",
            "crane": "1",
            "start_time": "0",
            "end_time": "5"
        },
        {
            "id": "472",
            "type": "input",
            "source_block_id": "1653",
            "destination_block_id": "633",
            "crane": "0",
            "start_time": "1.5",
            "end_time": "5.5"
        },
        {
            "id": "473",
            "type": "input",
            "source_block_id": "1589",
            "destination_block_id": "25",
            "crane": "0",
            "start_time": "23.5",
            "end_time": "25.5"
        },
        {
            "id": "474",
            "type": "input",
            "source_block_id": "1663",
            "destination_block_id": "552",
            "crane": "0",
            "start_time": "7.5",
            "end_time": "17.5"
        },
        {
            "id": "475",
            "type": "input",
            "source_block_id": "1678",
            "destination_block_id": "1572",
            "crane": "1",
            "start_time": "16",
            "end_time": "17"
        },
        {
            "id": "476",
            "type": "input",
            "source_block_id": "1611",
            "destination_block_id": "57",
            "crane": "0",
            "start_time": "67",
            "end_time": "69"
        },
        {
            "id": "477",
            "type": "input",
            "source_block_id": "1637",
            "destination_block_id": "366",
            "crane": "1",
            "start_time": "50",
            "end_time": "63"
        },
        {
            "id": "478",
            "type": "input",
            "source_block_id": "1633",
            "destination_block_id": "683",
            "crane": "0",
            "start_time": "49",
            "end_time": "60"
        },
        {
            "id": "479",
            "type": "input",
            "source_block_id": "1632",
            "destination_block_id": "556",
            "crane": "1",
            "start_time": "75",
            "end_time": "92"
        },
        {
            "id": "480",
            "type": "input",
            "source_block_id": "1591",
            "destination_block_id": "899",
            "crane": "0",
            "start_time": "28",
            "end_time": "40"
        },
        {
            "id": "10",
            "type": "output",
            "source_block_id": "717",
            "destination_block_id": "1628",
            "crane": "1",
            "start_time": "25",
            "end_time": "34"
        }
    ]
}
