{
    "objective": "177.7874628113164",
    "BAP cost": "83",
    "CSP cost": "272.5749256226328",
    "products": [
        {
            "id": "875",
            "type": "input",
            "source_block_id": "1295",
            "destination_block_id": "668",
            "crane": "0",
            "start_time": "1.5",
            "end_time": "14.5"
        },
        {
            "id": "876",
            "type": "input",
            "source_block_id": "1264",
            "destination_block_id": "669",
            "crane": "0",
            "start_time": "20.5",
            "end_time": "26.5"
        },
        {
            "id": "877",
            "type": "input",
            "source_block_id": "1278",
            "destination_block_id": "839",
            "crane": "1",
            "start_time": "29.699999809265137",
            "end_time": "36.699999809265137"
        },
        {
            "id": "878",
            "type": "input",
            "source_block_id": "1299",
            "destination_block_id": "589",
            "crane": "1",
            "start_time": "9.6999998092651367",
            "end_time": "15.699999809265137"
        },
        {
            "id": "879",
            "type": "input",
            "source_block_id": "1296",
            "destination_block_id": "89",
            "crane": "1",
            "start_time": "20.699999809265137",
            "end_time": "25.699999809265137"
        },
        {
            "id": "880",
            "type": "input",
            "source_block_id": "1268",
            "destination_block_id": "121",
            "crane": "1",
            "start_time": "45.699999809265137",
            "end_time": "61.699999809265137"
        },
        {
            "id": "881",
            "type": "input",
            "source_block_id": "1312",
            "destination_block_id": "183",
            "crane": "0",
            "start_time": "50.699999809265137",
            "end_time": "62.699999809265137"
        },
        {
            "id": "710",
            "type": "output",
            "source_block_id": "954",
            "destination_block_id": "1265",
            "crane": "0",
            "start_time": "34.699999809265137",
            "end_time": "43.699999809265137"
        },
        {
            "id": "882",
            "type": "input",
            "source_block_id": "1307",
            "destination_block_id": "184",
            "crane": "1",
            "start_time": "62.699999809265137",
            "end_time": "76.699999809265137"
        },
        {
            "id": "883",
            "type": "input",
            "source_block_id": "1255",
            "destination_block_id": "1084",
            "crane": "0",
            "start_time": "72.699999809265137",
            "end_time": "87.699999809265137"
        }
    ]
}
