{
    "objective": "203.83746347888842",
    "BAP cost": "66",
    "CSP cost": "341.67492695777685",
    "products": [
        {
            "id": "596",
            "type": "yard_movement",
            "source_block_id": "887",
            "destination_block_id": "278",
            "crane": "0",
            "start_time": "1.5",
            "end_time": "6.5"
        },
        {
            "id": "625",
            "type": "input",
            "source_block_id": "1266",
            "destination_block_id": "424",
            "crane": "1",
            "start_time": "1.5",
            "end_time": "5.5"
        },
        {
            "id": "626",
            "type": "input",
            "source_block_id": "1323",
            "destination_block_id": "14",
            "crane": "1",
            "start_time": "65",
            "end_time": "88"
        },
        {
            "id": "627",
            "type": "input",
            "source_block_id": "1259",
            "destination_block_id": "183",
            "crane": "1",
            "start_time": "12.5",
            "end_time": "21.5"
        },
        {
            "id": "628",
            "type": "input",
            "source_block_id": "1307",
            "destination_block_id": "3",
            "crane": "0",
            "start_time": "62",
            "end_time": "87"
        },
        {
            "id": "629",
            "type": "input",
            "source_block_id": "1262",
            "destination_block_id": "1049",
            "crane": "0",
            "start_time": "37",
            "end_time": "46"
        },
        {
            "id": "630",
            "type": "input",
            "source_block_id": "1259",
            "destination_block_id": "263",
            "crane": "0",
            "start_time": "15.699999809265137",
            "end_time": "23.699999809265137"
        },
        {
            "id": "631",
            "type": "input",
            "source_block_id": "1300",
            "destination_block_id": "108",
            "crane": "1",
            "start_time": "34.5",
            "end_time": "37.5"
        },
        {
            "id": "632",
            "type": "input",
            "source_block_id": "1292",
            "destination_block_id": "953",
            "crane": "1",
            "start_time": "40.5",
            "end_time": "48.5"
        },
        {
            "id": "633",
            "type": "input",
            "source_block_id": "1316",
            "destination_block_id": "509",
            "crane": "0",
            "start_time": "28",
            "end_time": "32"
        },
        {
            "id": "138",
            "type": "yard_movement",
            "source_block_id": "886",
            "destination_block_id": "174",
            "crane": "0",
            "start_time": "94",
            "end_time": "101"
        },
        {
            "id": "69",
            "type": "output",
            "source_block_id": "885",
            "destination_block_id": "1311",
            "crane": "0",
            "start_time": "108",
            "end_time": "131"
        }
    ]
}
