{
    "objective": "440.45801681462751",
    "BAP cost": "30",
    "CSP cost": "850.91603362925491",
    "products": [
        {
            "id": "913",
            "type": "yard_movement",
            "source_block_id": "213",
            "destination_block_id": "2397",
            "crane": "1",
            "start_time": "222.20000076293945",
            "end_time": "235.20000076293945"
        },
        {
            "id": "1500",
            "type": "input",
            "source_block_id": "5140",
            "destination_block_id": "1773",
            "crane": "0",
            "start_time": "61.099999904632568",
            "end_time": "72.099999904632568"
        },
        {
            "id": "1501",
            "type": "input",
            "source_block_id": "5095",
            "destination_block_id": "4482",
            "crane": "1",
            "start_time": "74.200000762939453",
            "end_time": "77.200000762939453"
        },
        {
            "id": "1502",
            "type": "input",
            "source_block_id": "5066",
            "destination_block_id": "557",
            "crane": "0",
            "start_time": "6.0999999046325684",
            "end_time": "27.099999904632568"
        },
        {
            "id": "1503",
            "type": "input",
            "source_block_id": "5090",
            "destination_block_id": "3377",
            "crane": "1",
            "start_time": "9.6999998092651367",
            "end_time": "28.699999809265137"
        },
        {
            "id": "1504",
            "type": "input",
            "source_block_id": "5030",
            "destination_block_id": "333",
            "crane": "0",
            "start_time": "297.20000076293945",
            "end_time": "300.20000076293945"
        },
        {
            "id": "1505",
            "type": "input",
            "source_block_id": "5042",
            "destination_block_id": "2321",
            "crane": "0",
            "start_time": "36.099999904632568",
            "end_time": "46.099999904632568"
        },
        {
            "id": "1506",
            "type": "input",
            "source_block_id": "5094",
            "destination_block_id": "512",
            "crane": "1",
            "start_time": "138.20000076293945",
            "end_time": "182.20000076293945"
        },
        {
            "id": "1195",
            "type": "output",
            "source_block_id": "1187",
            "destination_block_id": "5003",
            "crane": "0",
            "start_time": "135.09999990463257",
            "end_time": "172.09999990463257"
        },
        {
            "id": "1507",
            "type": "input",
            "source_block_id": "5103",
            "destination_block_id": "4651",
            "crane": "1",
            "start_time": "81.200000762939453",
            "end_time": "101.20000076293945"
        },
        {
            "id": "1508",
            "type": "input",
            "source_block_id": "5128",
            "destination_block_id": "1262",
            "crane": "0",
            "start_time": "77.099999904632568",
            "end_time": "84.099999904632568"
        },
        {
            "id": "1509",
            "type": "input",
            "source_block_id": "5005",
            "destination_block_id": "3562",
            "crane": "0",
            "start_time": "184.20000076293945",
            "end_time": "195.20000076293945"
        },
        {
            "id": "1510",
            "type": "input",
            "source_block_id": "5005",
            "destination_block_id": "4337",
            "crane": "0",
            "start_time": "99.099999904632568",
            "end_time": "115.09999990463257"
        },
        {
            "id": "1511",
            "type": "input",
            "source_block_id": "5057",
            "destination_block_id": "4138",
            "crane": "1",
            "start_time": "51.200000762939453",
            "end_time": "55.200000762939453"
        },
        {
            "id": "1512",
            "type": "input",
            "source_block_id": "5050",
            "destination_block_id": "2123",
            "crane": "0",
            "start_time": "210.20000076293945",
            "end_time": "219.20000076293945"
        },
        {
            "id": "1513",
            "type": "input",
            "source_block_id": "5039",
            "destination_block_id": "4105",
            "crane": "1",
            "start_time": "41.200000762939453",
            "end_time": "45.200000762939453"
        },
        {
            "id": "1514",
            "type": "input",
            "source_block_id": "5060",
            "destination_block_id": "1351",
            "crane": "0",
            "start_time": "238.20000076293945",
            "end_time": "247.20000076293945"
        },
        {
            "id": "1515",
            "type": "input",
            "source_block_id": "5078",
            "destination_block_id": "1214",
            "crane": "1",
            "start_time": "128.20000076293945",
            "end_time": "133.20000076293945"
        },
        {
            "id": "1516",
            "type": "input",
            "source_block_id": "5075",
            "destination_block_id": "3398",
            "crane": "1",
            "start_time": "107.20000076293945",
            "end_time": "114.20000076293945"
        },
        {
            "id": "1517",
            "type": "input",
            "source_block_id": "5030",
            "destination_block_id": "314",
            "crane": "0",
            "start_time": "303.20000076293945",
            "end_time": "307.20000076293945"
        },
        {
            "id": "786",
            "type": "output",
            "source_block_id": "212",
            "destination_block_id": "5013",
            "crane": "1",
            "start_time": "248.20000076293945",
            "end_time": "285.20000076293945"
        }
    ]
}
