{
    "objective": "420.7012831048749",
    "BAP cost": "15",
    "CSP cost": "826.40256620974969",
    "products": [
        {
            "id": "66",
            "type": "yard_movement",
            "source_block_id": "718",
            "destination_block_id": "915",
            "crane": "1",
            "start_time": "0",
            "end_time": "4"
        },
        {
            "id": "472",
            "type": "input",
            "source_block_id": "1653",
            "destination_block_id": "633",
            "crane": "0",
            "start_time": "1.5",
            "end_time": "5.5"
        },
        {
            "id": "473",
            "type": "input",
            "source_block_id": "1589",
            "destination_block_id": "25",
            "crane": "0",
            "start_time": "23.5",
            "end_time": "25.5"
        },
        {
            "id": "474",
            "type": "input",
            "source_block_id": "1663",
            "destination_block_id": "552",
            "crane": "0",
            "start_time": "7.5",
            "end_time": "17.5"
        },
        {
            "id": "475",
            "type": "input",
            "source_block_id": "1678",
            "destination_block_id": "1572",
            "crane": "1",
            "start_time": "14",
            "end_time": "15"
        },
        {
            "id": "476",
            "type": "input",
            "source_block_id": "1611",
            "destination_block_id": "57",
            "crane": "1",
            "start_time": "51",
            "end_time": "53"
        },
        {
            "id": "477",
            "type": "input",
            "source_block_id": "1637",
            "destination_block_id": "1017",
            "crane": "1",
            "start_time": "67",
            "end_time": "77"
        },
        {
            "id": "478",
            "type": "input",
            "source_block_id": "1633",
            "destination_block_id": "366",
            "crane": "1",
            "start_time": "87",
            "end_time": "98"
        },
        {
            "id": "479",
            "type": "input",
            "source_block_id": "1632",
            "destination_block_id": "683",
            "crane": "1",
            "start_time": "34",
            "end_time": "44"
        },
        {
            "id": "480",
            "type": "input",
            "source_block_id": "1591",
            "destination_block_id": "556",
            "crane": "0",
            "start_time": "28",
            "end_time": "34"
        },
        {
            "id": "481",
            "type": "input",
            "source_block_id": "1617",
            "destination_block_id": "404",
            "crane": "1",
            "start_time": "54",
            "end_time": "63"
        },
        {
            "id": "482",
            "type": "input",
            "source_block_id": "1584",
            "destination_block_id": "899",
            "crane": "0",
            "start_time": "74.799999237060547",
            "end_time": "90.799999237060547"
        },
        {
            "id": "483",
            "type": "input",
            "source_block_id": "1650",
            "destination_block_id": "1344",
            "crane": "1",
            "start_time": "131",
            "end_time": "143"
        },
        {
            "id": "484",
            "type": "input",
            "source_block_id": "1605",
            "destination_block_id": "1534",
            "crane": "1",
            "start_time": "102",
            "end_time": "117"
        },
        {
            "id": "485",
            "type": "input",
            "source_block_id": "1653",
            "destination_block_id": "1536",
            "crane": "1",
            "start_time": "172",
            "end_time": "195"
        },
        {
            "id": "486",
            "type": "input",
            "source_block_id": "1589",
            "destination_block_id": "1331",
            "crane": "0",
            "start_time": "103.79999923706055",
            "end_time": "120.79999923706055"
        },
        {
            "id": "487",
            "type": "input",
            "source_block_id": "1649",
            "destination_block_id": "522",
            "crane": "0",
            "start_time": "175",
            "end_time": "210"
        },
        {
            "id": "488",
            "type": "input",
            "source_block_id": "1586",
            "destination_block_id": "1175",
            "crane": "0",
            "start_time": "49.799999237060547",
            "end_time": "53.799999237060547"
        },
        {
            "id": "352",
            "type": "output",
            "source_block_id": "810",
            "destination_block_id": "1585",
            "crane": "0",
            "start_time": "125.79999923706055",
            "end_time": "146.79999923706055"
        },
        {
            "id": "489",
            "type": "input",
            "source_block_id": "1582",
            "destination_block_id": "769",
            "crane": "0",
            "start_time": "57.799999237060547",
            "end_time": "66.799999237060547"
        },
        {
            "id": "10",
            "type": "output",
            "source_block_id": "717",
            "destination_block_id": "1628",
            "crane": "1",
            "start_time": "23",
            "end_time": "32"
        }
    ]
}
