{
    "objective": "699.68413247604951",
    "BAP cost": "12",
    "CSP cost": "1387.3682649520988",
    "products": [
        {
            "id": "487",
            "type": "yard_movement",
            "source_block_id": "2488",
            "destination_block_id": "342",
            "crane": "0",
            "start_time": "0",
            "end_time": "15"
        },
        {
            "id": "900",
            "type": "input",
            "source_block_id": "3046",
            "destination_block_id": "2151",
            "crane": "1",
            "start_time": "28.399999618530273",
            "end_time": "43.399999618530273"
        },
        {
            "id": "901",
            "type": "input",
            "source_block_id": "3005",
            "destination_block_id": "762",
            "crane": "0",
            "start_time": "96",
            "end_time": "111"
        },
        {
            "id": "902",
            "type": "input",
            "source_block_id": "3050",
            "destination_block_id": "69",
            "crane": "1",
            "start_time": "8",
            "end_time": "9"
        },
        {
            "id": "903",
            "type": "input",
            "source_block_id": "3110",
            "destination_block_id": "300",
            "crane": "0",
            "start_time": "30",
            "end_time": "31"
        },
        {
            "id": "904",
            "type": "input",
            "source_block_id": "3136",
            "destination_block_id": "67",
            "crane": "0",
            "start_time": "363.39999961853027",
            "end_time": "386.39999961853027"
        },
        {
            "id": "905",
            "type": "input",
            "source_block_id": "3020",
            "destination_block_id": "608",
            "crane": "0",
            "start_time": "20",
            "end_time": "27"
        },
        {
            "id": "906",
            "type": "input",
            "source_block_id": "3066",
            "destination_block_id": "87",
            "crane": "1",
            "start_time": "18.399999618530273",
            "end_time": "21.399999618530273"
        },
        {
            "id": "849",
            "type": "output",
            "source_block_id": "2679",
            "destination_block_id": "3061",
            "crane": "0",
            "start_time": "170.39999961853027",
            "end_time": "184.39999961853027"
        },
        {
            "id": "907",
            "type": "input",
            "source_block_id": "3134",
            "destination_block_id": "159",
            "crane": "0",
            "start_time": "44",
            "end_time": "58"
        },
        {
            "id": "908",
            "type": "input",
            "source_block_id": "3090",
            "destination_block_id": "2187",
            "crane": "1",
            "start_time": "103.39999961853027",
            "end_time": "118.39999961853027"
        },
        {
            "id": "909",
            "type": "input",
            "source_block_id": "3042",
            "destination_block_id": "2851",
            "crane": "0",
            "start_time": "340.39999961853027",
            "end_time": "360.39999961853027"
        },
        {
            "id": "910",
            "type": "input",
            "source_block_id": "3042",
            "destination_block_id": "2071",
            "crane": "0",
            "start_time": "146.39999961853027",
            "end_time": "166.39999961853027"
        },
        {
            "id": "911",
            "type": "input",
            "source_block_id": "3074",
            "destination_block_id": "453",
            "crane": "0",
            "start_time": "273.39999961853027",
            "end_time": "308.39999961853027"
        },
        {
            "id": "912",
            "type": "input",
            "source_block_id": "3133",
            "destination_block_id": "2457",
            "crane": "1",
            "start_time": "173.39999961853027",
            "end_time": "204.39999961853027"
        },
        {
            "id": "913",
            "type": "input",
            "source_block_id": "3033",
            "destination_block_id": "2959",
            "crane": "1",
            "start_time": "49.399999618530273",
            "end_time": "70.399999618530273"
        },
        {
            "id": "914",
            "type": "input",
            "source_block_id": "3029",
            "destination_block_id": "0",
            "crane": "0",
            "start_time": "200.39999961853027",
            "end_time": "220.39999961853027"
        },
        {
            "id": "915",
            "type": "input",
            "source_block_id": "3012",
            "destination_block_id": "1531",
            "crane": "0",
            "start_time": "60",
            "end_time": "71"
        },
        {
            "id": "916",
            "type": "input",
            "source_block_id": "3132",
            "destination_block_id": "1532",
            "crane": "0",
            "start_time": "120",
            "end_time": "131"
        },
        {
            "id": "137",
            "type": "output",
            "source_block_id": "2106",
            "destination_block_id": "3023",
            "crane": "0",
            "start_time": "79",
            "end_time": "87"
        },
        {
            "id": "917",
            "type": "input",
            "source_block_id": "3094",
            "destination_block_id": "2633",
            "crane": "1",
            "start_time": "363.39999961853027",
            "end_time": "382.39999961853027"
        },
        {
            "id": "918",
            "type": "input",
            "source_block_id": "3099",
            "destination_block_id": "6",
            "crane": "1",
            "start_time": "273.39999961853027",
            "end_time": "319.39999961853027"
        },
        {
            "id": "919",
            "type": "input",
            "source_block_id": "3042",
            "destination_block_id": "1586",
            "crane": "0",
            "start_time": "438.39999961853027",
            "end_time": "449.39999961853027"
        },
        {
            "id": "920",
            "type": "input",
            "source_block_id": "3030",
            "destination_block_id": "2310",
            "crane": "1",
            "start_time": "466.39999961853027",
            "end_time": "482.39999961853027"
        },
        {
            "id": "921",
            "type": "input",
            "source_block_id": "3046",
            "destination_block_id": "2393",
            "crane": "1",
            "start_time": "145.39999961853027",
            "end_time": "170.39999961853027"
        },
        {
            "id": "922",
            "type": "input",
            "source_block_id": "3077",
            "destination_block_id": "2051",
            "crane": "1",
            "start_time": "71.399999618530273",
            "end_time": "78.399999618530273"
        },
        {
            "id": "923",
            "type": "input",
            "source_block_id": "3097",
            "destination_block_id": "828",
            "crane": "0",
            "start_time": "411.39999961853027",
            "end_time": "432.39999961853027"
        },
        {
            "id": "924",
            "type": "input",
            "source_block_id": "3049",
            "destination_block_id": "1270",
            "crane": "1",
            "start_time": "124.39999961853027",
            "end_time": "136.39999961853027"
        },
        {
            "id": "925",
            "type": "input",
            "source_block_id": "3132",
            "destination_block_id": "2649",
            "crane": "1",
            "start_time": "224.39999961853027",
            "end_time": "258.39999961853027"
        },
        {
            "id": "926",
            "type": "input",
            "source_block_id": "3008",
            "destination_block_id": "2043",
            "crane": "0",
            "start_time": "231.39999961853027",
            "end_time": "259.39999961853027"
        },
        {
            "id": "10",
            "type": "output",
            "source_block_id": "2487",
            "destination_block_id": "3096",
            "crane": "1",
            "start_time": "82.399999618530273",
            "end_time": "100.39999961853027"
        }
    ]
}
