{
    "objective": "1110.4781983638302",
    "BAP cost": "92",
    "CSP cost": "2128.9563967276599",
    "products": [
        {
            "id": "635",
            "type": "yard_movement",
            "source_block_id": "601",
            "destination_block_id": "1131",
            "crane": "1",
            "start_time": "269.5",
            "end_time": "272.5"
        },
        {
            "id": "787",
            "type": "input",
            "source_block_id": "2719",
            "destination_block_id": "116",
            "crane": "0",
            "start_time": "112.5",
            "end_time": "136.5"
        },
        {
            "id": "788",
            "type": "input",
            "source_block_id": "2723",
            "destination_block_id": "1518",
            "crane": "0",
            "start_time": "282.5",
            "end_time": "306.5"
        },
        {
            "id": "789",
            "type": "input",
            "source_block_id": "2727",
            "destination_block_id": "237",
            "crane": "0",
            "start_time": "6.0999999046325684",
            "end_time": "19.099999904632568"
        },
        {
            "id": "790",
            "type": "input",
            "source_block_id": "2637",
            "destination_block_id": "1122",
            "crane": "0",
            "start_time": "33.5",
            "end_time": "42.5"
        },
        {
            "id": "791",
            "type": "input",
            "source_block_id": "2720",
            "destination_block_id": "2079",
            "crane": "1",
            "start_time": "12.600000381469727",
            "end_time": "17.600000381469727"
        },
        {
            "id": "792",
            "type": "input",
            "source_block_id": "2728",
            "destination_block_id": "1893",
            "crane": "1",
            "start_time": "22.600000381469727",
            "end_time": "29.600000381469727"
        },
        {
            "id": "793",
            "type": "input",
            "source_block_id": "2728",
            "destination_block_id": "1003",
            "crane": "1",
            "start_time": "48.099998474121094",
            "end_time": "58.099998474121094"
        },
        {
            "id": "499",
            "type": "output",
            "source_block_id": "1945",
            "destination_block_id": "2673",
            "crane": "1",
            "start_time": "211.5",
            "end_time": "230.5"
        },
        {
            "id": "794",
            "type": "input",
            "source_block_id": "2655",
            "destination_block_id": "217",
            "crane": "0",
            "start_time": "24.5",
            "end_time": "30.5"
        },
        {
            "id": "795",
            "type": "input",
            "source_block_id": "2639",
            "destination_block_id": "2206",
            "crane": "0",
            "start_time": "165.5",
            "end_time": "180.5"
        },
        {
            "id": "796",
            "type": "input",
            "source_block_id": "2653",
            "destination_block_id": "812",
            "crane": "1",
            "start_time": "105.09999847412109",
            "end_time": "114.09999847412109"
        },
        {
            "id": "797",
            "type": "input",
            "source_block_id": "2702",
            "destination_block_id": "687",
            "crane": "1",
            "start_time": "74.099998474121094",
            "end_time": "77.099998474121094"
        },
        {
            "id": "798",
            "type": "input",
            "source_block_id": "2674",
            "destination_block_id": "2446",
            "crane": "1",
            "start_time": "36.099998474121094",
            "end_time": "47.099998474121094"
        },
        {
            "id": "799",
            "type": "input",
            "source_block_id": "2691",
            "destination_block_id": "504",
            "crane": "1",
            "start_time": "65.099998474121094",
            "end_time": "69.099998474121094"
        },
        {
            "id": "800",
            "type": "input",
            "source_block_id": "2631",
            "destination_block_id": "2328",
            "crane": "0",
            "start_time": "54.5",
            "end_time": "68.5"
        },
        {
            "id": "801",
            "type": "input",
            "source_block_id": "2630",
            "destination_block_id": "2451",
            "crane": "0",
            "start_time": "84.5",
            "end_time": "85.5"
        },
        {
            "id": "802",
            "type": "input",
            "source_block_id": "2698",
            "destination_block_id": "2492",
            "crane": "0",
            "start_time": "246.5",
            "end_time": "273.5"
        },
        {
            "id": "803",
            "type": "input",
            "source_block_id": "2667",
            "destination_block_id": "1",
            "crane": "0",
            "start_time": "139.5",
            "end_time": "159.5"
        },
        {
            "id": "684",
            "type": "output",
            "source_block_id": "1550",
            "destination_block_id": "2640",
            "crane": "1",
            "start_time": "183.5",
            "end_time": "207.5"
        },
        {
            "id": "804",
            "type": "input",
            "source_block_id": "2670",
            "destination_block_id": "751",
            "crane": "1",
            "start_time": "89.099998474121094",
            "end_time": "100.09999847412109"
        },
        {
            "id": "805",
            "type": "input",
            "source_block_id": "2654",
            "destination_block_id": "2316",
            "crane": "0",
            "start_time": "71.5",
            "end_time": "76.5"
        },
        {
            "id": "806",
            "type": "input",
            "source_block_id": "2682",
            "destination_block_id": "769",
            "crane": "1",
            "start_time": "139.5",
            "end_time": "153.5"
        },
        {
            "id": "807",
            "type": "input",
            "source_block_id": "2703",
            "destination_block_id": "1248",
            "crane": "0",
            "start_time": "102.5",
            "end_time": "107.5"
        },
        {
            "id": "808",
            "type": "input",
            "source_block_id": "2670",
            "destination_block_id": "1935",
            "crane": "0",
            "start_time": "183.5",
            "end_time": "202.5"
        },
        {
            "id": "809",
            "type": "input",
            "source_block_id": "2636",
            "destination_block_id": "2291",
            "crane": "0",
            "start_time": "80.5",
            "end_time": "82.5"
        },
        {
            "id": "810",
            "type": "input",
            "source_block_id": "2671",
            "destination_block_id": "1547",
            "crane": "1",
            "start_time": "119.09999847412109",
            "end_time": "128.09999847412109"
        },
        {
            "id": "811",
            "type": "input",
            "source_block_id": "2661",
            "destination_block_id": "1837",
            "crane": "1",
            "start_time": "158.5",
            "end_time": "169.5"
        },
        {
            "id": "812",
            "type": "input",
            "source_block_id": "2641",
            "destination_block_id": "1838",
            "crane": "0",
            "start_time": "217.5",
            "end_time": "228.5"
        },
        {
            "id": "813",
            "type": "input",
            "source_block_id": "2630",
            "destination_block_id": "353",
            "crane": "0",
            "start_time": "86.5",
            "end_time": "99.5"
        },
        {
            "id": "456",
            "type": "output",
            "source_block_id": "600",
            "destination_block_id": "2704",
            "crane": "1",
            "start_time": "275.5",
            "end_time": "295.5"
        }
    ]
}
