{
    "objective": "887.44988026661235",
    "BAP cost": "132",
    "CSP cost": "1642.8997605332245",
    "products": [
        {
            "id": "200",
            "type": "yard_movement",
            "source_block_id": "97",
            "destination_block_id": "306",
            "crane": "0",
            "start_time": "0",
            "end_time": "5"
        },
        {
            "id": "205",
            "type": "yard_movement",
            "source_block_id": "742",
            "destination_block_id": "543",
            "crane": "1",
            "start_time": "189",
            "end_time": "205"
        },
        {
            "id": "225",
            "type": "input",
            "source_block_id": "786",
            "destination_block_id": "400",
            "crane": "1",
            "start_time": "1.5",
            "end_time": "10.5"
        },
        {
            "id": "226",
            "type": "input",
            "source_block_id": "807",
            "destination_block_id": "541",
            "crane": "1",
            "start_time": "142",
            "end_time": "162"
        },
        {
            "id": "227",
            "type": "input",
            "source_block_id": "808",
            "destination_block_id": "1",
            "crane": "0",
            "start_time": "19",
            "end_time": "21"
        },
        {
            "id": "228",
            "type": "input",
            "source_block_id": "755",
            "destination_block_id": "304",
            "crane": "0",
            "start_time": "11",
            "end_time": "17"
        },
        {
            "id": "229",
            "type": "input",
            "source_block_id": "770",
            "destination_block_id": "262",
            "crane": "1",
            "start_time": "16.5",
            "end_time": "20.5"
        },
        {
            "id": "230",
            "type": "input",
            "source_block_id": "786",
            "destination_block_id": "263",
            "crane": "1",
            "start_time": "25.5",
            "end_time": "30.5"
        },
        {
            "id": "231",
            "type": "input",
            "source_block_id": "792",
            "destination_block_id": "430",
            "crane": "1",
            "start_time": "127",
            "end_time": "133"
        },
        {
            "id": "85",
            "type": "output",
            "source_block_id": "588",
            "destination_block_id": "814",
            "crane": "0",
            "start_time": "187",
            "end_time": "209"
        },
        {
            "id": "232",
            "type": "input",
            "source_block_id": "816",
            "destination_block_id": "149",
            "crane": "0",
            "start_time": "27",
            "end_time": "52"
        },
        {
            "id": "233",
            "type": "input",
            "source_block_id": "800",
            "destination_block_id": "715",
            "crane": "0",
            "start_time": "54",
            "end_time": "65"
        },
        {
            "id": "234",
            "type": "input",
            "source_block_id": "782",
            "destination_block_id": "36",
            "crane": "0",
            "start_time": "88",
            "end_time": "91"
        },
        {
            "id": "235",
            "type": "input",
            "source_block_id": "792",
            "destination_block_id": "672",
            "crane": "1",
            "start_time": "38.5",
            "end_time": "47.5"
        },
        {
            "id": "236",
            "type": "input",
            "source_block_id": "783",
            "destination_block_id": "378",
            "crane": "0",
            "start_time": "142",
            "end_time": "156"
        },
        {
            "id": "237",
            "type": "input",
            "source_block_id": "823",
            "destination_block_id": "499",
            "crane": "1",
            "start_time": "98",
            "end_time": "107"
        },
        {
            "id": "238",
            "type": "input",
            "source_block_id": "789",
            "destination_block_id": "413",
            "crane": "0",
            "start_time": "71",
            "end_time": "77"
        },
        {
            "id": "239",
            "type": "input",
            "source_block_id": "787",
            "destination_block_id": "739",
            "crane": "1",
            "start_time": "66",
            "end_time": "70"
        },
        {
            "id": "240",
            "type": "input",
            "source_block_id": "795",
            "destination_block_id": "569",
            "crane": "1",
            "start_time": "71",
            "end_time": "78"
        },
        {
            "id": "241",
            "type": "input",
            "source_block_id": "823",
            "destination_block_id": "653",
            "crane": "1",
            "start_time": "56",
            "end_time": "64"
        },
        {
            "id": "242",
            "type": "input",
            "source_block_id": "784",
            "destination_block_id": "40",
            "crane": "0",
            "start_time": "83",
            "end_time": "86"
        },
        {
            "id": "243",
            "type": "input",
            "source_block_id": "762",
            "destination_block_id": "41",
            "crane": "0",
            "start_time": "98",
            "end_time": "106"
        },
        {
            "id": "244",
            "type": "input",
            "source_block_id": "789",
            "destination_block_id": "186",
            "crane": "1",
            "start_time": "111",
            "end_time": "119"
        },
        {
            "id": "245",
            "type": "input",
            "source_block_id": "783",
            "destination_block_id": "730",
            "crane": "0",
            "start_time": "67",
            "end_time": "70"
        },
        {
            "id": "246",
            "type": "input",
            "source_block_id": "808",
            "destination_block_id": "724",
            "crane": "0",
            "start_time": "165",
            "end_time": "182"
        },
        {
            "id": "247",
            "type": "input",
            "source_block_id": "808",
            "destination_block_id": "553",
            "crane": "0",
            "start_time": "126",
            "end_time": "136"
        },
        {
            "id": "248",
            "type": "input",
            "source_block_id": "787",
            "destination_block_id": "283",
            "crane": "1",
            "start_time": "81",
            "end_time": "88"
        },
        {
            "id": "249",
            "type": "input",
            "source_block_id": "810",
            "destination_block_id": "479",
            "crane": "0",
            "start_time": "211",
            "end_time": "221"
        },
        {
            "id": "250",
            "type": "input",
            "source_block_id": "823",
            "destination_block_id": "598",
            "crane": "1",
            "start_time": "94",
            "end_time": "96"
        },
        {
            "id": "251",
            "type": "input",
            "source_block_id": "757",
            "destination_block_id": "599",
            "crane": "1",
            "start_time": "165",
            "end_time": "187"
        },
        {
            "id": "16",
            "type": "output",
            "source_block_id": "96",
            "destination_block_id": "820",
            "crane": "0",
            "start_time": "112",
            "end_time": "120"
        },
        {
            "id": "25",
            "type": "output",
            "source_block_id": "741",
            "destination_block_id": "788",
            "crane": "1",
            "start_time": "221",
            "end_time": "231"
        }
    ]
}
