{
    "objective": "1482.8826696214378",
    "BAP cost": "918",
    "CSP cost": "2047.7653392428756",
    "products": [
        {
            "id": "226",
            "type": "yard_movement",
            "source_block_id": "74",
            "destination_block_id": "671",
            "crane": "1",
            "start_time": "5.5",
            "end_time": "13.5"
        },
        {
            "id": "417",
            "type": "yard_movement",
            "source_block_id": "440",
            "destination_block_id": "536",
            "crane": "0",
            "start_time": "251.5",
            "end_time": "269.5"
        },
        {
            "id": "419",
            "type": "yard_movement",
            "source_block_id": "349",
            "destination_block_id": "378",
            "crane": "0",
            "start_time": "20.5",
            "end_time": "35.5"
        },
        {
            "id": "525",
            "type": "input",
            "source_block_id": "823",
            "destination_block_id": "709",
            "crane": "0",
            "start_time": "1.5",
            "end_time": "15.5"
        },
        {
            "id": "526",
            "type": "input",
            "source_block_id": "795",
            "destination_block_id": "377",
            "crane": "0",
            "start_time": "202.5",
            "end_time": "223.5"
        },
        {
            "id": "527",
            "type": "input",
            "source_block_id": "807",
            "destination_block_id": "48",
            "crane": "1",
            "start_time": "95.5",
            "end_time": "104.5"
        },
        {
            "id": "528",
            "type": "input",
            "source_block_id": "759",
            "destination_block_id": "306",
            "crane": "0",
            "start_time": "40.5",
            "end_time": "46.5"
        },
        {
            "id": "529",
            "type": "input",
            "source_block_id": "795",
            "destination_block_id": "506",
            "crane": "1",
            "start_time": "15.5",
            "end_time": "19.5"
        },
        {
            "id": "530",
            "type": "input",
            "source_block_id": "785",
            "destination_block_id": "379",
            "crane": "1",
            "start_time": "146.5",
            "end_time": "161.5"
        },
        {
            "id": "531",
            "type": "input",
            "source_block_id": "799",
            "destination_block_id": "218",
            "crane": "1",
            "start_time": "24.5",
            "end_time": "32.5"
        },
        {
            "id": "532",
            "type": "input",
            "source_block_id": "800",
            "destination_block_id": "44",
            "crane": "1",
            "start_time": "35.5",
            "end_time": "45.5"
        },
        {
            "id": "533",
            "type": "input",
            "source_block_id": "770",
            "destination_block_id": "598",
            "crane": "1",
            "start_time": "111.5",
            "end_time": "126.5"
        },
        {
            "id": "534",
            "type": "input",
            "source_block_id": "783",
            "destination_block_id": "710",
            "crane": "0",
            "start_time": "86.5",
            "end_time": "90.5"
        },
        {
            "id": "535",
            "type": "input",
            "source_block_id": "807",
            "destination_block_id": "599",
            "crane": "1",
            "start_time": "132.5",
            "end_time": "138.5"
        },
        {
            "id": "536",
            "type": "input",
            "source_block_id": "812",
            "destination_block_id": "718",
            "crane": "0",
            "start_time": "70.5",
            "end_time": "85.5"
        },
        {
            "id": "537",
            "type": "input",
            "source_block_id": "766",
            "destination_block_id": "380",
            "crane": "0",
            "start_time": "171.5",
            "end_time": "177.5"
        },
        {
            "id": "538",
            "type": "input",
            "source_block_id": "756",
            "destination_block_id": "1",
            "crane": "0",
            "start_time": "51.5",
            "end_time": "53.5"
        },
        {
            "id": "539",
            "type": "input",
            "source_block_id": "778",
            "destination_block_id": "80",
            "crane": "0",
            "start_time": "146.5",
            "end_time": "158.5"
        },
        {
            "id": "540",
            "type": "input",
            "source_block_id": "784",
            "destination_block_id": "359",
            "crane": "1",
            "start_time": "58.5",
            "end_time": "63.5"
        },
        {
            "id": "541",
            "type": "input",
            "source_block_id": "768",
            "destination_block_id": "300",
            "crane": "0",
            "start_time": "61.5",
            "end_time": "69.5"
        },
        {
            "id": "542",
            "type": "input",
            "source_block_id": "808",
            "destination_block_id": "719",
            "crane": "0",
            "start_time": "180.5",
            "end_time": "195.5"
        },
        {
            "id": "543",
            "type": "input",
            "source_block_id": "810",
            "destination_block_id": "61",
            "crane": "0",
            "start_time": "118.5",
            "end_time": "139.5"
        },
        {
            "id": "544",
            "type": "input",
            "source_block_id": "800",
            "destination_block_id": "301",
            "crane": "1",
            "start_time": "203.5",
            "end_time": "227.5"
        },
        {
            "id": "545",
            "type": "input",
            "source_block_id": "789",
            "destination_block_id": "749",
            "crane": "1",
            "start_time": "73.5",
            "end_time": "79.5"
        },
        {
            "id": "546",
            "type": "input",
            "source_block_id": "823",
            "destination_block_id": "68",
            "crane": "1",
            "start_time": "81.5",
            "end_time": "90.5"
        },
        {
            "id": "547",
            "type": "input",
            "source_block_id": "789",
            "destination_block_id": "648",
            "crane": "1",
            "start_time": "69.5",
            "end_time": "71.5"
        },
        {
            "id": "548",
            "type": "input",
            "source_block_id": "766",
            "destination_block_id": "2",
            "crane": "0",
            "start_time": "108.5",
            "end_time": "115.5"
        },
        {
            "id": "549",
            "type": "input",
            "source_block_id": "807",
            "destination_block_id": "653",
            "crane": "1",
            "start_time": "186.5",
            "end_time": "194.5"
        },
        {
            "id": "550",
            "type": "input",
            "source_block_id": "785",
            "destination_block_id": "17",
            "crane": "0",
            "start_time": "95.5",
            "end_time": "106.5"
        },
        {
            "id": "551",
            "type": "input",
            "source_block_id": "764",
            "destination_block_id": "62",
            "crane": "1",
            "start_time": "167.5",
            "end_time": "181.5"
        },
        {
            "id": "131",
            "type": "output",
            "source_block_id": "73",
            "destination_block_id": "802",
            "crane": "1",
            "start_time": "92.5",
            "end_time": "93.5"
        },
        {
            "id": "278",
            "type": "output",
            "source_block_id": "439",
            "destination_block_id": "769",
            "crane": "0",
            "start_time": "287.5",
            "end_time": "300.5"
        },
        {
            "id": "170",
            "type": "output",
            "source_block_id": "348",
            "destination_block_id": "776",
            "crane": "1",
            "start_time": "49.5",
            "end_time": "54.5"
        }
    ]
}
