{
    "objective": "6738.4724860150081",
    "BAP cost": "349",
    "CSP cost": "13127.944972030018",
    "products": [
        {
            "id": "2472",
            "type": "yard_movement",
            "source_block_id": "1413",
            "destination_block_id": "2403",
            "crane": "1",
            "start_time": "143.5",
            "end_time": "147.5"
        },
        {
            "id": "2334",
            "type": "yard_movement",
            "source_block_id": "4061",
            "destination_block_id": "1553",
            "crane": "0",
            "start_time": "100.69999980926514",
            "end_time": "110.69999980926514"
        },
        {
            "id": "1976",
            "type": "yard_movement",
            "source_block_id": "1824",
            "destination_block_id": "314",
            "crane": "0",
            "start_time": "58.699999809265137",
            "end_time": "64.699999809265137"
        },
        {
            "id": "1292",
            "type": "yard_movement",
            "source_block_id": "1261",
            "destination_block_id": "3763",
            "crane": "0",
            "start_time": "411.19999694824219",
            "end_time": "421.19999694824219"
        },
        {
            "id": "2500",
            "type": "input",
            "source_block_id": "5016",
            "destination_block_id": "157",
            "crane": "0",
            "start_time": "9.6999998092651367",
            "end_time": "33.699999809265137"
        },
        {
            "id": "2501",
            "type": "input",
            "source_block_id": "5094",
            "destination_block_id": "158",
            "crane": "1",
            "start_time": "43.699999809265137",
            "end_time": "58.699999809265137"
        },
        {
            "id": "2502",
            "type": "input",
            "source_block_id": "5014",
            "destination_block_id": "954",
            "crane": "1",
            "start_time": "712.19999694824219",
            "end_time": "746.19999694824219"
        },
        {
            "id": "2503",
            "type": "input",
            "source_block_id": "5046",
            "destination_block_id": "4168",
            "crane": "1",
            "start_time": "9.6999998092651367",
            "end_time": "26.699999809265137"
        },
        {
            "id": "2504",
            "type": "input",
            "source_block_id": "5016",
            "destination_block_id": "3223",
            "crane": "0",
            "start_time": "716.19999694824219",
            "end_time": "753.19999694824219"
        },
        {
            "id": "2505",
            "type": "input",
            "source_block_id": "5143",
            "destination_block_id": "2553",
            "crane": "0",
            "start_time": "509.19999694824219",
            "end_time": "549.19999694824219"
        },
        {
            "id": "2506",
            "type": "input",
            "source_block_id": "5132",
            "destination_block_id": "4228",
            "crane": "0",
            "start_time": "149.19999694824219",
            "end_time": "195.19999694824219"
        },
        {
            "id": "2227",
            "type": "output",
            "source_block_id": "4786",
            "destination_block_id": "5065",
            "crane": "0",
            "start_time": "614.19999694824219",
            "end_time": "638.19999694824219"
        },
        {
            "id": "2507",
            "type": "input",
            "source_block_id": "5139",
            "destination_block_id": "4564",
            "crane": "1",
            "start_time": "655.19999694824219",
            "end_time": "693.19999694824219"
        },
        {
            "id": "2508",
            "type": "input",
            "source_block_id": "5034",
            "destination_block_id": "557",
            "crane": "0",
            "start_time": "48.699999809265137",
            "end_time": "53.699999809265137"
        },
        {
            "id": "2509",
            "type": "input",
            "source_block_id": "5062",
            "destination_block_id": "143",
            "crane": "1",
            "start_time": "424.19999694824219",
            "end_time": "427.19999694824219"
        },
        {
            "id": "2510",
            "type": "input",
            "source_block_id": "5066",
            "destination_block_id": "2704",
            "crane": "1",
            "start_time": "299.19999694824219",
            "end_time": "310.19999694824219"
        },
        {
            "id": "2511",
            "type": "input",
            "source_block_id": "5140",
            "destination_block_id": "4028",
            "crane": "0",
            "start_time": "87.699999809265137",
            "end_time": "93.699999809265137"
        },
        {
            "id": "2512",
            "type": "input",
            "source_block_id": "5030",
            "destination_block_id": "2523",
            "crane": "0",
            "start_time": "68.699999809265137",
            "end_time": "79.699999809265137"
        },
        {
            "id": "2513",
            "type": "input",
            "source_block_id": "5060",
            "destination_block_id": "808",
            "crane": "0",
            "start_time": "212.19999694824219",
            "end_time": "230.19999694824219"
        },
        {
            "id": "2514",
            "type": "input",
            "source_block_id": "5138",
            "destination_block_id": "4728",
            "crane": "0",
            "start_time": "424.19999694824219",
            "end_time": "470.19999694824219"
        },
        {
            "id": "2515",
            "type": "input",
            "source_block_id": "5037",
            "destination_block_id": "4229",
            "crane": "0",
            "start_time": "841.19999694824219",
            "end_time": "869.19999694824219"
        },
        {
            "id": "2516",
            "type": "input",
            "source_block_id": "5095",
            "destination_block_id": "3943",
            "crane": "0",
            "start_time": "343.19999694824219",
            "end_time": "351.19999694824219"
        },
        {
            "id": "2517",
            "type": "input",
            "source_block_id": "5066",
            "destination_block_id": "4544",
            "crane": "1",
            "start_time": "360.19999694824219",
            "end_time": "384.19999694824219"
        },
        {
            "id": "2518",
            "type": "input",
            "source_block_id": "5042",
            "destination_block_id": "3343",
            "crane": "0",
            "start_time": "239.19999694824219",
            "end_time": "253.19999694824219"
        },
        {
            "id": "2519",
            "type": "input",
            "source_block_id": "5105",
            "destination_block_id": "1057",
            "crane": "0",
            "start_time": "917.19999694824219",
            "end_time": "956.19999694824219"
        },
        {
            "id": "2520",
            "type": "input",
            "source_block_id": "5033",
            "destination_block_id": "3564",
            "crane": "0",
            "start_time": "260.19999694824219",
            "end_time": "266.19999694824219"
        },
        {
            "id": "2521",
            "type": "input",
            "source_block_id": "5072",
            "destination_block_id": "843",
            "crane": "1",
            "start_time": "64.5",
            "end_time": "81.5"
        },
        {
            "id": "2522",
            "type": "input",
            "source_block_id": "5136",
            "destination_block_id": "2054",
            "crane": "0",
            "start_time": "566.19999694824219",
            "end_time": "577.19999694824219"
        },
        {
            "id": "2523",
            "type": "input",
            "source_block_id": "5074",
            "destination_block_id": "3158",
            "crane": "1",
            "start_time": "249.19999694824219",
            "end_time": "262.19999694824219"
        },
        {
            "id": "2524",
            "type": "input",
            "source_block_id": "5122",
            "destination_block_id": "1043",
            "crane": "0",
            "start_time": "396.19999694824219",
            "end_time": "405.19999694824219"
        },
        {
            "id": "2525",
            "type": "input",
            "source_block_id": "5089",
            "destination_block_id": "4169",
            "crane": "1",
            "start_time": "200.19999694824219",
            "end_time": "210.19999694824219"
        },
        {
            "id": "2526",
            "type": "input",
            "source_block_id": "5138",
            "destination_block_id": "2343",
            "crane": "1",
            "start_time": "393.19999694824219",
            "end_time": "412.19999694824219"
        },
        {
            "id": "1436",
            "type": "output",
            "source_block_id": "174",
            "destination_block_id": "5101",
            "crane": "1",
            "start_time": "433.19999694824219",
            "end_time": "453.19999694824219"
        },
        {
            "id": "2527",
            "type": "input",
            "source_block_id": "5039",
            "destination_block_id": "3664",
            "crane": "1",
            "start_time": "98.5",
            "end_time": "112.5"
        },
        {
            "id": "2528",
            "type": "input",
            "source_block_id": "5008",
            "destination_block_id": "1554",
            "crane": "1",
            "start_time": "603.19999694824219",
            "end_time": "610.19999694824219"
        },
        {
            "id": "1828",
            "type": "output",
            "source_block_id": "1609",
            "destination_block_id": "5052",
            "crane": "1",
            "start_time": "272.19999694824219",
            "end_time": "279.19999694824219"
        },
        {
            "id": "2529",
            "type": "input",
            "source_block_id": "5075",
            "destination_block_id": "873",
            "crane": "1",
            "start_time": "118.5",
            "end_time": "135.5"
        },
        {
            "id": "2530",
            "type": "input",
            "source_block_id": "5088",
            "destination_block_id": "2344",
            "crane": "1",
            "start_time": "757.19999694824219",
            "end_time": "782.19999694824219"
        },
        {
            "id": "2531",
            "type": "input",
            "source_block_id": "5143",
            "destination_block_id": "1419",
            "crane": "0",
            "start_time": "475.19999694824219",
            "end_time": "492.19999694824219"
        },
        {
            "id": "2532",
            "type": "input",
            "source_block_id": "5077",
            "destination_block_id": "3998",
            "crane": "1",
            "start_time": "320.19999694824219",
            "end_time": "332.19999694824219"
        },
        {
            "id": "2533",
            "type": "input",
            "source_block_id": "5133",
            "destination_block_id": "4729",
            "crane": "1",
            "start_time": "478.19999694824219",
            "end_time": "483.19999694824219"
        },
        {
            "id": "2456",
            "type": "output",
            "source_block_id": "1828",
            "destination_block_id": "5100",
            "crane": "1",
            "start_time": "785.19999694824219",
            "end_time": "819.19999694824219"
        },
        {
            "id": "2534",
            "type": "input",
            "source_block_id": "5129",
            "destination_block_id": "1983",
            "crane": "1",
            "start_time": "227.19999694824219",
            "end_time": "232.19999694824219"
        },
        {
            "id": "2535",
            "type": "input",
            "source_block_id": "5011",
            "destination_block_id": "1289",
            "crane": "0",
            "start_time": "274.19999694824219",
            "end_time": "289.19999694824219"
        },
        {
            "id": "2459",
            "type": "output",
            "source_block_id": "2737",
            "destination_block_id": "5080",
            "crane": "1",
            "start_time": "235.19999694824219",
            "end_time": "246.19999694824219"
        },
        {
            "id": "2536",
            "type": "input",
            "source_block_id": "5037",
            "destination_block_id": "3509",
            "crane": "0",
            "start_time": "129.19999694824219",
            "end_time": "145.19999694824219"
        },
        {
            "id": "2537",
            "type": "input",
            "source_block_id": "5072",
            "destination_block_id": "1189",
            "crane": "1",
            "start_time": "289.19999694824219",
            "end_time": "294.19999694824219"
        },
        {
            "id": "2538",
            "type": "input",
            "source_block_id": "5090",
            "destination_block_id": "3764",
            "crane": "1",
            "start_time": "518.19999694824219",
            "end_time": "560.19999694824219"
        },
        {
            "id": "2539",
            "type": "input",
            "source_block_id": "5005",
            "destination_block_id": "333",
            "crane": "1",
            "start_time": "565.19999694824219",
            "end_time": "584.19999694824219"
        },
        {
            "id": "1849",
            "type": "yard_movement",
            "source_block_id": "1412",
            "destination_block_id": "574",
            "crane": "0",
            "start_time": "805.19999694824219",
            "end_time": "823.19999694824219"
        },
        {
            "id": "1420",
            "type": "output",
            "source_block_id": "4060",
            "destination_block_id": "5085",
            "crane": "0",
            "start_time": "309.19999694824219",
            "end_time": "338.19999694824219"
        },
        {
            "id": "1972",
            "type": "yard_movement",
            "source_block_id": "1823",
            "destination_block_id": "3839",
            "crane": "0",
            "start_time": "296.19999694824219",
            "end_time": "304.19999694824219"
        },
        {
            "id": "222",
            "type": "output",
            "source_block_id": "1260",
            "destination_block_id": "5022",
            "crane": "0",
            "start_time": "585.19999694824219",
            "end_time": "593.19999694824219"
        },
        {
            "id": "1346",
            "type": "yard_movement",
            "source_block_id": "1411",
            "destination_block_id": "3903",
            "crane": "1",
            "start_time": "836.19999694824219",
            "end_time": "846.19999694824219"
        },
        {
            "id": "1946",
            "type": "yard_movement",
            "source_block_id": "1822",
            "destination_block_id": "4958",
            "crane": "1",
            "start_time": "614.19999694824219",
            "end_time": "641.19999694824219"
        },
        {
            "id": "1297",
            "type": "output",
            "source_block_id": "1410",
            "destination_block_id": "5087",
            "crane": "0",
            "start_time": "882.19999694824219",
            "end_time": "897.19999694824219"
        },
        {
            "id": "1403",
            "type": "output",
            "source_block_id": "1821",
            "destination_block_id": "5053",
            "crane": "0",
            "start_time": "655.19999694824219",
            "end_time": "668.19999694824219"
        },
        {
            "id": "44",
            "type": "output",
            "source_block_id": "1820",
            "destination_block_id": "5024",
            "crane": "0",
            "start_time": "681.19999694824219",
            "end_time": "689.19999694824219"
        }
    ]
}
