{
    "objective": "7386.472596814694",
    "BAP cost": "1584",
    "CSP cost": "13188.94519362939",
    "products": [
        {
            "id": "1208",
            "type": "yard_movement",
            "source_block_id": "1072",
            "destination_block_id": "1312",
            "crane": "0",
            "start_time": "492.69999980926514",
            "end_time": "505.69999980926514"
        },
        {
            "id": "1248",
            "type": "yard_movement",
            "source_block_id": "2238",
            "destination_block_id": "734",
            "crane": "0",
            "start_time": "641.69999980926514",
            "end_time": "662.69999980926514"
        },
        {
            "id": "798",
            "type": "yard_movement",
            "source_block_id": "2164",
            "destination_block_id": "674",
            "crane": "0",
            "start_time": "582.69999980926514",
            "end_time": "599.69999980926514"
        },
        {
            "id": "1513",
            "type": "yard_movement",
            "source_block_id": "688",
            "destination_block_id": "94",
            "crane": "1",
            "start_time": "538.69999980926514",
            "end_time": "552.69999980926514"
        },
        {
            "id": "1601",
            "type": "yard_movement",
            "source_block_id": "2337",
            "destination_block_id": "1638",
            "crane": "1",
            "start_time": "196.69999980926514",
            "end_time": "200.69999980926514"
        },
        {
            "id": "494",
            "type": "yard_movement",
            "source_block_id": "1993",
            "destination_block_id": "294",
            "crane": "1",
            "start_time": "492.69999980926514",
            "end_time": "502.69999980926514"
        },
        {
            "id": "432",
            "type": "yard_movement",
            "source_block_id": "1823",
            "destination_block_id": "1259",
            "crane": "0",
            "start_time": "14.5",
            "end_time": "22.5"
        },
        {
            "id": "1718",
            "type": "yard_movement",
            "source_block_id": "844",
            "destination_block_id": "349",
            "crane": "1",
            "start_time": "428.69999980926514",
            "end_time": "434.69999980926514"
        },
        {
            "id": "1720",
            "type": "yard_movement",
            "source_block_id": "209",
            "destination_block_id": "2129",
            "crane": "0",
            "start_time": "339.69999980926514",
            "end_time": "350.69999980926514"
        },
        {
            "id": "1798",
            "type": "yard_movement",
            "source_block_id": "849",
            "destination_block_id": "2169",
            "crane": "1",
            "start_time": "644.69999980926514",
            "end_time": "660.69999980926514"
        },
        {
            "id": "1837",
            "type": "input",
            "source_block_id": "2630",
            "destination_block_id": "2149",
            "crane": "0",
            "start_time": "1.5",
            "end_time": "9.5"
        },
        {
            "id": "1838",
            "type": "input",
            "source_block_id": "2659",
            "destination_block_id": "2318",
            "crane": "1",
            "start_time": "31.699999809265137",
            "end_time": "45.699999809265137"
        },
        {
            "id": "1839",
            "type": "input",
            "source_block_id": "2637",
            "destination_block_id": "1858",
            "crane": "1",
            "start_time": "349.69999980926514",
            "end_time": "365.69999980926514"
        },
        {
            "id": "1840",
            "type": "input",
            "source_block_id": "2683",
            "destination_block_id": "1859",
            "crane": "0",
            "start_time": "516.69999980926514",
            "end_time": "527.69999980926514"
        },
        {
            "id": "1841",
            "type": "input",
            "source_block_id": "2659",
            "destination_block_id": "2109",
            "crane": "1",
            "start_time": "465.69999980926514",
            "end_time": "480.69999980926514"
        },
        {
            "id": "1842",
            "type": "input",
            "source_block_id": "2662",
            "destination_block_id": "1349",
            "crane": "1",
            "start_time": "15.699999809265137",
            "end_time": "23.699999809265137"
        },
        {
            "id": "1843",
            "type": "input",
            "source_block_id": "2658",
            "destination_block_id": "2036",
            "crane": "1",
            "start_time": "231.69999980926514",
            "end_time": "238.69999980926514"
        },
        {
            "id": "1844",
            "type": "input",
            "source_block_id": "2683",
            "destination_block_id": "1069",
            "crane": "0",
            "start_time": "538.69999980926514",
            "end_time": "563.69999980926514"
        },
        {
            "id": "1845",
            "type": "input",
            "source_block_id": "2728",
            "destination_block_id": "2068",
            "crane": "1",
            "start_time": "145.69999694824219",
            "end_time": "152.69999694824219"
        },
        {
            "id": "1846",
            "type": "input",
            "source_block_id": "2654",
            "destination_block_id": "904",
            "crane": "0",
            "start_time": "31.200000762939453",
            "end_time": "41.200000762939453"
        },
        {
            "id": "1847",
            "type": "input",
            "source_block_id": "2715",
            "destination_block_id": "2152",
            "crane": "1",
            "start_time": "54.699999809265137",
            "end_time": "65.699999809265137"
        },
        {
            "id": "1848",
            "type": "input",
            "source_block_id": "2707",
            "destination_block_id": "1183",
            "crane": "0",
            "start_time": "108.69999980926514",
            "end_time": "135.69999980926514"
        },
        {
            "id": "1849",
            "type": "input",
            "source_block_id": "2713",
            "destination_block_id": "758",
            "crane": "0",
            "start_time": "65.599998474121094",
            "end_time": "77.599998474121094"
        },
        {
            "id": "1850",
            "type": "input",
            "source_block_id": "2631",
            "destination_block_id": "1304",
            "crane": "1",
            "start_time": "210.69999980926514",
            "end_time": "223.69999980926514"
        },
        {
            "id": "1851",
            "type": "input",
            "source_block_id": "2687",
            "destination_block_id": "923",
            "crane": "1",
            "start_time": "306.69999980926514",
            "end_time": "327.69999980926514"
        },
        {
            "id": "1852",
            "type": "input",
            "source_block_id": "2655",
            "destination_block_id": "1122",
            "crane": "1",
            "start_time": "333.69999980926514",
            "end_time": "340.69999980926514"
        },
        {
            "id": "1853",
            "type": "input",
            "source_block_id": "2719",
            "destination_block_id": "39",
            "crane": "0",
            "start_time": "389.69999980926514",
            "end_time": "399.69999980926514"
        },
        {
            "id": "1854",
            "type": "input",
            "source_block_id": "2715",
            "destination_block_id": "2511",
            "crane": "0",
            "start_time": "268.69999980926514",
            "end_time": "281.69999980926514"
        },
        {
            "id": "1855",
            "type": "input",
            "source_block_id": "2657",
            "destination_block_id": "604",
            "crane": "1",
            "start_time": "102.69999980926514",
            "end_time": "106.69999980926514"
        },
        {
            "id": "1856",
            "type": "input",
            "source_block_id": "2707",
            "destination_block_id": "878",
            "crane": "0",
            "start_time": "59.599998474121094",
            "end_time": "62.599998474121094"
        },
        {
            "id": "1857",
            "type": "input",
            "source_block_id": "2660",
            "destination_block_id": "254",
            "crane": "1",
            "start_time": "71.699999809265137",
            "end_time": "85.699999809265137"
        },
        {
            "id": "1858",
            "type": "input",
            "source_block_id": "2643",
            "destination_block_id": "1123",
            "crane": "1",
            "start_time": "407.69999980926514",
            "end_time": "414.69999980926514"
        },
        {
            "id": "1859",
            "type": "input",
            "source_block_id": "2662",
            "destination_block_id": "2319",
            "crane": "0",
            "start_time": "90.699999809265137",
            "end_time": "99.699999809265137"
        },
        {
            "id": "1860",
            "type": "input",
            "source_block_id": "2667",
            "destination_block_id": "968",
            "crane": "1",
            "start_time": "90.699999809265137",
            "end_time": "96.699999809265137"
        },
        {
            "id": "1861",
            "type": "input",
            "source_block_id": "2667",
            "destination_block_id": "1224",
            "crane": "1",
            "start_time": "123.69999694824219",
            "end_time": "137.69999694824219"
        },
        {
            "id": "1862",
            "type": "input",
            "source_block_id": "2724",
            "destination_block_id": "124",
            "crane": "1",
            "start_time": "159.69999694824219",
            "end_time": "171.69999694824219"
        },
        {
            "id": "1863",
            "type": "input",
            "source_block_id": "2641",
            "destination_block_id": "1793",
            "crane": "0",
            "start_time": "236.69999980926514",
            "end_time": "247.69999980926514"
        },
        {
            "id": "1864",
            "type": "input",
            "source_block_id": "2636",
            "destination_block_id": "2022",
            "crane": "0",
            "start_time": "354.69999980926514",
            "end_time": "369.69999980926514"
        },
        {
            "id": "1865",
            "type": "input",
            "source_block_id": "2698",
            "destination_block_id": "2037",
            "crane": "1",
            "start_time": "266.69999980926514",
            "end_time": "279.69999980926514"
        },
        {
            "id": "1866",
            "type": "input",
            "source_block_id": "2720",
            "destination_block_id": "1313",
            "crane": "1",
            "start_time": "602.69999980926514",
            "end_time": "620.69999980926514"
        },
        {
            "id": "1867",
            "type": "input",
            "source_block_id": "2643",
            "destination_block_id": "879",
            "crane": "0",
            "start_time": "190.69999980926514",
            "end_time": "198.69999980926514"
        },
        {
            "id": "1868",
            "type": "input",
            "source_block_id": "2655",
            "destination_block_id": "956",
            "crane": "1",
            "start_time": "111.69999694824219",
            "end_time": "117.69999694824219"
        },
        {
            "id": "1869",
            "type": "input",
            "source_block_id": "2728",
            "destination_block_id": "700",
            "crane": "0",
            "start_time": "443.69999980926514",
            "end_time": "478.69999980926514"
        },
        {
            "id": "1870",
            "type": "input",
            "source_block_id": "2702",
            "destination_block_id": "2023",
            "crane": "1",
            "start_time": "379.69999980926514",
            "end_time": "395.69999980926514"
        },
        {
            "id": "1871",
            "type": "input",
            "source_block_id": "2658",
            "destination_block_id": "1794",
            "crane": "0",
            "start_time": "373.69999980926514",
            "end_time": "380.69999980926514"
        },
        {
            "id": "1872",
            "type": "input",
            "source_block_id": "2683",
            "destination_block_id": "1748",
            "crane": "1",
            "start_time": "250.69999980926514",
            "end_time": "260.69999980926514"
        },
        {
            "id": "1873",
            "type": "input",
            "source_block_id": "2719",
            "destination_block_id": "1664",
            "crane": "0",
            "start_time": "162.69999980926514",
            "end_time": "180.69999980926514"
        },
        {
            "id": "1874",
            "type": "input",
            "source_block_id": "2691",
            "destination_block_id": "2489",
            "crane": "0",
            "start_time": "301.69999980926514",
            "end_time": "326.69999980926514"
        },
        {
            "id": "1875",
            "type": "input",
            "source_block_id": "2631",
            "destination_block_id": "1134",
            "crane": "0",
            "start_time": "213.69999980926514",
            "end_time": "227.69999980926514"
        },
        {
            "id": "1876",
            "type": "input",
            "source_block_id": "2703",
            "destination_block_id": "2248",
            "crane": "0",
            "start_time": "407.69999980926514",
            "end_time": "437.69999980926514"
        },
        {
            "id": "677",
            "type": "yard_movement",
            "source_block_id": "1071",
            "destination_block_id": "2443",
            "crane": "1",
            "start_time": "566.69999980926514",
            "end_time": "595.69999980926514"
        },
        {
            "id": "1244",
            "type": "yard_movement",
            "source_block_id": "2237",
            "destination_block_id": "264",
            "crane": "0",
            "start_time": "877.69999980926514",
            "end_time": "888.69999980926514"
        },
        {
            "id": "680",
            "type": "yard_movement",
            "source_block_id": "2163",
            "destination_block_id": "2038",
            "crane": "0",
            "start_time": "626.69999980926514",
            "end_time": "636.69999980926514"
        },
        {
            "id": "1375",
            "type": "yard_movement",
            "source_block_id": "687",
            "destination_block_id": "1124",
            "crane": "0",
            "start_time": "602.69999980926514",
            "end_time": "620.69999980926514"
        },
        {
            "id": "374",
            "type": "yard_movement",
            "source_block_id": "2336",
            "destination_block_id": "2249",
            "crane": "0",
            "start_time": "749.69999980926514",
            "end_time": "766.69999980926514"
        },
        {
            "id": "453",
            "type": "yard_movement",
            "source_block_id": "1992",
            "destination_block_id": "2039",
            "crane": "1",
            "start_time": "662.69999980926514",
            "end_time": "671.69999980926514"
        },
        {
            "id": "309",
            "type": "yard_movement",
            "source_block_id": "1822",
            "destination_block_id": "2194",
            "crane": "1",
            "start_time": "186.69999980926514",
            "end_time": "190.69999980926514"
        },
        {
            "id": "1237",
            "type": "yard_movement",
            "source_block_id": "843",
            "destination_block_id": "1314",
            "crane": "1",
            "start_time": "678.69999980926514",
            "end_time": "689.69999980926514"
        },
        {
            "id": "1569",
            "type": "yard_movement",
            "source_block_id": "208",
            "destination_block_id": "1802",
            "crane": "0",
            "start_time": "571.69999980926514",
            "end_time": "580.69999980926514"
        },
        {
            "id": "900",
            "type": "yard_movement",
            "source_block_id": "848",
            "destination_block_id": "2024",
            "crane": "1",
            "start_time": "776.69999980926514",
            "end_time": "786.69999980926514"
        },
        {
            "id": "537",
            "type": "output",
            "source_block_id": "1070",
            "destination_block_id": "2680",
            "crane": "0",
            "start_time": "695.69999980926514",
            "end_time": "717.69999980926514"
        },
        {
            "id": "909",
            "type": "output",
            "source_block_id": "2236",
            "destination_block_id": "2625",
            "crane": "1",
            "start_time": "890.69999980926514",
            "end_time": "918.69999980926514"
        },
        {
            "id": "587",
            "type": "output",
            "source_block_id": "2162",
            "destination_block_id": "2688",
            "crane": "1",
            "start_time": "694.69999980926514",
            "end_time": "712.69999980926514"
        },
        {
            "id": "703",
            "type": "output",
            "source_block_id": "686",
            "destination_block_id": "2704",
            "crane": "1",
            "start_time": "635.69999980926514",
            "end_time": "638.69999980926514"
        },
        {
            "id": "262",
            "type": "output",
            "source_block_id": "2335",
            "destination_block_id": "2695",
            "crane": "0",
            "start_time": "812.69999980926514",
            "end_time": "834.69999980926514"
        },
        {
            "id": "219",
            "type": "yard_movement",
            "source_block_id": "1991",
            "destination_block_id": "1484",
            "crane": "1",
            "start_time": "740.69999980926514",
            "end_time": "743.69999980926514"
        },
        {
            "id": "293",
            "type": "output",
            "source_block_id": "1821",
            "destination_block_id": "2644",
            "crane": "0",
            "start_time": "253.69999980926514",
            "end_time": "259.69999980926514"
        },
        {
            "id": "825",
            "type": "yard_movement",
            "source_block_id": "842",
            "destination_block_id": "284",
            "crane": "1",
            "start_time": "723.69999980926514",
            "end_time": "730.69999980926514"
        },
        {
            "id": "1061",
            "type": "output",
            "source_block_id": "207",
            "destination_block_id": "2668",
            "crane": "0",
            "start_time": "665.69999980926514",
            "end_time": "679.69999980926514"
        },
        {
            "id": "787",
            "type": "yard_movement",
            "source_block_id": "847",
            "destination_block_id": "1999",
            "crane": "1",
            "start_time": "796.69999980926514",
            "end_time": "811.69999980926514"
        },
        {
            "id": "120",
            "type": "output",
            "source_block_id": "1990",
            "destination_block_id": "2676",
            "crane": "1",
            "start_time": "747.69999980926514",
            "end_time": "758.69999980926514"
        },
        {
            "id": "278",
            "type": "output",
            "source_block_id": "841",
            "destination_block_id": "2666",
            "crane": "0",
            "start_time": "774.69999980926514",
            "end_time": "785.69999980926514"
        },
        {
            "id": "266",
            "type": "yard_movement",
            "source_block_id": "846",
            "destination_block_id": "939",
            "crane": "1",
            "start_time": "842.69999980926514",
            "end_time": "859.69999980926514"
        },
        {
            "id": "24",
            "type": "output",
            "source_block_id": "845",
            "destination_block_id": "2712",
            "crane": "1",
            "start_time": "876.69999980926514",
            "end_time": "882.69999980926514"
        }
    ]
}
