{
    "objective": "5155.2532596883375",
    "BAP cost": "446",
    "CSP cost": "9864.5065193766732",
    "products": [
        {
            "id": "116",
            "type": "yard_movement",
            "source_block_id": "626",
            "destination_block_id": "57",
            "crane": "1",
            "start_time": "0",
            "end_time": "14"
        },
        {
            "id": "120",
            "type": "yard_movement",
            "source_block_id": "232",
            "destination_block_id": "11",
            "crane": "0",
            "start_time": "401",
            "end_time": "405"
        },
        {
            "id": "767",
            "type": "yard_movement",
            "source_block_id": "577",
            "destination_block_id": "482",
            "crane": "1",
            "start_time": "355",
            "end_time": "358"
        },
        {
            "id": "582",
            "type": "yard_movement",
            "source_block_id": "809",
            "destination_block_id": "691",
            "crane": "0",
            "start_time": "0",
            "end_time": "4"
        },
        {
            "id": "314",
            "type": "yard_movement",
            "source_block_id": "694",
            "destination_block_id": "1042",
            "crane": "1",
            "start_time": "305",
            "end_time": "316"
        },
        {
            "id": "555",
            "type": "yard_movement",
            "source_block_id": "100",
            "destination_block_id": "308",
            "crane": "1",
            "start_time": "75",
            "end_time": "77"
        },
        {
            "id": "787",
            "type": "input",
            "source_block_id": "1648",
            "destination_block_id": "641",
            "crane": "0",
            "start_time": "562",
            "end_time": "594"
        },
        {
            "id": "788",
            "type": "input",
            "source_block_id": "1670",
            "destination_block_id": "336",
            "crane": "1",
            "start_time": "565",
            "end_time": "593"
        },
        {
            "id": "789",
            "type": "input",
            "source_block_id": "1633",
            "destination_block_id": "1175",
            "crane": "0",
            "start_time": "47",
            "end_time": "69"
        },
        {
            "id": "790",
            "type": "input",
            "source_block_id": "1632",
            "destination_block_id": "926",
            "crane": "1",
            "start_time": "36",
            "end_time": "43"
        },
        {
            "id": "791",
            "type": "input",
            "source_block_id": "1665",
            "destination_block_id": "44",
            "crane": "0",
            "start_time": "271",
            "end_time": "286"
        },
        {
            "id": "792",
            "type": "input",
            "source_block_id": "1605",
            "destination_block_id": "1129",
            "crane": "1",
            "start_time": "19",
            "end_time": "31"
        },
        {
            "id": "793",
            "type": "input",
            "source_block_id": "1612",
            "destination_block_id": "1067",
            "crane": "0",
            "start_time": "334",
            "end_time": "346"
        },
        {
            "id": "794",
            "type": "input",
            "source_block_id": "1664",
            "destination_block_id": "266",
            "crane": "1",
            "start_time": "284",
            "end_time": "301"
        },
        {
            "id": "795",
            "type": "input",
            "source_block_id": "1595",
            "destination_block_id": "261",
            "crane": "0",
            "start_time": "28",
            "end_time": "36"
        },
        {
            "id": "796",
            "type": "input",
            "source_block_id": "1608",
            "destination_block_id": "404",
            "crane": "1",
            "start_time": "110",
            "end_time": "124"
        },
        {
            "id": "797",
            "type": "input",
            "source_block_id": "1641",
            "destination_block_id": "798",
            "crane": "1",
            "start_time": "52",
            "end_time": "63"
        },
        {
            "id": "798",
            "type": "input",
            "source_block_id": "1607",
            "destination_block_id": "1214",
            "crane": "1",
            "start_time": "182",
            "end_time": "194"
        },
        {
            "id": "799",
            "type": "input",
            "source_block_id": "1650",
            "destination_block_id": "1018",
            "crane": "1",
            "start_time": "130",
            "end_time": "141"
        },
        {
            "id": "800",
            "type": "input",
            "source_block_id": "1633",
            "destination_block_id": "143",
            "crane": "1",
            "start_time": "334",
            "end_time": "350"
        },
        {
            "id": "801",
            "type": "input",
            "source_block_id": "1664",
            "destination_block_id": "1523",
            "crane": "1",
            "start_time": "451",
            "end_time": "469"
        },
        {
            "id": "802",
            "type": "input",
            "source_block_id": "1653",
            "destination_block_id": "1162",
            "crane": "0",
            "start_time": "78",
            "end_time": "87"
        },
        {
            "id": "803",
            "type": "input",
            "source_block_id": "1649",
            "destination_block_id": "1169",
            "crane": "0",
            "start_time": "105",
            "end_time": "116"
        },
        {
            "id": "804",
            "type": "input",
            "source_block_id": "1633",
            "destination_block_id": "370",
            "crane": "1",
            "start_time": "217",
            "end_time": "227"
        },
        {
            "id": "805",
            "type": "input",
            "source_block_id": "1593",
            "destination_block_id": "725",
            "crane": "1",
            "start_time": "597",
            "end_time": "620"
        },
        {
            "id": "806",
            "type": "input",
            "source_block_id": "1665",
            "destination_block_id": "515",
            "crane": "1",
            "start_time": "487",
            "end_time": "519"
        },
        {
            "id": "807",
            "type": "input",
            "source_block_id": "1604",
            "destination_block_id": "545",
            "crane": "0",
            "start_time": "162",
            "end_time": "172"
        },
        {
            "id": "808",
            "type": "input",
            "source_block_id": "1664",
            "destination_block_id": "1535",
            "crane": "1",
            "start_time": "90",
            "end_time": "104"
        },
        {
            "id": "809",
            "type": "input",
            "source_block_id": "1677",
            "destination_block_id": "107",
            "crane": "0",
            "start_time": "90",
            "end_time": "103"
        },
        {
            "id": "810",
            "type": "input",
            "source_block_id": "1663",
            "destination_block_id": "160",
            "crane": "0",
            "start_time": "121",
            "end_time": "140"
        },
        {
            "id": "811",
            "type": "input",
            "source_block_id": "1589",
            "destination_block_id": "1501",
            "crane": "0",
            "start_time": "245",
            "end_time": "260"
        },
        {
            "id": "812",
            "type": "input",
            "source_block_id": "1632",
            "destination_block_id": "1502",
            "crane": "1",
            "start_time": "378",
            "end_time": "395"
        },
        {
            "id": "813",
            "type": "input",
            "source_block_id": "1589",
            "destination_block_id": "895",
            "crane": "0",
            "start_time": "294",
            "end_time": "306"
        },
        {
            "id": "192",
            "type": "output",
            "source_block_id": "1386",
            "destination_block_id": "1578",
            "crane": "0",
            "start_time": "349",
            "end_time": "356"
        },
        {
            "id": "814",
            "type": "input",
            "source_block_id": "1657",
            "destination_block_id": "526",
            "crane": "0",
            "start_time": "179",
            "end_time": "180"
        },
        {
            "id": "553",
            "type": "output",
            "source_block_id": "686",
            "destination_block_id": "1592",
            "crane": "0",
            "start_time": "145",
            "end_time": "156"
        },
        {
            "id": "815",
            "type": "input",
            "source_block_id": "1663",
            "destination_block_id": "73",
            "crane": "0",
            "start_time": "182",
            "end_time": "207"
        },
        {
            "id": "564",
            "type": "output",
            "source_block_id": "516",
            "destination_block_id": "1642",
            "crane": "1",
            "start_time": "265",
            "end_time": "276"
        },
        {
            "id": "816",
            "type": "input",
            "source_block_id": "1625",
            "destination_block_id": "74",
            "crane": "0",
            "start_time": "208",
            "end_time": "210"
        },
        {
            "id": "817",
            "type": "input",
            "source_block_id": "1633",
            "destination_block_id": "58",
            "crane": "1",
            "start_time": "169",
            "end_time": "178"
        },
        {
            "id": "818",
            "type": "input",
            "source_block_id": "1580",
            "destination_block_id": "692",
            "crane": "0",
            "start_time": "357",
            "end_time": "376"
        },
        {
            "id": "819",
            "type": "input",
            "source_block_id": "1650",
            "destination_block_id": "1163",
            "crane": "1",
            "start_time": "626",
            "end_time": "659"
        },
        {
            "id": "820",
            "type": "input",
            "source_block_id": "1625",
            "destination_block_id": "686",
            "crane": "1",
            "start_time": "233",
            "end_time": "240"
        },
        {
            "id": "821",
            "type": "input",
            "source_block_id": "1620",
            "destination_block_id": "919",
            "crane": "1",
            "start_time": "198",
            "end_time": "205"
        },
        {
            "id": "822",
            "type": "input",
            "source_block_id": "1605",
            "destination_block_id": "920",
            "crane": "1",
            "start_time": "247",
            "end_time": "259"
        },
        {
            "id": "585",
            "type": "output",
            "source_block_id": "162",
            "destination_block_id": "1626",
            "crane": "0",
            "start_time": "313",
            "end_time": "327"
        },
        {
            "id": "823",
            "type": "input",
            "source_block_id": "1650",
            "destination_block_id": "1481",
            "crane": "0",
            "start_time": "448",
            "end_time": "480"
        },
        {
            "id": "824",
            "type": "input",
            "source_block_id": "1673",
            "destination_block_id": "806",
            "crane": "0",
            "start_time": "490",
            "end_time": "514"
        },
        {
            "id": "825",
            "type": "input",
            "source_block_id": "1641",
            "destination_block_id": "1536",
            "crane": "1",
            "start_time": "417",
            "end_time": "432"
        },
        {
            "id": "826",
            "type": "input",
            "source_block_id": "1670",
            "destination_block_id": "490",
            "crane": "1",
            "start_time": "152",
            "end_time": "164"
        },
        {
            "id": "84",
            "type": "yard_movement",
            "source_block_id": "625",
            "destination_block_id": "59",
            "crane": "0",
            "start_time": "524",
            "end_time": "538"
        },
        {
            "id": "92",
            "type": "output",
            "source_block_id": "231",
            "destination_block_id": "1596",
            "crane": "0",
            "start_time": "409",
            "end_time": "422"
        },
        {
            "id": "487",
            "type": "output",
            "source_block_id": "576",
            "destination_block_id": "1630",
            "crane": "1",
            "start_time": "361",
            "end_time": "371"
        },
        {
            "id": "442",
            "type": "output",
            "source_block_id": "808",
            "destination_block_id": "1579",
            "crane": "0",
            "start_time": "217",
            "end_time": "240"
        },
        {
            "id": "213",
            "type": "output",
            "source_block_id": "693",
            "destination_block_id": "1600",
            "crane": "0",
            "start_time": "378",
            "end_time": "388"
        },
        {
            "id": "299",
            "type": "output",
            "source_block_id": "99",
            "destination_block_id": "1668",
            "crane": "1",
            "start_time": "79",
            "end_time": "88"
        },
        {
            "id": "81",
            "type": "output",
            "source_block_id": "624",
            "destination_block_id": "1668",
            "crane": "0",
            "start_time": "552",
            "end_time": "556"
        }
    ]
}
