{
    "objective": "4812.7753526316865",
    "BAP cost": "417",
    "CSP cost": "9208.5507052633693",
    "products": [
        {
            "id": "1255",
            "type": "yard_movement",
            "source_block_id": "2534",
            "destination_block_id": "568",
            "crane": "0",
            "start_time": "357.90000152587891",
            "end_time": "368.90000152587891"
        },
        {
            "id": "918",
            "type": "yard_movement",
            "source_block_id": "1704",
            "destination_block_id": "1348",
            "crane": "1",
            "start_time": "365.90000152587891",
            "end_time": "367.90000152587891"
        },
        {
            "id": "862",
            "type": "yard_movement",
            "source_block_id": "168",
            "destination_block_id": "1448",
            "crane": "0",
            "start_time": "559.90000152587891",
            "end_time": "583.90000152587891"
        },
        {
            "id": "1312",
            "type": "input",
            "source_block_id": "2683",
            "destination_block_id": "2079",
            "crane": "1",
            "start_time": "1.5",
            "end_time": "13.5"
        },
        {
            "id": "1313",
            "type": "input",
            "source_block_id": "2714",
            "destination_block_id": "1858",
            "crane": "1",
            "start_time": "18.5",
            "end_time": "32.5"
        },
        {
            "id": "1314",
            "type": "input",
            "source_block_id": "2713",
            "destination_block_id": "237",
            "crane": "0",
            "start_time": "6.0999999046325684",
            "end_time": "19.099999904632568"
        },
        {
            "id": "1315",
            "type": "input",
            "source_block_id": "2714",
            "destination_block_id": "1859",
            "crane": "1",
            "start_time": "233.90000152587891",
            "end_time": "247.90000152587891"
        },
        {
            "id": "1316",
            "type": "input",
            "source_block_id": "2675",
            "destination_block_id": "453",
            "crane": "1",
            "start_time": "43.5",
            "end_time": "47.5"
        },
        {
            "id": "1317",
            "type": "input",
            "source_block_id": "2662",
            "destination_block_id": "608",
            "crane": "0",
            "start_time": "33.099999904632568",
            "end_time": "45.099999904632568"
        },
        {
            "id": "1318",
            "type": "input",
            "source_block_id": "2658",
            "destination_block_id": "2349",
            "crane": "0",
            "start_time": "105.09999990463257",
            "end_time": "109.09999990463257"
        },
        {
            "id": "1319",
            "type": "input",
            "source_block_id": "2632",
            "destination_block_id": "673",
            "crane": "1",
            "start_time": "332.90000152587891",
            "end_time": "359.90000152587891"
        },
        {
            "id": "1320",
            "type": "input",
            "source_block_id": "2660",
            "destination_block_id": "1122",
            "crane": "0",
            "start_time": "220.09999990463257",
            "end_time": "229.09999990463257"
        },
        {
            "id": "1321",
            "type": "input",
            "source_block_id": "2713",
            "destination_block_id": "724",
            "crane": "0",
            "start_time": "67.099999904632568",
            "end_time": "72.099999904632568"
        },
        {
            "id": "1322",
            "type": "input",
            "source_block_id": "2653",
            "destination_block_id": "354",
            "crane": "0",
            "start_time": "49.099999904632568",
            "end_time": "62.099999904632568"
        },
        {
            "id": "1323",
            "type": "input",
            "source_block_id": "2715",
            "destination_block_id": "752",
            "crane": "0",
            "start_time": "251.09999990463257",
            "end_time": "262.09999990463257"
        },
        {
            "id": "1324",
            "type": "input",
            "source_block_id": "2722",
            "destination_block_id": "1638",
            "crane": "1",
            "start_time": "184.90000152587891",
            "end_time": "207.90000152587891"
        },
        {
            "id": "1325",
            "type": "input",
            "source_block_id": "2724",
            "destination_block_id": "849",
            "crane": "1",
            "start_time": "101.90000152587891",
            "end_time": "109.90000152587891"
        },
        {
            "id": "1326",
            "type": "input",
            "source_block_id": "2653",
            "destination_block_id": "1123",
            "crane": "0",
            "start_time": "267.09999990463257",
            "end_time": "274.09999990463257"
        },
        {
            "id": "1327",
            "type": "input",
            "source_block_id": "2670",
            "destination_block_id": "2036",
            "crane": "1",
            "start_time": "76.900001525878906",
            "end_time": "80.900001525878906"
        },
        {
            "id": "1328",
            "type": "input",
            "source_block_id": "2655",
            "destination_block_id": "2507",
            "crane": "0",
            "start_time": "86.099999904632568",
            "end_time": "101.09999990463257"
        },
        {
            "id": "1039",
            "type": "output",
            "source_block_id": "834",
            "destination_block_id": "2709",
            "crane": "0",
            "start_time": "121.09999990463257",
            "end_time": "148.09999990463257"
        },
        {
            "id": "1329",
            "type": "input",
            "source_block_id": "2660",
            "destination_block_id": "343",
            "crane": "1",
            "start_time": "405.90000152587891",
            "end_time": "422.90000152587891"
        },
        {
            "id": "1330",
            "type": "input",
            "source_block_id": "2685",
            "destination_block_id": "298",
            "crane": "1",
            "start_time": "57.900001525878906",
            "end_time": "62.900001525878906"
        },
        {
            "id": "1331",
            "type": "input",
            "source_block_id": "2643",
            "destination_block_id": "594",
            "crane": "0",
            "start_time": "77.099999904632568",
            "end_time": "82.099999904632568"
        },
        {
            "id": "1332",
            "type": "input",
            "source_block_id": "2698",
            "destination_block_id": "968",
            "crane": "1",
            "start_time": "261.90000152587891",
            "end_time": "278.90000152587891"
        },
        {
            "id": "1333",
            "type": "input",
            "source_block_id": "2632",
            "destination_block_id": "347",
            "crane": "0",
            "start_time": "526.90000152587891",
            "end_time": "558.90000152587891"
        },
        {
            "id": "1334",
            "type": "input",
            "source_block_id": "2685",
            "destination_block_id": "2148",
            "crane": "0",
            "start_time": "430.90000152587891",
            "end_time": "450.90000152587891"
        },
        {
            "id": "1335",
            "type": "input",
            "source_block_id": "2636",
            "destination_block_id": "1149",
            "crane": "0",
            "start_time": "455.90000152587891",
            "end_time": "470.90000152587891"
        },
        {
            "id": "1336",
            "type": "input",
            "source_block_id": "2685",
            "destination_block_id": "2248",
            "crane": "1",
            "start_time": "114.90000152587891",
            "end_time": "127.90000152587891"
        },
        {
            "id": "1337",
            "type": "input",
            "source_block_id": "2664",
            "destination_block_id": "1728",
            "crane": "1",
            "start_time": "84.900001525878906",
            "end_time": "96.900001525878906"
        },
        {
            "id": "1276",
            "type": "output",
            "source_block_id": "646",
            "destination_block_id": "2668",
            "crane": "1",
            "start_time": "438.90000152587891",
            "end_time": "450.90000152587891"
        },
        {
            "id": "1338",
            "type": "input",
            "source_block_id": "2658",
            "destination_block_id": "1729",
            "crane": "1",
            "start_time": "213.90000152587891",
            "end_time": "228.90000152587891"
        },
        {
            "id": "1339",
            "type": "input",
            "source_block_id": "2699",
            "destination_block_id": "2493",
            "crane": "0",
            "start_time": "377.90000152587891",
            "end_time": "391.90000152587891"
        },
        {
            "id": "1213",
            "type": "output",
            "source_block_id": "1158",
            "destination_block_id": "2663",
            "crane": "1",
            "start_time": "135.90000152587891",
            "end_time": "142.90000152587891"
        },
        {
            "id": "1340",
            "type": "input",
            "source_block_id": "2659",
            "destination_block_id": "1189",
            "crane": "1",
            "start_time": "165.90000152587891",
            "end_time": "176.90000152587891"
        },
        {
            "id": "1110",
            "type": "output",
            "source_block_id": "1510",
            "destination_block_id": "2716",
            "crane": "1",
            "start_time": "457.90000152587891",
            "end_time": "470.90000152587891"
        },
        {
            "id": "1195",
            "type": "output",
            "source_block_id": "433",
            "destination_block_id": "2717",
            "crane": "0",
            "start_time": "233.09999990463257",
            "end_time": "250.09999990463257"
        },
        {
            "id": "1341",
            "type": "input",
            "source_block_id": "2722",
            "destination_block_id": "238",
            "crane": "1",
            "start_time": "295.90000152587891",
            "end_time": "318.90000152587891"
        },
        {
            "id": "1342",
            "type": "input",
            "source_block_id": "2641",
            "destination_block_id": "1624",
            "crane": "0",
            "start_time": "203.09999990463257",
            "end_time": "213.09999990463257"
        },
        {
            "id": "1343",
            "type": "input",
            "source_block_id": "2723",
            "destination_block_id": "609",
            "crane": "0",
            "start_time": "177.09999990463257",
            "end_time": "194.09999990463257"
        },
        {
            "id": "1344",
            "type": "input",
            "source_block_id": "2687",
            "destination_block_id": "2496",
            "crane": "1",
            "start_time": "377.90000152587891",
            "end_time": "398.90000152587891"
        },
        {
            "id": "1345",
            "type": "input",
            "source_block_id": "2700",
            "destination_block_id": "2508",
            "crane": "1",
            "start_time": "478.90000152587891",
            "end_time": "502.90000152587891"
        },
        {
            "id": "200",
            "type": "output",
            "source_block_id": "2275",
            "destination_block_id": "2642",
            "crane": "0",
            "start_time": "314.09999990463257",
            "end_time": "321.09999990463257"
        },
        {
            "id": "1346",
            "type": "input",
            "source_block_id": "2671",
            "destination_block_id": "1104",
            "crane": "1",
            "start_time": "146.90000152587891",
            "end_time": "158.90000152587891"
        },
        {
            "id": "1347",
            "type": "input",
            "source_block_id": "2719",
            "destination_block_id": "923",
            "crane": "0",
            "start_time": "400.90000152587891",
            "end_time": "410.90000152587891"
        },
        {
            "id": "539",
            "type": "output",
            "source_block_id": "707",
            "destination_block_id": "2668",
            "crane": "0",
            "start_time": "334.90000152587891",
            "end_time": "353.90000152587891"
        },
        {
            "id": "1348",
            "type": "input",
            "source_block_id": "2653",
            "destination_block_id": "2494",
            "crane": "0",
            "start_time": "477.90000152587891",
            "end_time": "492.90000152587891"
        },
        {
            "id": "1349",
            "type": "input",
            "source_block_id": "2655",
            "destination_block_id": "2544",
            "crane": "0",
            "start_time": "281.09999990463257",
            "end_time": "296.09999990463257"
        },
        {
            "id": "1350",
            "type": "input",
            "source_block_id": "2631",
            "destination_block_id": "2316",
            "crane": "0",
            "start_time": "154.09999990463257",
            "end_time": "168.09999990463257"
        },
        {
            "id": "1351",
            "type": "input",
            "source_block_id": "2653",
            "destination_block_id": "2479",
            "crane": "0",
            "start_time": "507.90000152587891",
            "end_time": "522.90000152587891"
        },
        {
            "id": "1151",
            "type": "yard_movement",
            "source_block_id": "2533",
            "destination_block_id": "2429",
            "crane": "1",
            "start_time": "507.90000152587891",
            "end_time": "521.90000152587891"
        },
        {
            "id": "729",
            "type": "yard_movement",
            "source_block_id": "1703",
            "destination_block_id": "1549",
            "crane": "1",
            "start_time": "526.90000152587891",
            "end_time": "530.90000152587891"
        },
        {
            "id": "419",
            "type": "yard_movement",
            "source_block_id": "167",
            "destination_block_id": "274",
            "crane": "1",
            "start_time": "612.90000152587891",
            "end_time": "626.90000152587891"
        },
        {
            "id": "105",
            "type": "yard_movement",
            "source_block_id": "2532",
            "destination_block_id": "924",
            "crane": "1",
            "start_time": "579.90000152587891",
            "end_time": "588.90000152587891"
        },
        {
            "id": "690",
            "type": "output",
            "source_block_id": "1702",
            "destination_block_id": "2708",
            "crane": "1",
            "start_time": "534.90000152587891",
            "end_time": "544.90000152587891"
        },
        {
            "id": "409",
            "type": "yard_movement",
            "source_block_id": "166",
            "destination_block_id": "2394",
            "crane": "1",
            "start_time": "640.90000152587891",
            "end_time": "653.90000152587891"
        },
        {
            "id": "94",
            "type": "output",
            "source_block_id": "2531",
            "destination_block_id": "2665",
            "crane": "0",
            "start_time": "598.90000152587891",
            "end_time": "613.90000152587891"
        },
        {
            "id": "188",
            "type": "output",
            "source_block_id": "165",
            "destination_block_id": "2663",
            "crane": "0",
            "start_time": "666.90000152587891",
            "end_time": "681.90000152587891"
        }
    ]
}
