{
    "objective": "3977.8295808876592",
    "BAP cost": "1920",
    "CSP cost": "6035.6591617753165",
    "products": [
        {
            "id": "419",
            "type": "yard_movement",
            "source_block_id": "349",
            "destination_block_id": "48",
            "crane": "0",
            "start_time": "0",
            "end_time": "4"
        },
        {
            "id": "417",
            "type": "yard_movement",
            "source_block_id": "440",
            "destination_block_id": "359",
            "crane": "1",
            "start_time": "324.5",
            "end_time": "326.5"
        },
        {
            "id": "226",
            "type": "yard_movement",
            "source_block_id": "74",
            "destination_block_id": "506",
            "crane": "1",
            "start_time": "0",
            "end_time": "6"
        },
        {
            "id": "258",
            "type": "yard_movement",
            "source_block_id": "53",
            "destination_block_id": "44",
            "crane": "0",
            "start_time": "412.5",
            "end_time": "415.5"
        },
        {
            "id": "273",
            "type": "yard_movement",
            "source_block_id": "443",
            "destination_block_id": "374",
            "crane": "1",
            "start_time": "10",
            "end_time": "12"
        },
        {
            "id": "491",
            "type": "yard_movement",
            "source_block_id": "542",
            "destination_block_id": "17",
            "crane": "0",
            "start_time": "237.5",
            "end_time": "244.5"
        },
        {
            "id": "525",
            "type": "input",
            "source_block_id": "823",
            "destination_block_id": "37",
            "crane": "1",
            "start_time": "88",
            "end_time": "101"
        },
        {
            "id": "526",
            "type": "input",
            "source_block_id": "795",
            "destination_block_id": "653",
            "crane": "1",
            "start_time": "18",
            "end_time": "22"
        },
        {
            "id": "527",
            "type": "input",
            "source_block_id": "807",
            "destination_block_id": "38",
            "crane": "1",
            "start_time": "211.5",
            "end_time": "224.5"
        },
        {
            "id": "528",
            "type": "input",
            "source_block_id": "759",
            "destination_block_id": "1",
            "crane": "0",
            "start_time": "33",
            "end_time": "43"
        },
        {
            "id": "529",
            "type": "input",
            "source_block_id": "795",
            "destination_block_id": "614",
            "crane": "0",
            "start_time": "14",
            "end_time": "31"
        },
        {
            "id": "530",
            "type": "input",
            "source_block_id": "785",
            "destination_block_id": "648",
            "crane": "1",
            "start_time": "24",
            "end_time": "26"
        },
        {
            "id": "531",
            "type": "input",
            "source_block_id": "799",
            "destination_block_id": "578",
            "crane": "1",
            "start_time": "71",
            "end_time": "77"
        },
        {
            "id": "532",
            "type": "input",
            "source_block_id": "800",
            "destination_block_id": "378",
            "crane": "0",
            "start_time": "162.5",
            "end_time": "185.5"
        },
        {
            "id": "533",
            "type": "input",
            "source_block_id": "770",
            "destination_block_id": "467",
            "crane": "1",
            "start_time": "35",
            "end_time": "42"
        },
        {
            "id": "534",
            "type": "input",
            "source_block_id": "783",
            "destination_block_id": "379",
            "crane": "0",
            "start_time": "211.5",
            "end_time": "225.5"
        },
        {
            "id": "535",
            "type": "input",
            "source_block_id": "807",
            "destination_block_id": "2",
            "crane": "1",
            "start_time": "418.5",
            "end_time": "443.5"
        },
        {
            "id": "536",
            "type": "input",
            "source_block_id": "812",
            "destination_block_id": "718",
            "crane": "0",
            "start_time": "62",
            "end_time": "77"
        },
        {
            "id": "537",
            "type": "input",
            "source_block_id": "766",
            "destination_block_id": "709",
            "crane": "0",
            "start_time": "246.5",
            "end_time": "256.5"
        },
        {
            "id": "538",
            "type": "input",
            "source_block_id": "756",
            "destination_block_id": "3",
            "crane": "0",
            "start_time": "45",
            "end_time": "46"
        },
        {
            "id": "539",
            "type": "input",
            "source_block_id": "778",
            "destination_block_id": "54",
            "crane": "1",
            "start_time": "50",
            "end_time": "55"
        },
        {
            "id": "540",
            "type": "input",
            "source_block_id": "784",
            "destination_block_id": "218",
            "crane": "1",
            "start_time": "57",
            "end_time": "63"
        },
        {
            "id": "541",
            "type": "input",
            "source_block_id": "768",
            "destination_block_id": "300",
            "crane": "0",
            "start_time": "53",
            "end_time": "61"
        },
        {
            "id": "542",
            "type": "input",
            "source_block_id": "808",
            "destination_block_id": "598",
            "crane": "0",
            "start_time": "347.5",
            "end_time": "372.5"
        },
        {
            "id": "543",
            "type": "input",
            "source_block_id": "810",
            "destination_block_id": "599",
            "crane": "0",
            "start_time": "445.5",
            "end_time": "470.5"
        },
        {
            "id": "544",
            "type": "input",
            "source_block_id": "800",
            "destination_block_id": "719",
            "crane": "1",
            "start_time": "126",
            "end_time": "136"
        },
        {
            "id": "545",
            "type": "input",
            "source_block_id": "789",
            "destination_block_id": "749",
            "crane": "1",
            "start_time": "80",
            "end_time": "86"
        },
        {
            "id": "546",
            "type": "input",
            "source_block_id": "823",
            "destination_block_id": "704",
            "crane": "1",
            "start_time": "255.5",
            "end_time": "271.5"
        },
        {
            "id": "547",
            "type": "input",
            "source_block_id": "789",
            "destination_block_id": "306",
            "crane": "0",
            "start_time": "324.5",
            "end_time": "340.5"
        },
        {
            "id": "548",
            "type": "input",
            "source_block_id": "766",
            "destination_block_id": "301",
            "crane": "0",
            "start_time": "93",
            "end_time": "100"
        },
        {
            "id": "549",
            "type": "input",
            "source_block_id": "807",
            "destination_block_id": "164",
            "crane": "1",
            "start_time": "375.5",
            "end_time": "396.5"
        },
        {
            "id": "550",
            "type": "input",
            "source_block_id": "785",
            "destination_block_id": "633",
            "crane": "0",
            "start_time": "79",
            "end_time": "84"
        },
        {
            "id": "551",
            "type": "input",
            "source_block_id": "764",
            "destination_block_id": "634",
            "crane": "0",
            "start_time": "136.5",
            "end_time": "145.5"
        },
        {
            "id": "552",
            "type": "input",
            "source_block_id": "758",
            "destination_block_id": "68",
            "crane": "1",
            "start_time": "347.5",
            "end_time": "366.5"
        },
        {
            "id": "390",
            "type": "output",
            "source_block_id": "363",
            "destination_block_id": "777",
            "crane": "1",
            "start_time": "233.5",
            "end_time": "242.5"
        },
        {
            "id": "439",
            "type": "output",
            "source_block_id": "24",
            "destination_block_id": "753",
            "crane": "0",
            "start_time": "274.5",
            "end_time": "284.5"
        },
        {
            "id": "553",
            "type": "input",
            "source_block_id": "789",
            "destination_block_id": "671",
            "crane": "1",
            "start_time": "149",
            "end_time": "154"
        },
        {
            "id": "412",
            "type": "output",
            "source_block_id": "353",
            "destination_block_id": "809",
            "crane": "1",
            "start_time": "106",
            "end_time": "114"
        },
        {
            "id": "554",
            "type": "input",
            "source_block_id": "800",
            "destination_block_id": "296",
            "crane": "1",
            "start_time": "118",
            "end_time": "122"
        },
        {
            "id": "555",
            "type": "input",
            "source_block_id": "768",
            "destination_block_id": "733",
            "crane": "0",
            "start_time": "109.5",
            "end_time": "120.5"
        },
        {
            "id": "556",
            "type": "input",
            "source_block_id": "784",
            "destination_block_id": "405",
            "crane": "1",
            "start_time": "174.5",
            "end_time": "180.5"
        },
        {
            "id": "557",
            "type": "input",
            "source_block_id": "816",
            "destination_block_id": "536",
            "crane": "0",
            "start_time": "231.5",
            "end_time": "235.5"
        },
        {
            "id": "558",
            "type": "input",
            "source_block_id": "761",
            "destination_block_id": "368",
            "crane": "1",
            "start_time": "186.5",
            "end_time": "204.5"
        },
        {
            "id": "559",
            "type": "input",
            "source_block_id": "823",
            "destination_block_id": "49",
            "crane": "1",
            "start_time": "164.5",
            "end_time": "173.5"
        },
        {
            "id": "560",
            "type": "input",
            "source_block_id": "782",
            "destination_block_id": "80",
            "crane": "1",
            "start_time": "331.5",
            "end_time": "345.5"
        },
        {
            "id": "320",
            "type": "output",
            "source_block_id": "355",
            "destination_block_id": "793",
            "crane": "1",
            "start_time": "141",
            "end_time": "147"
        },
        {
            "id": "561",
            "type": "input",
            "source_block_id": "810",
            "destination_block_id": "377",
            "crane": "0",
            "start_time": "227.5",
            "end_time": "229.5"
        },
        {
            "id": "562",
            "type": "input",
            "source_block_id": "816",
            "destination_block_id": "437",
            "crane": "0",
            "start_time": "298.5",
            "end_time": "319.5"
        },
        {
            "id": "563",
            "type": "input",
            "source_block_id": "787",
            "destination_block_id": "710",
            "crane": "1",
            "start_time": "279.5",
            "end_time": "285.5"
        },
        {
            "id": "564",
            "type": "input",
            "source_block_id": "816",
            "destination_block_id": "353",
            "crane": "0",
            "start_time": "187.5",
            "end_time": "205.5"
        },
        {
            "id": "170",
            "type": "output",
            "source_block_id": "348",
            "destination_block_id": "776",
            "crane": "0",
            "start_time": "125.5",
            "end_time": "130.5"
        },
        {
            "id": "278",
            "type": "output",
            "source_block_id": "439",
            "destination_block_id": "769",
            "crane": "0",
            "start_time": "375.5",
            "end_time": "388.5"
        },
        {
            "id": "131",
            "type": "output",
            "source_block_id": "73",
            "destination_block_id": "802",
            "crane": "1",
            "start_time": "116",
            "end_time": "117"
        },
        {
            "id": "151",
            "type": "yard_movement",
            "source_block_id": "52",
            "destination_block_id": "50",
            "crane": "0",
            "start_time": "418.5",
            "end_time": "419.5"
        },
        {
            "id": "174",
            "type": "yard_movement",
            "source_block_id": "442",
            "destination_block_id": "73",
            "crane": "0",
            "start_time": "156.5",
            "end_time": "161.5"
        },
        {
            "id": "397",
            "type": "output",
            "source_block_id": "541",
            "destination_block_id": "760",
            "crane": "0",
            "start_time": "262.5",
            "end_time": "270.5"
        },
        {
            "id": "128",
            "type": "output",
            "source_block_id": "51",
            "destination_block_id": "775",
            "crane": "0",
            "start_time": "421.5",
            "end_time": "431.5"
        },
        {
            "id": "58",
            "type": "output",
            "source_block_id": "441",
            "destination_block_id": "775",
            "crane": "1",
            "start_time": "296.5",
            "end_time": "307.5"
        }
    ]
}
