{
    "objective": "1071.7611142491692",
    "BAP cost": "0",
    "CSP cost": "2143.5222284983388",
    "products": [
        {
            "id": "75",
            "type": "input",
            "source_block_id": "285",
            "destination_block_id": "242",
            "crane": "0",
            "start_time": "1.5",
            "end_time": "2.5"
        },
        {
            "id": "76",
            "type": "input",
            "source_block_id": "295",
            "destination_block_id": "220",
            "crane": "1",
            "start_time": "34.099999904632568",
            "end_time": "36.099999904632568"
        },
        {
            "id": "77",
            "type": "input",
            "source_block_id": "300",
            "destination_block_id": "119",
            "crane": "1",
            "start_time": "6.0999999046325684",
            "end_time": "11.099999904632568"
        },
        {
            "id": "78",
            "type": "input",
            "source_block_id": "270",
            "destination_block_id": "8",
            "crane": "0",
            "start_time": "12.5",
            "end_time": "13.5"
        },
        {
            "id": "79",
            "type": "input",
            "source_block_id": "296",
            "destination_block_id": "117",
            "crane": "1",
            "start_time": "16.099999904632568",
            "end_time": "21.099999904632568"
        },
        {
            "id": "80",
            "type": "input",
            "source_block_id": "299",
            "destination_block_id": "248",
            "crane": "1",
            "start_time": "31.099999904632568",
            "end_time": "32.099999904632568"
        },
        {
            "id": "81",
            "type": "input",
            "source_block_id": "256",
            "destination_block_id": "1",
            "crane": "0",
            "start_time": "19.5",
            "end_time": "20.5"
        },
        {
            "id": "51",
            "type": "output",
            "source_block_id": "93",
            "destination_block_id": "321",
            "crane": "1",
            "start_time": "22.099999904632568",
            "end_time": "29.099999904632568"
        },
        {
            "id": "82",
            "type": "input",
            "source_block_id": "310",
            "destination_block_id": "75",
            "crane": "0",
            "start_time": "24.5",
            "end_time": "25.5"
        },
        {
            "id": "83",
            "type": "input",
            "source_block_id": "283",
            "destination_block_id": "238",
            "crane": "1",
            "start_time": "41.099999904632568",
            "end_time": "43.099999904632568"
        },
        {
            "id": "84",
            "type": "input",
            "source_block_id": "312",
            "destination_block_id": "125",
            "crane": "0",
            "start_time": "31.200000762939453",
            "end_time": "32.200000762939453"
        },
        {
            "id": "85",
            "type": "input",
            "source_block_id": "259",
            "destination_block_id": "227",
            "crane": "0",
            "start_time": "71.200000762939453",
            "end_time": "72.200000762939453"
        },
        {
            "id": "86",
            "type": "input",
            "source_block_id": "264",
            "destination_block_id": "34",
            "crane": "0",
            "start_time": "38.200000762939453",
            "end_time": "41.200000762939453"
        },
        {
            "id": "87",
            "type": "input",
            "source_block_id": "310",
            "destination_block_id": "25",
            "crane": "0",
            "start_time": "55.200000762939453",
            "end_time": "57.200000762939453"
        },
        {
            "id": "88",
            "type": "input",
            "source_block_id": "264",
            "destination_block_id": "53",
            "crane": "0",
            "start_time": "48.200000762939453",
            "end_time": "51.200000762939453"
        },
        {
            "id": "89",
            "type": "input",
            "source_block_id": "270",
            "destination_block_id": "10",
            "crane": "0",
            "start_time": "43.200000762939453",
            "end_time": "44.200000762939453"
        },
        {
            "id": "90",
            "type": "input",
            "source_block_id": "300",
            "destination_block_id": "41",
            "crane": "1",
            "start_time": "54.099999904632568",
            "end_time": "62.099999904632568"
        },
        {
            "id": "91",
            "type": "input",
            "source_block_id": "261",
            "destination_block_id": "231",
            "crane": "0",
            "start_time": "66.200000762939453",
            "end_time": "68.200000762939453"
        },
        {
            "id": "68",
            "type": "output",
            "source_block_id": "14",
            "destination_block_id": "314",
            "crane": "0",
            "start_time": "134.19999694824219",
            "end_time": "149.19999694824219"
        },
        {
            "id": "92",
            "type": "input",
            "source_block_id": "283",
            "destination_block_id": "192",
            "crane": "1",
            "start_time": "100.09999990463257",
            "end_time": "103.09999990463257"
        },
        {
            "id": "93",
            "type": "input",
            "source_block_id": "299",
            "destination_block_id": "222",
            "crane": "1",
            "start_time": "113.09999990463257",
            "end_time": "115.09999990463257"
        },
        {
            "id": "94",
            "type": "input",
            "source_block_id": "296",
            "destination_block_id": "91",
            "crane": "1",
            "start_time": "68.099999904632568",
            "end_time": "74.099999904632568"
        },
        {
            "id": "95",
            "type": "input",
            "source_block_id": "295",
            "destination_block_id": "244",
            "crane": "1",
            "start_time": "107.09999990463257",
            "end_time": "109.09999990463257"
        },
        {
            "id": "96",
            "type": "input",
            "source_block_id": "312",
            "destination_block_id": "51",
            "crane": "0",
            "start_time": "81.699996948242188",
            "end_time": "83.699996948242188"
        },
        {
            "id": "97",
            "type": "input",
            "source_block_id": "255",
            "destination_block_id": "225",
            "crane": "0",
            "start_time": "73.200000762939453",
            "end_time": "74.200000762939453"
        },
        {
            "id": "98",
            "type": "input",
            "source_block_id": "296",
            "destination_block_id": "65",
            "crane": "1",
            "start_time": "182.09999990463257",
            "end_time": "189.09999990463257"
        },
        {
            "id": "99",
            "type": "input",
            "source_block_id": "292",
            "destination_block_id": "39",
            "crane": "1",
            "start_time": "78.099999904632568",
            "end_time": "84.099999904632568"
        },
        {
            "id": "100",
            "type": "input",
            "source_block_id": "255",
            "destination_block_id": "201",
            "crane": "0",
            "start_time": "75.699996948242188",
            "end_time": "77.699996948242188"
        },
        {
            "id": "27",
            "type": "output",
            "source_block_id": "35",
            "destination_block_id": "277",
            "crane": "1",
            "start_time": "88.099999904632568",
            "end_time": "97.099999904632568"
        },
        {
            "id": "101",
            "type": "input",
            "source_block_id": "300",
            "destination_block_id": "89",
            "crane": "1",
            "start_time": "141.09999990463257",
            "end_time": "151.09999990463257"
        },
        {
            "id": "48",
            "type": "output",
            "source_block_id": "121",
            "destination_block_id": "251",
            "crane": "0",
            "start_time": "256.09999990463257",
            "end_time": "278.09999990463257"
        },
        {
            "id": "102",
            "type": "input",
            "source_block_id": "308",
            "destination_block_id": "101",
            "crane": "0",
            "start_time": "86.199996948242188",
            "end_time": "88.199996948242188"
        },
        {
            "id": "46",
            "type": "output",
            "source_block_id": "50",
            "destination_block_id": "271",
            "crane": "0",
            "start_time": "90.199996948242188",
            "end_time": "99.199996948242188"
        },
        {
            "id": "45",
            "type": "output",
            "source_block_id": "173",
            "destination_block_id": "271",
            "crane": "1",
            "start_time": "199.09999990463257",
            "end_time": "213.09999990463257"
        },
        {
            "id": "103",
            "type": "input",
            "source_block_id": "283",
            "destination_block_id": "184",
            "crane": "0",
            "start_time": "105.19999694824219",
            "end_time": "111.19999694824219"
        },
        {
            "id": "33",
            "type": "output",
            "source_block_id": "161",
            "destination_block_id": "317",
            "crane": "1",
            "start_time": "217.09999990463257",
            "end_time": "231.09999990463257"
        },
        {
            "id": "3",
            "type": "output",
            "source_block_id": "174",
            "destination_block_id": "277",
            "crane": "1",
            "start_time": "232.09999990463257",
            "end_time": "244.09999990463257"
        },
        {
            "id": "104",
            "type": "input",
            "source_block_id": "264",
            "destination_block_id": "56",
            "crane": "0",
            "start_time": "119.19999694824219",
            "end_time": "122.19999694824219"
        },
        {
            "id": "105",
            "type": "input",
            "source_block_id": "286",
            "destination_block_id": "63",
            "crane": "1",
            "start_time": "124.09999990463257",
            "end_time": "128.09999990463257"
        },
        {
            "id": "106",
            "type": "input",
            "source_block_id": "296",
            "destination_block_id": "62",
            "crane": "1",
            "start_time": "159.09999990463257",
            "end_time": "169.09999990463257"
        },
        {
            "id": "107",
            "type": "input",
            "source_block_id": "289",
            "destination_block_id": "234",
            "crane": "0",
            "start_time": "182.09999990463257",
            "end_time": "191.09999990463257"
        },
        {
            "id": "108",
            "type": "input",
            "source_block_id": "264",
            "destination_block_id": "58",
            "crane": "0",
            "start_time": "125.19999694824219",
            "end_time": "128.19999694824219"
        },
        {
            "id": "34",
            "type": "output",
            "source_block_id": "64",
            "destination_block_id": "305",
            "crane": "1",
            "start_time": "129.09999990463257",
            "end_time": "140.09999990463257"
        },
        {
            "id": "109",
            "type": "input",
            "source_block_id": "285",
            "destination_block_id": "208",
            "crane": "0",
            "start_time": "228.09999990463257",
            "end_time": "236.09999990463257"
        },
        {
            "id": "110",
            "type": "input",
            "source_block_id": "299",
            "destination_block_id": "182",
            "crane": "1",
            "start_time": "257.09999990463257",
            "end_time": "273.09999990463257"
        },
        {
            "id": "37",
            "type": "output",
            "source_block_id": "128",
            "destination_block_id": "293",
            "crane": "0",
            "start_time": "163.09999990463257",
            "end_time": "180.09999990463257"
        },
        {
            "id": "111",
            "type": "input",
            "source_block_id": "307",
            "destination_block_id": "153",
            "crane": "1",
            "start_time": "307.09999990463257",
            "end_time": "329.09999990463257"
        },
        {
            "id": "112",
            "type": "input",
            "source_block_id": "323",
            "destination_block_id": "27",
            "crane": "0",
            "start_time": "304.09999990463257",
            "end_time": "327.09999990463257"
        },
        {
            "id": "113",
            "type": "input",
            "source_block_id": "287",
            "destination_block_id": "77",
            "crane": "0",
            "start_time": "199.09999990463257",
            "end_time": "214.09999990463257"
        },
        {
            "id": "114",
            "type": "input",
            "source_block_id": "258",
            "destination_block_id": "127",
            "crane": "0",
            "start_time": "155.19999694824219",
            "end_time": "161.19999694824219"
        }
    ]
}
