{
    "objective": "10059.22451418677",
    "BAP cost": "119",
    "CSP cost": "19999.449028373539",
    "products": [
        {
            "id": "500",
            "type": "input",
            "source_block_id": "1141",
            "destination_block_id": "152",
            "crane": "0",
            "start_time": "1.5",
            "end_time": "49.5"
        },
        {
            "id": "501",
            "type": "input",
            "source_block_id": "1089",
            "destination_block_id": "799",
            "crane": "1",
            "start_time": "120.5",
            "end_time": "126.5"
        },
        {
            "id": "502",
            "type": "input",
            "source_block_id": "1066",
            "destination_block_id": "982",
            "crane": "0",
            "start_time": "128.5",
            "end_time": "148.5"
        },
        {
            "id": "503",
            "type": "input",
            "source_block_id": "1035",
            "destination_block_id": "153",
            "crane": "0",
            "start_time": "799.19999694824219",
            "end_time": "816.19999694824219"
        },
        {
            "id": "504",
            "type": "input",
            "source_block_id": "1075",
            "destination_block_id": "594",
            "crane": "1",
            "start_time": "209.19999694824219",
            "end_time": "218.19999694824219"
        },
        {
            "id": "505",
            "type": "input",
            "source_block_id": "1046",
            "destination_block_id": "100",
            "crane": "0",
            "start_time": "168.5",
            "end_time": "190.5"
        },
        {
            "id": "506",
            "type": "input",
            "source_block_id": "1129",
            "destination_block_id": "78",
            "crane": "1",
            "start_time": "224.19999694824219",
            "end_time": "246.19999694824219"
        },
        {
            "id": "165",
            "type": "output",
            "source_block_id": "346",
            "destination_block_id": "1109",
            "crane": "1",
            "start_time": "84.5",
            "end_time": "88.5"
        },
        {
            "id": "507",
            "type": "input",
            "source_block_id": "1012",
            "destination_block_id": "834",
            "crane": "0",
            "start_time": "291.19999694824219",
            "end_time": "320.19999694824219"
        },
        {
            "id": "508",
            "type": "input",
            "source_block_id": "1098",
            "destination_block_id": "43",
            "crane": "1",
            "start_time": "91.5",
            "end_time": "96.5"
        },
        {
            "id": "509",
            "type": "input",
            "source_block_id": "1095",
            "destination_block_id": "197",
            "crane": "1",
            "start_time": "377.19999694824219",
            "end_time": "394.19999694824219"
        },
        {
            "id": "510",
            "type": "input",
            "source_block_id": "1006",
            "destination_block_id": "416",
            "crane": "0",
            "start_time": "53.5",
            "end_time": "67.5"
        },
        {
            "id": "511",
            "type": "input",
            "source_block_id": "1046",
            "destination_block_id": "584",
            "crane": "1",
            "start_time": "299.19999694824219",
            "end_time": "311.19999694824219"
        },
        {
            "id": "512",
            "type": "input",
            "source_block_id": "1049",
            "destination_block_id": "0",
            "crane": "0",
            "start_time": "725.19999694824219",
            "end_time": "748.19999694824219"
        },
        {
            "id": "513",
            "type": "input",
            "source_block_id": "1018",
            "destination_block_id": "341",
            "crane": "1",
            "start_time": "46.5",
            "end_time": "79.5"
        },
        {
            "id": "514",
            "type": "input",
            "source_block_id": "1090",
            "destination_block_id": "996",
            "crane": "1",
            "start_time": "97.5",
            "end_time": "117.5"
        },
        {
            "id": "515",
            "type": "input",
            "source_block_id": "1099",
            "destination_block_id": "127",
            "crane": "0",
            "start_time": "335.19999694824219",
            "end_time": "356.19999694824219"
        },
        {
            "id": "516",
            "type": "input",
            "source_block_id": "1005",
            "destination_block_id": "272",
            "crane": "0",
            "start_time": "493.19999694824219",
            "end_time": "514.19999694824219"
        },
        {
            "id": "418",
            "type": "output",
            "source_block_id": "821",
            "destination_block_id": "1069",
            "crane": "0",
            "start_time": "93.5",
            "end_time": "105.5"
        },
        {
            "id": "517",
            "type": "input",
            "source_block_id": "1133",
            "destination_block_id": "851",
            "crane": "1",
            "start_time": "1025.1999969482422",
            "end_time": "1074.1999969482422"
        },
        {
            "id": "518",
            "type": "input",
            "source_block_id": "1018",
            "destination_block_id": "672",
            "crane": "0",
            "start_time": "76.5",
            "end_time": "90.5"
        },
        {
            "id": "519",
            "type": "input",
            "source_block_id": "1035",
            "destination_block_id": "964",
            "crane": "0",
            "start_time": "460.19999694824219",
            "end_time": "462.19999694824219"
        },
        {
            "id": "520",
            "type": "input",
            "source_block_id": "1110",
            "destination_block_id": "129",
            "crane": "0",
            "start_time": "751.19999694824219",
            "end_time": "781.19999694824219"
        },
        {
            "id": "521",
            "type": "input",
            "source_block_id": "1011",
            "destination_block_id": "185",
            "crane": "0",
            "start_time": "552.19999694824219",
            "end_time": "583.19999694824219"
        },
        {
            "id": "522",
            "type": "input",
            "source_block_id": "1082",
            "destination_block_id": "600",
            "crane": "1",
            "start_time": "499.19999694824219",
            "end_time": "539.19999694824219"
        },
        {
            "id": "523",
            "type": "input",
            "source_block_id": "1141",
            "destination_block_id": "991",
            "crane": "0",
            "start_time": "401.19999694824219",
            "end_time": "410.19999694824219"
        },
        {
            "id": "524",
            "type": "input",
            "source_block_id": "1005",
            "destination_block_id": "649",
            "crane": "1",
            "start_time": "1077.1999969482422",
            "end_time": "1125.1999969482422"
        },
        {
            "id": "525",
            "type": "input",
            "source_block_id": "1074",
            "destination_block_id": "765",
            "crane": "1",
            "start_time": "254.19999694824219",
            "end_time": "275.19999694824219"
        },
        {
            "id": "167",
            "type": "output",
            "source_block_id": "159",
            "destination_block_id": "1068",
            "crane": "0",
            "start_time": "678.19999694824219",
            "end_time": "702.19999694824219"
        },
        {
            "id": "526",
            "type": "input",
            "source_block_id": "1034",
            "destination_block_id": "582",
            "crane": "0",
            "start_time": "367.19999694824219",
            "end_time": "383.19999694824219"
        },
        {
            "id": "249",
            "type": "output",
            "source_block_id": "128",
            "destination_block_id": "1092",
            "crane": "1",
            "start_time": "475.19999694824219",
            "end_time": "492.19999694824219"
        },
        {
            "id": "527",
            "type": "input",
            "source_block_id": "1035",
            "destination_block_id": "983",
            "crane": "1",
            "start_time": "189.19999694824219",
            "end_time": "206.19999694824219"
        },
        {
            "id": "484",
            "type": "output",
            "source_block_id": "648",
            "destination_block_id": "1054",
            "crane": "0",
            "start_time": "417.19999694824219",
            "end_time": "439.19999694824219"
        },
        {
            "id": "234",
            "type": "output",
            "source_block_id": "580",
            "destination_block_id": "1070",
            "crane": "0",
            "start_time": "114.5",
            "end_time": "126.5"
        },
        {
            "id": "528",
            "type": "input",
            "source_block_id": "1122",
            "destination_block_id": "758",
            "crane": "0",
            "start_time": "477.19999694824219",
            "end_time": "486.19999694824219"
        },
        {
            "id": "485",
            "type": "output",
            "source_block_id": "984",
            "destination_block_id": "1065",
            "crane": "1",
            "start_time": "165.19999694824219",
            "end_time": "168.19999694824219"
        },
        {
            "id": "393",
            "type": "output",
            "source_block_id": "48",
            "destination_block_id": "1065",
            "crane": "1",
            "start_time": "591.19999694824219",
            "end_time": "611.19999694824219"
        },
        {
            "id": "529",
            "type": "input",
            "source_block_id": "1078",
            "destination_block_id": "902",
            "crane": "0",
            "start_time": "1025.1999969482422",
            "end_time": "1061.1999969482422"
        },
        {
            "id": "530",
            "type": "input",
            "source_block_id": "1029",
            "destination_block_id": "899",
            "crane": "1",
            "start_time": "931.19999694824219",
            "end_time": "967.19999694824219"
        },
        {
            "id": "531",
            "type": "input",
            "source_block_id": "1077",
            "destination_block_id": "5",
            "crane": "1",
            "start_time": "799.19999694824219",
            "end_time": "831.19999694824219"
        },
        {
            "id": "532",
            "type": "input",
            "source_block_id": "1126",
            "destination_block_id": "405",
            "crane": "0",
            "start_time": "205.5",
            "end_time": "211.5"
        },
        {
            "id": "533",
            "type": "input",
            "source_block_id": "1125",
            "destination_block_id": "531",
            "crane": "1",
            "start_time": "137.19999694824219",
            "end_time": "156.19999694824219"
        },
        {
            "id": "198",
            "type": "output",
            "source_block_id": "847",
            "destination_block_id": "1119",
            "crane": "1",
            "start_time": "331.19999694824219",
            "end_time": "340.19999694824219"
        },
        {
            "id": "534",
            "type": "input",
            "source_block_id": "1095",
            "destination_block_id": "748",
            "crane": "1",
            "start_time": "323.19999694824219",
            "end_time": "329.19999694824219"
        },
        {
            "id": "535",
            "type": "input",
            "source_block_id": "1020",
            "destination_block_id": "636",
            "crane": "1",
            "start_time": "552.19999694824219",
            "end_time": "579.19999694824219"
        },
        {
            "id": "14",
            "type": "output",
            "source_block_id": "161",
            "destination_block_id": "1115",
            "crane": "0",
            "start_time": "974.19999694824219",
            "end_time": "1013.1999969482422"
        },
        {
            "id": "536",
            "type": "input",
            "source_block_id": "1139",
            "destination_block_id": "797",
            "crane": "1",
            "start_time": "129.19999694824219",
            "end_time": "132.19999694824219"
        },
        {
            "id": "537",
            "type": "input",
            "source_block_id": "1114",
            "destination_block_id": "796",
            "crane": "0",
            "start_time": "828.19999694824219",
            "end_time": "875.19999694824219"
        },
        {
            "id": "538",
            "type": "input",
            "source_block_id": "1057",
            "destination_block_id": "814",
            "crane": "1",
            "start_time": "172.19999694824219",
            "end_time": "185.19999694824219"
        },
        {
            "id": "539",
            "type": "input",
            "source_block_id": "1036",
            "destination_block_id": "925",
            "crane": "0",
            "start_time": "616.19999694824219",
            "end_time": "635.19999694824219"
        },
        {
            "id": "319",
            "type": "output",
            "source_block_id": "431",
            "destination_block_id": "1048",
            "crane": "1",
            "start_time": "713.19999694824219",
            "end_time": "722.19999694824219"
        },
        {
            "id": "540",
            "type": "input",
            "source_block_id": "1110",
            "destination_block_id": "409",
            "crane": "0",
            "start_time": "217.5",
            "end_time": "227.5"
        },
        {
            "id": "541",
            "type": "input",
            "source_block_id": "1030",
            "destination_block_id": "21",
            "crane": "1",
            "start_time": "291.19999694824219",
            "end_time": "298.19999694824219"
        },
        {
            "id": "542",
            "type": "input",
            "source_block_id": "1110",
            "destination_block_id": "204",
            "crane": "0",
            "start_time": "661.19999694824219",
            "end_time": "666.19999694824219"
        },
        {
            "id": "543",
            "type": "input",
            "source_block_id": "1134",
            "destination_block_id": "976",
            "crane": "0",
            "start_time": "931.19999694824219",
            "end_time": "958.19999694824219"
        },
        {
            "id": "544",
            "type": "input",
            "source_block_id": "1062",
            "destination_block_id": "689",
            "crane": "1",
            "start_time": "450.19999694824219",
            "end_time": "464.19999694824219"
        },
        {
            "id": "545",
            "type": "input",
            "source_block_id": "1045",
            "destination_block_id": "853",
            "crane": "0",
            "start_time": "239.5",
            "end_time": "257.5"
        },
        {
            "id": "546",
            "type": "input",
            "source_block_id": "1074",
            "destination_block_id": "29",
            "crane": "1",
            "start_time": "442.19999694824219",
            "end_time": "449.19999694824219"
        },
        {
            "id": "547",
            "type": "input",
            "source_block_id": "1134",
            "destination_block_id": "379",
            "crane": "0",
            "start_time": "1078.1999969482422",
            "end_time": "1108.1999969482422"
        },
        {
            "id": "548",
            "type": "input",
            "source_block_id": "1006",
            "destination_block_id": "255",
            "crane": "0",
            "start_time": "193.5",
            "end_time": "199.5"
        },
        {
            "id": "549",
            "type": "input",
            "source_block_id": "1016",
            "destination_block_id": "633",
            "crane": "1",
            "start_time": "744.19999694824219",
            "end_time": "770.19999694824219"
        },
        {
            "id": "550",
            "type": "input",
            "source_block_id": "1125",
            "destination_block_id": "111",
            "crane": "1",
            "start_time": "630.19999694824219",
            "end_time": "669.19999694824219"
        },
        {
            "id": "551",
            "type": "input",
            "source_block_id": "1114",
            "destination_block_id": "112",
            "crane": "0",
            "start_time": "269.5",
            "end_time": "282.5"
        },
        {
            "id": "552",
            "type": "input",
            "source_block_id": "1141",
            "destination_block_id": "333",
            "crane": "1",
            "start_time": "418.19999694824219",
            "end_time": "435.19999694824219"
        },
        {
            "id": "553",
            "type": "input",
            "source_block_id": "1129",
            "destination_block_id": "258",
            "crane": "0",
            "start_time": "879.19999694824219",
            "end_time": "921.19999694824219"
        },
        {
            "id": "554",
            "type": "input",
            "source_block_id": "1082",
            "destination_block_id": "268",
            "crane": "0",
            "start_time": "588.19999694824219",
            "end_time": "610.19999694824219"
        },
        {
            "id": "157",
            "type": "output",
            "source_block_id": "995",
            "destination_block_id": "1017",
            "crane": "1",
            "start_time": "887.19999694824219",
            "end_time": "925.19999694824219"
        },
        {
            "id": "555",
            "type": "input",
            "source_block_id": "1133",
            "destination_block_id": "883",
            "crane": "1",
            "start_time": "347.19999694824219",
            "end_time": "364.19999694824219"
        },
        {
            "id": "556",
            "type": "input",
            "source_block_id": "1016",
            "destination_block_id": "986",
            "crane": "1",
            "start_time": "673.19999694824219",
            "end_time": "702.19999694824219"
        },
        {
            "id": "557",
            "type": "input",
            "source_block_id": "1129",
            "destination_block_id": "709",
            "crane": "0",
            "start_time": "1129.1999969482422",
            "end_time": "1170.1999969482422"
        }
    ]
}
