{
    "objective": "8749.4773017696607",
    "BAP cost": "973",
    "CSP cost": "16525.954603539321",
    "products": [
        {
            "id": "116",
            "type": "yard_movement",
            "source_block_id": "626",
            "destination_block_id": "1042",
            "crane": "1",
            "start_time": "0",
            "end_time": "4"
        },
        {
            "id": "120",
            "type": "yard_movement",
            "source_block_id": "232",
            "destination_block_id": "1169",
            "crane": "0",
            "start_time": "38",
            "end_time": "47"
        },
        {
            "id": "168",
            "type": "yard_movement",
            "source_block_id": "467",
            "destination_block_id": "404",
            "crane": "1",
            "start_time": "29",
            "end_time": "43"
        },
        {
            "id": "314",
            "type": "yard_movement",
            "source_block_id": "694",
            "destination_block_id": "490",
            "crane": "0",
            "start_time": "0",
            "end_time": "2"
        },
        {
            "id": "767",
            "type": "yard_movement",
            "source_block_id": "577",
            "destination_block_id": "545",
            "crane": "0",
            "start_time": "359",
            "end_time": "370"
        },
        {
            "id": "582",
            "type": "yard_movement",
            "source_block_id": "809",
            "destination_block_id": "1043",
            "crane": "0",
            "start_time": "690",
            "end_time": "698"
        },
        {
            "id": "555",
            "type": "yard_movement",
            "source_block_id": "100",
            "destination_block_id": "1175",
            "crane": "0",
            "start_time": "768",
            "end_time": "795"
        },
        {
            "id": "787",
            "type": "input",
            "source_block_id": "1648",
            "destination_block_id": "926",
            "crane": "1",
            "start_time": "111",
            "end_time": "118"
        },
        {
            "id": "788",
            "type": "input",
            "source_block_id": "1670",
            "destination_block_id": "515",
            "crane": "1",
            "start_time": "7",
            "end_time": "13"
        },
        {
            "id": "789",
            "type": "input",
            "source_block_id": "1633",
            "destination_block_id": "1067",
            "crane": "0",
            "start_time": "7",
            "end_time": "30"
        },
        {
            "id": "790",
            "type": "input",
            "source_block_id": "1632",
            "destination_block_id": "482",
            "crane": "0",
            "start_time": "121",
            "end_time": "132"
        },
        {
            "id": "791",
            "type": "input",
            "source_block_id": "1665",
            "destination_block_id": "1162",
            "crane": "0",
            "start_time": "52",
            "end_time": "55"
        },
        {
            "id": "792",
            "type": "input",
            "source_block_id": "1605",
            "destination_block_id": "143",
            "crane": "0",
            "start_time": "138",
            "end_time": "140"
        },
        {
            "id": "793",
            "type": "input",
            "source_block_id": "1612",
            "destination_block_id": "1214",
            "crane": "0",
            "start_time": "101",
            "end_time": "105"
        },
        {
            "id": "794",
            "type": "input",
            "source_block_id": "1664",
            "destination_block_id": "725",
            "crane": "1",
            "start_time": "55",
            "end_time": "59"
        },
        {
            "id": "795",
            "type": "input",
            "source_block_id": "1595",
            "destination_block_id": "266",
            "crane": "1",
            "start_time": "580",
            "end_time": "589"
        },
        {
            "id": "796",
            "type": "input",
            "source_block_id": "1608",
            "destination_block_id": "1535",
            "crane": "0",
            "start_time": "109",
            "end_time": "115"
        },
        {
            "id": "797",
            "type": "input",
            "source_block_id": "1641",
            "destination_block_id": "308",
            "crane": "1",
            "start_time": "47",
            "end_time": "50"
        },
        {
            "id": "798",
            "type": "input",
            "source_block_id": "1607",
            "destination_block_id": "44",
            "crane": "0",
            "start_time": "205",
            "end_time": "207"
        },
        {
            "id": "799",
            "type": "input",
            "source_block_id": "1650",
            "destination_block_id": "370",
            "crane": "1",
            "start_time": "69",
            "end_time": "86"
        },
        {
            "id": "800",
            "type": "input",
            "source_block_id": "1633",
            "destination_block_id": "641",
            "crane": "0",
            "start_time": "527",
            "end_time": "552"
        },
        {
            "id": "801",
            "type": "input",
            "source_block_id": "1664",
            "destination_block_id": "919",
            "crane": "1",
            "start_time": "301",
            "end_time": "310"
        },
        {
            "id": "802",
            "type": "input",
            "source_block_id": "1653",
            "destination_block_id": "526",
            "crane": "0",
            "start_time": "64",
            "end_time": "67"
        },
        {
            "id": "803",
            "type": "input",
            "source_block_id": "1649",
            "destination_block_id": "11",
            "crane": "0",
            "start_time": "72",
            "end_time": "76"
        },
        {
            "id": "804",
            "type": "input",
            "source_block_id": "1633",
            "destination_block_id": "160",
            "crane": "1",
            "start_time": "153",
            "end_time": "163"
        },
        {
            "id": "805",
            "type": "input",
            "source_block_id": "1593",
            "destination_block_id": "1536",
            "crane": "0",
            "start_time": "81",
            "end_time": "96"
        },
        {
            "id": "806",
            "type": "input",
            "source_block_id": "1665",
            "destination_block_id": "1481",
            "crane": "0",
            "start_time": "493",
            "end_time": "499"
        },
        {
            "id": "807",
            "type": "input",
            "source_block_id": "1604",
            "destination_block_id": "261",
            "crane": "0",
            "start_time": "242",
            "end_time": "255"
        },
        {
            "id": "808",
            "type": "input",
            "source_block_id": "1664",
            "destination_block_id": "1523",
            "crane": "1",
            "start_time": "706",
            "end_time": "724"
        },
        {
            "id": "809",
            "type": "input",
            "source_block_id": "1677",
            "destination_block_id": "572",
            "crane": "0",
            "start_time": "341",
            "end_time": "357"
        },
        {
            "id": "810",
            "type": "input",
            "source_block_id": "1663",
            "destination_block_id": "806",
            "crane": "0",
            "start_time": "382",
            "end_time": "406"
        },
        {
            "id": "811",
            "type": "input",
            "source_block_id": "1589",
            "destination_block_id": "57",
            "crane": "0",
            "start_time": "188",
            "end_time": "201"
        },
        {
            "id": "812",
            "type": "input",
            "source_block_id": "1632",
            "destination_block_id": "58",
            "crane": "1",
            "start_time": "364",
            "end_time": "379"
        },
        {
            "id": "813",
            "type": "input",
            "source_block_id": "1589",
            "destination_block_id": "107",
            "crane": "0",
            "start_time": "215",
            "end_time": "221"
        },
        {
            "id": "192",
            "type": "output",
            "source_block_id": "1386",
            "destination_block_id": "1578",
            "crane": "0",
            "start_time": "159",
            "end_time": "166"
        },
        {
            "id": "814",
            "type": "input",
            "source_block_id": "1657",
            "destination_block_id": "1018",
            "crane": "0",
            "start_time": "433",
            "end_time": "458"
        },
        {
            "id": "553",
            "type": "output",
            "source_block_id": "686",
            "destination_block_id": "1592",
            "crane": "0",
            "start_time": "146",
            "end_time": "157"
        },
        {
            "id": "815",
            "type": "input",
            "source_block_id": "1663",
            "destination_block_id": "686",
            "crane": "0",
            "start_time": "603",
            "end_time": "622"
        },
        {
            "id": "564",
            "type": "output",
            "source_block_id": "516",
            "destination_block_id": "1642",
            "crane": "1",
            "start_time": "190",
            "end_time": "201"
        },
        {
            "id": "816",
            "type": "input",
            "source_block_id": "1625",
            "destination_block_id": "73",
            "crane": "1",
            "start_time": "148",
            "end_time": "149"
        },
        {
            "id": "817",
            "type": "input",
            "source_block_id": "1633",
            "destination_block_id": "74",
            "crane": "0",
            "start_time": "632",
            "end_time": "636"
        },
        {
            "id": "818",
            "type": "input",
            "source_block_id": "1580",
            "destination_block_id": "895",
            "crane": "1",
            "start_time": "492",
            "end_time": "509"
        },
        {
            "id": "819",
            "type": "input",
            "source_block_id": "1650",
            "destination_block_id": "798",
            "crane": "1",
            "start_time": "126",
            "end_time": "140"
        },
        {
            "id": "820",
            "type": "input",
            "source_block_id": "1625",
            "destination_block_id": "1501",
            "crane": "1",
            "start_time": "319",
            "end_time": "334"
        },
        {
            "id": "821",
            "type": "input",
            "source_block_id": "1620",
            "destination_block_id": "896",
            "crane": "1",
            "start_time": "554",
            "end_time": "561"
        },
        {
            "id": "822",
            "type": "input",
            "source_block_id": "1605",
            "destination_block_id": "336",
            "crane": "0",
            "start_time": "258",
            "end_time": "265"
        },
        {
            "id": "585",
            "type": "output",
            "source_block_id": "162",
            "destination_block_id": "1626",
            "crane": "1",
            "start_time": "347",
            "end_time": "361"
        },
        {
            "id": "823",
            "type": "input",
            "source_block_id": "1650",
            "destination_block_id": "1492",
            "crane": "1",
            "start_time": "769",
            "end_time": "797"
        },
        {
            "id": "824",
            "type": "input",
            "source_block_id": "1673",
            "destination_block_id": "353",
            "crane": "0",
            "start_time": "169",
            "end_time": "182"
        },
        {
            "id": "825",
            "type": "input",
            "source_block_id": "1641",
            "destination_block_id": "1322",
            "crane": "1",
            "start_time": "739",
            "end_time": "752"
        },
        {
            "id": "826",
            "type": "input",
            "source_block_id": "1670",
            "destination_block_id": "691",
            "crane": "1",
            "start_time": "658",
            "end_time": "673"
        },
        {
            "id": "827",
            "type": "input",
            "source_block_id": "1612",
            "destination_block_id": "549",
            "crane": "0",
            "start_time": "414",
            "end_time": "424"
        },
        {
            "id": "828",
            "type": "input",
            "source_block_id": "1624",
            "destination_block_id": "851",
            "crane": "1",
            "start_time": "465",
            "end_time": "485"
        },
        {
            "id": "829",
            "type": "input",
            "source_block_id": "1650",
            "destination_block_id": "496",
            "crane": "1",
            "start_time": "242",
            "end_time": "252"
        },
        {
            "id": "830",
            "type": "input",
            "source_block_id": "1608",
            "destination_block_id": "1202",
            "crane": "1",
            "start_time": "218",
            "end_time": "222"
        },
        {
            "id": "831",
            "type": "input",
            "source_block_id": "1625",
            "destination_block_id": "998",
            "crane": "1",
            "start_time": "538",
            "end_time": "548"
        },
        {
            "id": "832",
            "type": "input",
            "source_block_id": "1625",
            "destination_block_id": "757",
            "crane": "0",
            "start_time": "638",
            "end_time": "655"
        },
        {
            "id": "833",
            "type": "input",
            "source_block_id": "1647",
            "destination_block_id": "1129",
            "crane": "1",
            "start_time": "399",
            "end_time": "410"
        },
        {
            "id": "834",
            "type": "input",
            "source_block_id": "1604",
            "destination_block_id": "1283",
            "crane": "0",
            "start_time": "283",
            "end_time": "289"
        },
        {
            "id": "835",
            "type": "input",
            "source_block_id": "1591",
            "destination_block_id": "1150",
            "crane": "1",
            "start_time": "429",
            "end_time": "455"
        },
        {
            "id": "836",
            "type": "input",
            "source_block_id": "1581",
            "destination_block_id": "1130",
            "crane": "0",
            "start_time": "663",
            "end_time": "687"
        },
        {
            "id": "837",
            "type": "input",
            "source_block_id": "1607",
            "destination_block_id": "1151",
            "crane": "1",
            "start_time": "592",
            "end_time": "610"
        },
        {
            "id": "838",
            "type": "input",
            "source_block_id": "1647",
            "destination_block_id": "802",
            "crane": "1",
            "start_time": "632",
            "end_time": "645"
        },
        {
            "id": "839",
            "type": "input",
            "source_block_id": "1665",
            "destination_block_id": "124",
            "crane": "0",
            "start_time": "297",
            "end_time": "304"
        },
        {
            "id": "840",
            "type": "input",
            "source_block_id": "1587",
            "destination_block_id": "1197",
            "crane": "0",
            "start_time": "226",
            "end_time": "238"
        },
        {
            "id": "841",
            "type": "input",
            "source_block_id": "1664",
            "destination_block_id": "1565",
            "crane": "1",
            "start_time": "287",
            "end_time": "294"
        },
        {
            "id": "267",
            "type": "output",
            "source_block_id": "196",
            "destination_block_id": "1616",
            "crane": "1",
            "start_time": "257",
            "end_time": "271"
        },
        {
            "id": "842",
            "type": "input",
            "source_block_id": "1587",
            "destination_block_id": "1507",
            "crane": "0",
            "start_time": "559",
            "end_time": "574"
        },
        {
            "id": "843",
            "type": "input",
            "source_block_id": "1586",
            "destination_block_id": "1508",
            "crane": "0",
            "start_time": "582",
            "end_time": "590"
        },
        {
            "id": "844",
            "type": "input",
            "source_block_id": "1621",
            "destination_block_id": "491",
            "crane": "1",
            "start_time": "382",
            "end_time": "387"
        },
        {
            "id": "84",
            "type": "yard_movement",
            "source_block_id": "625",
            "destination_block_id": "96",
            "crane": "1",
            "start_time": "61",
            "end_time": "66"
        },
        {
            "id": "92",
            "type": "output",
            "source_block_id": "231",
            "destination_block_id": "1596",
            "crane": "0",
            "start_time": "266",
            "end_time": "279"
        },
        {
            "id": "38",
            "type": "output",
            "source_block_id": "466",
            "destination_block_id": "1634",
            "crane": "1",
            "start_time": "166",
            "end_time": "179"
        },
        {
            "id": "213",
            "type": "output",
            "source_block_id": "693",
            "destination_block_id": "1600",
            "crane": "0",
            "start_time": "319",
            "end_time": "329"
        },
        {
            "id": "487",
            "type": "output",
            "source_block_id": "576",
            "destination_block_id": "1630",
            "crane": "1",
            "start_time": "512",
            "end_time": "522"
        },
        {
            "id": "442",
            "type": "output",
            "source_block_id": "808",
            "destination_block_id": "1579",
            "crane": "0",
            "start_time": "706",
            "end_time": "729"
        },
        {
            "id": "299",
            "type": "output",
            "source_block_id": "99",
            "destination_block_id": "1668",
            "crane": "1",
            "start_time": "823",
            "end_time": "832"
        },
        {
            "id": "81",
            "type": "output",
            "source_block_id": "624",
            "destination_block_id": "1668",
            "crane": "1",
            "start_time": "101",
            "end_time": "105"
        }
    ]
}
