{
    "objective": "8963.5286441616172",
    "BAP cost": "850",
    "CSP cost": "17077.057288323238",
    "products": [
        {
            "id": "1255",
            "type": "yard_movement",
            "source_block_id": "2534",
            "destination_block_id": "1624",
            "crane": "0",
            "start_time": "669",
            "end_time": "676"
        },
        {
            "id": "918",
            "type": "yard_movement",
            "source_block_id": "1704",
            "destination_block_id": "2248",
            "crane": "1",
            "start_time": "19.099999904632568",
            "end_time": "23.099999904632568"
        },
        {
            "id": "862",
            "type": "yard_movement",
            "source_block_id": "168",
            "destination_block_id": "2079",
            "crane": "1",
            "start_time": "731",
            "end_time": "742"
        },
        {
            "id": "830",
            "type": "yard_movement",
            "source_block_id": "456",
            "destination_block_id": "1122",
            "crane": "0",
            "start_time": "592",
            "end_time": "599"
        },
        {
            "id": "1312",
            "type": "input",
            "source_block_id": "2683",
            "destination_block_id": "237",
            "crane": "1",
            "start_time": "338",
            "end_time": "354"
        },
        {
            "id": "1313",
            "type": "input",
            "source_block_id": "2714",
            "destination_block_id": "2036",
            "crane": "1",
            "start_time": "3.0999999046325684",
            "end_time": "16.099999904632568"
        },
        {
            "id": "1314",
            "type": "input",
            "source_block_id": "2713",
            "destination_block_id": "1638",
            "crane": "0",
            "start_time": "6.0999999046325684",
            "end_time": "19.099999904632568"
        },
        {
            "id": "1315",
            "type": "input",
            "source_block_id": "2714",
            "destination_block_id": "2037",
            "crane": "1",
            "start_time": "156",
            "end_time": "169"
        },
        {
            "id": "1316",
            "type": "input",
            "source_block_id": "2675",
            "destination_block_id": "1858",
            "crane": "0",
            "start_time": "97",
            "end_time": "108"
        },
        {
            "id": "1317",
            "type": "input",
            "source_block_id": "2662",
            "destination_block_id": "1448",
            "crane": "0",
            "start_time": "238",
            "end_time": "246"
        },
        {
            "id": "1318",
            "type": "input",
            "source_block_id": "2658",
            "destination_block_id": "2479",
            "crane": "0",
            "start_time": "43",
            "end_time": "53"
        },
        {
            "id": "1319",
            "type": "input",
            "source_block_id": "2632",
            "destination_block_id": "343",
            "crane": "1",
            "start_time": "59",
            "end_time": "90"
        },
        {
            "id": "1320",
            "type": "input",
            "source_block_id": "2660",
            "destination_block_id": "2316",
            "crane": "0",
            "start_time": "28",
            "end_time": "36"
        },
        {
            "id": "1321",
            "type": "input",
            "source_block_id": "2713",
            "destination_block_id": "298",
            "crane": "0",
            "start_time": "69",
            "end_time": "94"
        },
        {
            "id": "1322",
            "type": "input",
            "source_block_id": "2653",
            "destination_block_id": "849",
            "crane": "0",
            "start_time": "359",
            "end_time": "375"
        },
        {
            "id": "1323",
            "type": "input",
            "source_block_id": "2715",
            "destination_block_id": "724",
            "crane": "0",
            "start_time": "59",
            "end_time": "64"
        },
        {
            "id": "1324",
            "type": "input",
            "source_block_id": "2722",
            "destination_block_id": "347",
            "crane": "1",
            "start_time": "130",
            "end_time": "140"
        },
        {
            "id": "1325",
            "type": "input",
            "source_block_id": "2724",
            "destination_block_id": "274",
            "crane": "0",
            "start_time": "632",
            "end_time": "648"
        },
        {
            "id": "1326",
            "type": "input",
            "source_block_id": "2653",
            "destination_block_id": "594",
            "crane": "1",
            "start_time": "265",
            "end_time": "269"
        },
        {
            "id": "1327",
            "type": "input",
            "source_block_id": "2670",
            "destination_block_id": "2544",
            "crane": "0",
            "start_time": "138",
            "end_time": "142"
        },
        {
            "id": "1328",
            "type": "input",
            "source_block_id": "2655",
            "destination_block_id": "608",
            "crane": "0",
            "start_time": "420",
            "end_time": "424"
        },
        {
            "id": "1039",
            "type": "output",
            "source_block_id": "834",
            "destination_block_id": "2709",
            "crane": "0",
            "start_time": "727",
            "end_time": "754"
        },
        {
            "id": "1329",
            "type": "input",
            "source_block_id": "2660",
            "destination_block_id": "1639",
            "crane": "0",
            "start_time": "146",
            "end_time": "152"
        },
        {
            "id": "1330",
            "type": "input",
            "source_block_id": "2685",
            "destination_block_id": "2496",
            "crane": "1",
            "start_time": "295",
            "end_time": "315"
        },
        {
            "id": "1331",
            "type": "input",
            "source_block_id": "2643",
            "destination_block_id": "609",
            "crane": "1",
            "start_time": "786",
            "end_time": "794"
        },
        {
            "id": "1332",
            "type": "input",
            "source_block_id": "2698",
            "destination_block_id": "2507",
            "crane": "0",
            "start_time": "501",
            "end_time": "525"
        },
        {
            "id": "1333",
            "type": "input",
            "source_block_id": "2632",
            "destination_block_id": "2148",
            "crane": "1",
            "start_time": "553",
            "end_time": "560"
        },
        {
            "id": "1334",
            "type": "input",
            "source_block_id": "2685",
            "destination_block_id": "673",
            "crane": "1",
            "start_time": "94",
            "end_time": "98"
        },
        {
            "id": "1335",
            "type": "input",
            "source_block_id": "2636",
            "destination_block_id": "1104",
            "crane": "0",
            "start_time": "404",
            "end_time": "413"
        },
        {
            "id": "1336",
            "type": "input",
            "source_block_id": "2685",
            "destination_block_id": "1189",
            "crane": "1",
            "start_time": "102",
            "end_time": "109"
        },
        {
            "id": "1337",
            "type": "input",
            "source_block_id": "2664",
            "destination_block_id": "1348",
            "crane": "0",
            "start_time": "182",
            "end_time": "190"
        },
        {
            "id": "1276",
            "type": "output",
            "source_block_id": "646",
            "destination_block_id": "2668",
            "crane": "0",
            "start_time": "125",
            "end_time": "137"
        },
        {
            "id": "1338",
            "type": "input",
            "source_block_id": "2658",
            "destination_block_id": "1349",
            "crane": "1",
            "start_time": "321",
            "end_time": "330"
        },
        {
            "id": "1339",
            "type": "input",
            "source_block_id": "2699",
            "destination_block_id": "968",
            "crane": "0",
            "start_time": "570",
            "end_time": "589"
        },
        {
            "id": "1213",
            "type": "output",
            "source_block_id": "1158",
            "destination_block_id": "2663",
            "crane": "0",
            "start_time": "112",
            "end_time": "119"
        },
        {
            "id": "1340",
            "type": "input",
            "source_block_id": "2659",
            "destination_block_id": "969",
            "crane": "1",
            "start_time": "660",
            "end_time": "666"
        },
        {
            "id": "1110",
            "type": "output",
            "source_block_id": "1510",
            "destination_block_id": "2716",
            "crane": "1",
            "start_time": "114",
            "end_time": "127"
        },
        {
            "id": "1195",
            "type": "output",
            "source_block_id": "433",
            "destination_block_id": "2717",
            "crane": "1",
            "start_time": "433",
            "end_time": "450"
        },
        {
            "id": "1341",
            "type": "input",
            "source_block_id": "2722",
            "destination_block_id": "2249",
            "crane": "1",
            "start_time": "400",
            "end_time": "406"
        },
        {
            "id": "1342",
            "type": "input",
            "source_block_id": "2641",
            "destination_block_id": "568",
            "crane": "0",
            "start_time": "211",
            "end_time": "215"
        },
        {
            "id": "1343",
            "type": "input",
            "source_block_id": "2723",
            "destination_block_id": "2493",
            "crane": "0",
            "start_time": "295",
            "end_time": "304"
        },
        {
            "id": "1344",
            "type": "input",
            "source_block_id": "2687",
            "destination_block_id": "1549",
            "crane": "1",
            "start_time": "377",
            "end_time": "386"
        },
        {
            "id": "1345",
            "type": "input",
            "source_block_id": "2700",
            "destination_block_id": "1728",
            "crane": "1",
            "start_time": "142",
            "end_time": "151"
        },
        {
            "id": "200",
            "type": "output",
            "source_block_id": "2275",
            "destination_block_id": "2642",
            "crane": "0",
            "start_time": "164",
            "end_time": "171"
        },
        {
            "id": "1346",
            "type": "input",
            "source_block_id": "2671",
            "destination_block_id": "1149",
            "crane": "1",
            "start_time": "224",
            "end_time": "231"
        },
        {
            "id": "1347",
            "type": "input",
            "source_block_id": "2719",
            "destination_block_id": "2394",
            "crane": "1",
            "start_time": "457",
            "end_time": "481"
        },
        {
            "id": "539",
            "type": "output",
            "source_block_id": "707",
            "destination_block_id": "2668",
            "crane": "0",
            "start_time": "321",
            "end_time": "340"
        },
        {
            "id": "1348",
            "type": "input",
            "source_block_id": "2653",
            "destination_block_id": "453",
            "crane": "1",
            "start_time": "356",
            "end_time": "363"
        },
        {
            "id": "1349",
            "type": "input",
            "source_block_id": "2655",
            "destination_block_id": "2429",
            "crane": "1",
            "start_time": "674",
            "end_time": "690"
        },
        {
            "id": "1350",
            "type": "input",
            "source_block_id": "2631",
            "destination_block_id": "923",
            "crane": "0",
            "start_time": "221",
            "end_time": "228"
        },
        {
            "id": "1351",
            "type": "input",
            "source_block_id": "2653",
            "destination_block_id": "752",
            "crane": "0",
            "start_time": "201",
            "end_time": "206"
        },
        {
            "id": "1352",
            "type": "input",
            "source_block_id": "2630",
            "destination_block_id": "753",
            "crane": "0",
            "start_time": "262",
            "end_time": "273"
        },
        {
            "id": "1353",
            "type": "input",
            "source_block_id": "2671",
            "destination_block_id": "812",
            "crane": "1",
            "start_time": "280",
            "end_time": "285"
        },
        {
            "id": "1354",
            "type": "input",
            "source_block_id": "2675",
            "destination_block_id": "2349",
            "crane": "0",
            "start_time": "380",
            "end_time": "394"
        },
        {
            "id": "1355",
            "type": "input",
            "source_block_id": "2664",
            "destination_block_id": "354",
            "crane": "0",
            "start_time": "534",
            "end_time": "552"
        },
        {
            "id": "1356",
            "type": "input",
            "source_block_id": "2657",
            "destination_block_id": "2452",
            "crane": "0",
            "start_time": "278",
            "end_time": "293"
        },
        {
            "id": "1357",
            "type": "input",
            "source_block_id": "2715",
            "destination_block_id": "2453",
            "crane": "0",
            "start_time": "460",
            "end_time": "466"
        },
        {
            "id": "1358",
            "type": "input",
            "source_block_id": "2654",
            "destination_block_id": "1849",
            "crane": "1",
            "start_time": "526",
            "end_time": "532"
        },
        {
            "id": "1359",
            "type": "input",
            "source_block_id": "2662",
            "destination_block_id": "2038",
            "crane": "1",
            "start_time": "207",
            "end_time": "212"
        },
        {
            "id": "1360",
            "type": "input",
            "source_block_id": "2661",
            "destination_block_id": "93",
            "crane": "1",
            "start_time": "273",
            "end_time": "276"
        },
        {
            "id": "1361",
            "type": "input",
            "source_block_id": "2685",
            "destination_block_id": "1474",
            "crane": "1",
            "start_time": "241",
            "end_time": "256"
        },
        {
            "id": "1362",
            "type": "input",
            "source_block_id": "2728",
            "destination_block_id": "2094",
            "crane": "1",
            "start_time": "392",
            "end_time": "396"
        },
        {
            "id": "1363",
            "type": "input",
            "source_block_id": "2728",
            "destination_block_id": "117",
            "crane": "1",
            "start_time": "412",
            "end_time": "426"
        },
        {
            "id": "1364",
            "type": "input",
            "source_block_id": "2659",
            "destination_block_id": "1133",
            "crane": "0",
            "start_time": "606",
            "end_time": "613"
        },
        {
            "id": "1365",
            "type": "input",
            "source_block_id": "2698",
            "destination_block_id": "1134",
            "crane": "1",
            "start_time": "695",
            "end_time": "714"
        },
        {
            "id": "1366",
            "type": "input",
            "source_block_id": "2683",
            "destination_block_id": "1659",
            "crane": "1",
            "start_time": "189",
            "end_time": "201"
        },
        {
            "id": "1220",
            "type": "output",
            "source_block_id": "362",
            "destination_block_id": "2718",
            "crane": "1",
            "start_time": "570",
            "end_time": "603"
        },
        {
            "id": "1367",
            "type": "input",
            "source_block_id": "2661",
            "destination_block_id": "1824",
            "crane": "0",
            "start_time": "428",
            "end_time": "439"
        },
        {
            "id": "1368",
            "type": "input",
            "source_block_id": "2723",
            "destination_block_id": "2112",
            "crane": "0",
            "start_time": "256",
            "end_time": "259"
        },
        {
            "id": "1369",
            "type": "input",
            "source_block_id": "2714",
            "destination_block_id": "2149",
            "crane": "1",
            "start_time": "747",
            "end_time": "773"
        },
        {
            "id": "1151",
            "type": "yard_movement",
            "source_block_id": "2533",
            "destination_block_id": "2317",
            "crane": "0",
            "start_time": "797",
            "end_time": "805"
        },
        {
            "id": "729",
            "type": "yard_movement",
            "source_block_id": "1703",
            "destination_block_id": "1519",
            "crane": "1",
            "start_time": "613",
            "end_time": "615"
        },
        {
            "id": "419",
            "type": "yard_movement",
            "source_block_id": "167",
            "destination_block_id": "908",
            "crane": "1",
            "start_time": "811",
            "end_time": "838"
        },
        {
            "id": "276",
            "type": "output",
            "source_block_id": "455",
            "destination_block_id": "2652",
            "crane": "0",
            "start_time": "652",
            "end_time": "665"
        },
        {
            "id": "105",
            "type": "yard_movement",
            "source_block_id": "2532",
            "destination_block_id": "909",
            "crane": "0",
            "start_time": "851",
            "end_time": "861"
        },
        {
            "id": "690",
            "type": "output",
            "source_block_id": "1702",
            "destination_block_id": "2708",
            "crane": "1",
            "start_time": "617",
            "end_time": "627"
        },
        {
            "id": "409",
            "type": "yard_movement",
            "source_block_id": "166",
            "destination_block_id": "2294",
            "crane": "1",
            "start_time": "875",
            "end_time": "905"
        },
        {
            "id": "94",
            "type": "output",
            "source_block_id": "2531",
            "destination_block_id": "2665",
            "crane": "0",
            "start_time": "871",
            "end_time": "886"
        },
        {
            "id": "188",
            "type": "output",
            "source_block_id": "165",
            "destination_block_id": "2663",
            "crane": "1",
            "start_time": "935",
            "end_time": "950"
        }
    ]
}
