{
    "objective": "9649.9223520790292",
    "BAP cost": "623",
    "CSP cost": "18676.844704158058",
    "products": [
        {
            "id": "766",
            "type": "yard_movement",
            "source_block_id": "252",
            "destination_block_id": "1131",
            "crane": "0",
            "start_time": "434.09999990463257",
            "end_time": "439.09999990463257"
        },
        {
            "id": "635",
            "type": "yard_movement",
            "source_block_id": "601",
            "destination_block_id": "116",
            "crane": "0",
            "start_time": "239.09999990463257",
            "end_time": "247.09999990463257"
        },
        {
            "id": "592",
            "type": "yard_movement",
            "source_block_id": "2428",
            "destination_block_id": "1518",
            "crane": "1",
            "start_time": "246.09999990463257",
            "end_time": "253.09999990463257"
        },
        {
            "id": "567",
            "type": "yard_movement",
            "source_block_id": "634",
            "destination_block_id": "1122",
            "crane": "1",
            "start_time": "279.09999990463257",
            "end_time": "286.09999990463257"
        },
        {
            "id": "398",
            "type": "yard_movement",
            "source_block_id": "1751",
            "destination_block_id": "237",
            "crane": "0",
            "start_time": "851.09999990463257",
            "end_time": "863.09999990463257"
        },
        {
            "id": "557",
            "type": "yard_movement",
            "source_block_id": "1592",
            "destination_block_id": "2079",
            "crane": "1",
            "start_time": "725.09999990463257",
            "end_time": "752.09999990463257"
        },
        {
            "id": "787",
            "type": "input",
            "source_block_id": "2719",
            "destination_block_id": "217",
            "crane": "0",
            "start_time": "6.0999999046325684",
            "end_time": "15.099999904632568"
        },
        {
            "id": "788",
            "type": "input",
            "source_block_id": "2723",
            "destination_block_id": "2206",
            "crane": "1",
            "start_time": "3.0999999046325684",
            "end_time": "25.099999904632568"
        },
        {
            "id": "789",
            "type": "input",
            "source_block_id": "2727",
            "destination_block_id": "1003",
            "crane": "1",
            "start_time": "650.09999990463257",
            "end_time": "676.09999990463257"
        },
        {
            "id": "790",
            "type": "input",
            "source_block_id": "2637",
            "destination_block_id": "1893",
            "crane": "1",
            "start_time": "483.09999990463257",
            "end_time": "506.09999990463257"
        },
        {
            "id": "791",
            "type": "input",
            "source_block_id": "2720",
            "destination_block_id": "2446",
            "crane": "1",
            "start_time": "39.099999904632568",
            "end_time": "42.099999904632568"
        },
        {
            "id": "792",
            "type": "input",
            "source_block_id": "2728",
            "destination_block_id": "687",
            "crane": "1",
            "start_time": "124.09999990463257",
            "end_time": "135.09999990463257"
        },
        {
            "id": "793",
            "type": "input",
            "source_block_id": "2728",
            "destination_block_id": "504",
            "crane": "1",
            "start_time": "43.099999904632568",
            "end_time": "55.099999904632568"
        },
        {
            "id": "499",
            "type": "output",
            "source_block_id": "1945",
            "destination_block_id": "2673",
            "crane": "0",
            "start_time": "407.09999990463257",
            "end_time": "426.09999990463257"
        },
        {
            "id": "794",
            "type": "input",
            "source_block_id": "2655",
            "destination_block_id": "812",
            "crane": "0",
            "start_time": "24.5",
            "end_time": "32.5"
        },
        {
            "id": "795",
            "type": "input",
            "source_block_id": "2639",
            "destination_block_id": "2328",
            "crane": "0",
            "start_time": "99.099999904632568",
            "end_time": "113.09999990463257"
        },
        {
            "id": "796",
            "type": "input",
            "source_block_id": "2653",
            "destination_block_id": "2451",
            "crane": "0",
            "start_time": "67.099999904632568",
            "end_time": "82.099999904632568"
        },
        {
            "id": "797",
            "type": "input",
            "source_block_id": "2702",
            "destination_block_id": "2492",
            "crane": "0",
            "start_time": "689.09999990463257",
            "end_time": "716.09999990463257"
        },
        {
            "id": "798",
            "type": "input",
            "source_block_id": "2674",
            "destination_block_id": "1",
            "crane": "1",
            "start_time": "351.09999990463257",
            "end_time": "374.09999990463257"
        },
        {
            "id": "799",
            "type": "input",
            "source_block_id": "2691",
            "destination_block_id": "769",
            "crane": "0",
            "start_time": "43.099999904632568",
            "end_time": "62.099999904632568"
        },
        {
            "id": "800",
            "type": "input",
            "source_block_id": "2631",
            "destination_block_id": "751",
            "crane": "0",
            "start_time": "209.09999990463257",
            "end_time": "217.09999990463257"
        },
        {
            "id": "801",
            "type": "input",
            "source_block_id": "2630",
            "destination_block_id": "1935",
            "crane": "0",
            "start_time": "83.099999904632568",
            "end_time": "87.099999904632568"
        },
        {
            "id": "802",
            "type": "input",
            "source_block_id": "2698",
            "destination_block_id": "2316",
            "crane": "1",
            "start_time": "167.09999990463257",
            "end_time": "194.09999990463257"
        },
        {
            "id": "803",
            "type": "input",
            "source_block_id": "2667",
            "destination_block_id": "1248",
            "crane": "0",
            "start_time": "612.09999990463257",
            "end_time": "628.09999990463257"
        },
        {
            "id": "684",
            "type": "output",
            "source_block_id": "1550",
            "destination_block_id": "2640",
            "crane": "1",
            "start_time": "619.09999990463257",
            "end_time": "643.09999990463257"
        },
        {
            "id": "804",
            "type": "input",
            "source_block_id": "2670",
            "destination_block_id": "1837",
            "crane": "1",
            "start_time": "228.09999990463257",
            "end_time": "233.09999990463257"
        },
        {
            "id": "805",
            "type": "input",
            "source_block_id": "2654",
            "destination_block_id": "2291",
            "crane": "0",
            "start_time": "116.09999990463257",
            "end_time": "126.09999990463257"
        },
        {
            "id": "806",
            "type": "input",
            "source_block_id": "2682",
            "destination_block_id": "2439",
            "crane": "1",
            "start_time": "150.09999990463257",
            "end_time": "155.09999990463257"
        },
        {
            "id": "807",
            "type": "input",
            "source_block_id": "2703",
            "destination_block_id": "353",
            "crane": "0",
            "start_time": "203.09999990463257",
            "end_time": "206.09999990463257"
        },
        {
            "id": "808",
            "type": "input",
            "source_block_id": "2670",
            "destination_block_id": "1547",
            "crane": "1",
            "start_time": "433.09999990463257",
            "end_time": "441.09999990463257"
        },
        {
            "id": "809",
            "type": "input",
            "source_block_id": "2636",
            "destination_block_id": "168",
            "crane": "1",
            "start_time": "81.099999904632568",
            "end_time": "110.09999990463257"
        },
        {
            "id": "810",
            "type": "input",
            "source_block_id": "2671",
            "destination_block_id": "822",
            "crane": "1",
            "start_time": "271.09999990463257",
            "end_time": "276.09999990463257"
        },
        {
            "id": "811",
            "type": "input",
            "source_block_id": "2661",
            "destination_block_id": "2412",
            "crane": "0",
            "start_time": "530.09999990463257",
            "end_time": "544.09999990463257"
        },
        {
            "id": "812",
            "type": "input",
            "source_block_id": "2641",
            "destination_block_id": "2413",
            "crane": "0",
            "start_time": "732.09999990463257",
            "end_time": "752.09999990463257"
        },
        {
            "id": "813",
            "type": "input",
            "source_block_id": "2630",
            "destination_block_id": "1578",
            "crane": "0",
            "start_time": "128.09999990463257",
            "end_time": "134.09999990463257"
        },
        {
            "id": "416",
            "type": "output",
            "source_block_id": "1481",
            "destination_block_id": "2695",
            "crane": "1",
            "start_time": "570.09999990463257",
            "end_time": "588.09999990463257"
        },
        {
            "id": "814",
            "type": "input",
            "source_block_id": "2728",
            "destination_block_id": "1744",
            "crane": "1",
            "start_time": "757.09999990463257",
            "end_time": "762.09999990463257"
        },
        {
            "id": "154",
            "type": "output",
            "source_block_id": "1915",
            "destination_block_id": "2680",
            "crane": "1",
            "start_time": "142.09999990463257",
            "end_time": "149.09999990463257"
        },
        {
            "id": "815",
            "type": "input",
            "source_block_id": "2719",
            "destination_block_id": "888",
            "crane": "0",
            "start_time": "277.09999990463257",
            "end_time": "282.09999990463257"
        },
        {
            "id": "816",
            "type": "input",
            "source_block_id": "2662",
            "destination_block_id": "889",
            "crane": "0",
            "start_time": "351.09999990463257",
            "end_time": "366.09999990463257"
        },
        {
            "id": "817",
            "type": "input",
            "source_block_id": "2724",
            "destination_block_id": "2544",
            "crane": "1",
            "start_time": "547.09999990463257",
            "end_time": "564.09999990463257"
        },
        {
            "id": "818",
            "type": "input",
            "source_block_id": "2698",
            "destination_block_id": "2416",
            "crane": "1",
            "start_time": "326.09999990463257",
            "end_time": "333.09999990463257"
        },
        {
            "id": "819",
            "type": "input",
            "source_block_id": "2641",
            "destination_block_id": "2282",
            "crane": "0",
            "start_time": "478.09999990463257",
            "end_time": "492.09999990463257"
        },
        {
            "id": "820",
            "type": "input",
            "source_block_id": "2667",
            "destination_block_id": "2507",
            "crane": "0",
            "start_time": "250.09999990463257",
            "end_time": "265.09999990463257"
        },
        {
            "id": "821",
            "type": "input",
            "source_block_id": "2661",
            "destination_block_id": "977",
            "crane": "1",
            "start_time": "212.09999990463257",
            "end_time": "218.09999990463257"
        },
        {
            "id": "822",
            "type": "input",
            "source_block_id": "2645",
            "destination_block_id": "978",
            "crane": "0",
            "start_time": "663.09999990463257",
            "end_time": "674.09999990463257"
        },
        {
            "id": "47",
            "type": "output",
            "source_block_id": "950",
            "destination_block_id": "2690",
            "crane": "1",
            "start_time": "407.09999990463257",
            "end_time": "423.09999990463257"
        },
        {
            "id": "823",
            "type": "input",
            "source_block_id": "2675",
            "destination_block_id": "2417",
            "crane": "1",
            "start_time": "600.09999990463257",
            "end_time": "614.09999990463257"
        },
        {
            "id": "824",
            "type": "input",
            "source_block_id": "2707",
            "destination_block_id": "1092",
            "crane": "0",
            "start_time": "381.09999990463257",
            "end_time": "390.09999990463257"
        },
        {
            "id": "825",
            "type": "input",
            "source_block_id": "2702",
            "destination_block_id": "1712",
            "crane": "1",
            "start_time": "310.09999990463257",
            "end_time": "318.09999990463257"
        },
        {
            "id": "826",
            "type": "input",
            "source_block_id": "2631",
            "destination_block_id": "773",
            "crane": "0",
            "start_time": "225.09999990463257",
            "end_time": "237.09999990463257"
        },
        {
            "id": "108",
            "type": "output",
            "source_block_id": "206",
            "destination_block_id": "2640",
            "crane": "0",
            "start_time": "142.09999990463257",
            "end_time": "156.09999990463257"
        },
        {
            "id": "827",
            "type": "input",
            "source_block_id": "2630",
            "destination_block_id": "1348",
            "crane": "0",
            "start_time": "320.09999990463257",
            "end_time": "343.09999990463257"
        },
        {
            "id": "828",
            "type": "input",
            "source_block_id": "2727",
            "destination_block_id": "2597",
            "crane": "0",
            "start_time": "792.09999990463257",
            "end_time": "822.09999990463257"
        },
        {
            "id": "829",
            "type": "input",
            "source_block_id": "2728",
            "destination_block_id": "2605",
            "crane": "1",
            "start_time": "159.09999990463257",
            "end_time": "163.09999990463257"
        },
        {
            "id": "830",
            "type": "input",
            "source_block_id": "2655",
            "destination_block_id": "1242",
            "crane": "0",
            "start_time": "301.09999990463257",
            "end_time": "312.09999990463257"
        },
        {
            "id": "831",
            "type": "input",
            "source_block_id": "2727",
            "destination_block_id": "2359",
            "crane": "0",
            "start_time": "163.09999990463257",
            "end_time": "180.09999990463257"
        },
        {
            "id": "832",
            "type": "input",
            "source_block_id": "2687",
            "destination_block_id": "143",
            "crane": "1",
            "start_time": "262.09999990463257",
            "end_time": "265.09999990463257"
        },
        {
            "id": "833",
            "type": "input",
            "source_block_id": "2728",
            "destination_block_id": "2533",
            "crane": "1",
            "start_time": "447.09999990463257",
            "end_time": "466.09999990463257"
        },
        {
            "id": "834",
            "type": "input",
            "source_block_id": "2661",
            "destination_block_id": "272",
            "crane": "1",
            "start_time": "208.09999990463257",
            "end_time": "210.09999990463257"
        },
        {
            "id": "835",
            "type": "input",
            "source_block_id": "2633",
            "destination_block_id": "876",
            "crane": "0",
            "start_time": "194.09999990463257",
            "end_time": "200.09999990463257"
        },
        {
            "id": "836",
            "type": "input",
            "source_block_id": "2703",
            "destination_block_id": "877",
            "crane": "0",
            "start_time": "376.09999990463257",
            "end_time": "379.09999990463257"
        },
        {
            "id": "837",
            "type": "input",
            "source_block_id": "2654",
            "destination_block_id": "1519",
            "crane": "1",
            "start_time": "389.09999990463257",
            "end_time": "399.09999990463257"
        },
        {
            "id": "838",
            "type": "input",
            "source_block_id": "2703",
            "destination_block_id": "2461",
            "crane": "0",
            "start_time": "503.09999990463257",
            "end_time": "515.09999990463257"
        },
        {
            "id": "839",
            "type": "input",
            "source_block_id": "2700",
            "destination_block_id": "852",
            "crane": "1",
            "start_time": "589.09999990463257",
            "end_time": "594.09999990463257"
        },
        {
            "id": "840",
            "type": "input",
            "source_block_id": "2723",
            "destination_block_id": "475",
            "crane": "0",
            "start_time": "581.09999990463257",
            "end_time": "607.09999990463257"
        },
        {
            "id": "841",
            "type": "input",
            "source_block_id": "2722",
            "destination_block_id": "1075",
            "crane": "1",
            "start_time": "692.09999990463257",
            "end_time": "722.09999990463257"
        },
        {
            "id": "842",
            "type": "input",
            "source_block_id": "2653",
            "destination_block_id": "1362",
            "crane": "1",
            "start_time": "521.09999990463257",
            "end_time": "535.09999990463257"
        },
        {
            "id": "843",
            "type": "input",
            "source_block_id": "2641",
            "destination_block_id": "910",
            "crane": "0",
            "start_time": "288.09999990463257",
            "end_time": "294.09999990463257"
        },
        {
            "id": "844",
            "type": "input",
            "source_block_id": "2719",
            "destination_block_id": "911",
            "crane": "0",
            "start_time": "464.09999990463257",
            "end_time": "472.09999990463257"
        },
        {
            "id": "84",
            "type": "output",
            "source_block_id": "251",
            "destination_block_id": "2638",
            "crane": "0",
            "start_time": "444.09999990463257",
            "end_time": "458.09999990463257"
        },
        {
            "id": "456",
            "type": "output",
            "source_block_id": "600",
            "destination_block_id": "2704",
            "crane": "1",
            "start_time": "289.09999990463257",
            "end_time": "309.09999990463257"
        },
        {
            "id": "440",
            "type": "output",
            "source_block_id": "2427",
            "destination_block_id": "2626",
            "crane": "0",
            "start_time": "547.09999990463257",
            "end_time": "578.09999990463257"
        },
        {
            "id": "558",
            "type": "yard_movement",
            "source_block_id": "633",
            "destination_block_id": "912",
            "crane": "1",
            "start_time": "774.09999990463257",
            "end_time": "788.09999990463257"
        },
        {
            "id": "45",
            "type": "output",
            "source_block_id": "1750",
            "destination_block_id": "2726",
            "crane": "0",
            "start_time": "875.09999990463257",
            "end_time": "910.09999990463257"
        },
        {
            "id": "371",
            "type": "output",
            "source_block_id": "1591",
            "destination_block_id": "2694",
            "crane": "1",
            "start_time": "792.09999990463257",
            "end_time": "822.09999990463257"
        },
        {
            "id": "359",
            "type": "yard_movement",
            "source_block_id": "632",
            "destination_block_id": "2517",
            "crane": "1",
            "start_time": "857.09999990463257",
            "end_time": "868.09999990463257"
        },
        {
            "id": "340",
            "type": "yard_movement",
            "source_block_id": "631",
            "destination_block_id": "2518",
            "crane": "0",
            "start_time": "924.09999990463257",
            "end_time": "935.09999990463257"
        },
        {
            "id": "34",
            "type": "output",
            "source_block_id": "630",
            "destination_block_id": "2696",
            "crane": "0",
            "start_time": "946.09999990463257",
            "end_time": "959.09999990463257"
        }
    ]
}
