{
    "objective": "6186.6448006473893",
    "BAP cost": "3126",
    "CSP cost": "9247.2896012947767",
    "products": [
        {
            "id": "175",
            "type": "input",
            "source_block_id": "322",
            "destination_block_id": "182",
            "crane": "0",
            "start_time": "1.5",
            "end_time": "9.5"
        },
        {
            "id": "176",
            "type": "input",
            "source_block_id": "289",
            "destination_block_id": "208",
            "crane": "1",
            "start_time": "3.0999999046325684",
            "end_time": "13.099999904632568"
        },
        {
            "id": "177",
            "type": "input",
            "source_block_id": "268",
            "destination_block_id": "74",
            "crane": "1",
            "start_time": "480.69999980926514",
            "end_time": "496.69999980926514"
        },
        {
            "id": "178",
            "type": "input",
            "source_block_id": "308",
            "destination_block_id": "139",
            "crane": "0",
            "start_time": "510.69999980926514",
            "end_time": "525.69999980926514"
        },
        {
            "id": "179",
            "type": "input",
            "source_block_id": "282",
            "destination_block_id": "170",
            "crane": "1",
            "start_time": "22.099999904632568",
            "end_time": "29.099999904632568"
        },
        {
            "id": "180",
            "type": "input",
            "source_block_id": "255",
            "destination_block_id": "9",
            "crane": "0",
            "start_time": "15.699999809265137",
            "end_time": "25.699999809265137"
        },
        {
            "id": "181",
            "type": "input",
            "source_block_id": "264",
            "destination_block_id": "157",
            "crane": "0",
            "start_time": "28.699999809265137",
            "end_time": "35.699999809265137"
        },
        {
            "id": "16",
            "type": "output",
            "source_block_id": "69",
            "destination_block_id": "298",
            "crane": "1",
            "start_time": "52.099999904632568",
            "end_time": "56.099999904632568"
        },
        {
            "id": "182",
            "type": "input",
            "source_block_id": "307",
            "destination_block_id": "207",
            "crane": "1",
            "start_time": "453.69999980926514",
            "end_time": "471.69999980926514"
        },
        {
            "id": "183",
            "type": "input",
            "source_block_id": "323",
            "destination_block_id": "198",
            "crane": "1",
            "start_time": "34.099999904632568",
            "end_time": "36.099999904632568"
        },
        {
            "id": "184",
            "type": "input",
            "source_block_id": "258",
            "destination_block_id": "51",
            "crane": "0",
            "start_time": "42.699999809265137",
            "end_time": "45.699999809265137"
        },
        {
            "id": "185",
            "type": "input",
            "source_block_id": "256",
            "destination_block_id": "59",
            "crane": "0",
            "start_time": "48.699999809265137",
            "end_time": "55.699999809265137"
        },
        {
            "id": "186",
            "type": "input",
            "source_block_id": "323",
            "destination_block_id": "249",
            "crane": "1",
            "start_time": "38.099999904632568",
            "end_time": "39.099999904632568"
        },
        {
            "id": "187",
            "type": "input",
            "source_block_id": "299",
            "destination_block_id": "17",
            "crane": "1",
            "start_time": "40.099999904632568",
            "end_time": "50.099999904632568"
        },
        {
            "id": "188",
            "type": "input",
            "source_block_id": "292",
            "destination_block_id": "34",
            "crane": "0",
            "start_time": "531.69999980926514",
            "end_time": "542.69999980926514"
        },
        {
            "id": "189",
            "type": "input",
            "source_block_id": "284",
            "destination_block_id": "156",
            "crane": "1",
            "start_time": "65.699999809265137",
            "end_time": "75.699999809265137"
        },
        {
            "id": "190",
            "type": "input",
            "source_block_id": "259",
            "destination_block_id": "200",
            "crane": "0",
            "start_time": "78.699999809265137",
            "end_time": "81.699999809265137"
        },
        {
            "id": "191",
            "type": "input",
            "source_block_id": "312",
            "destination_block_id": "7",
            "crane": "0",
            "start_time": "85.699999809265137",
            "end_time": "93.699999809265137"
        },
        {
            "id": "141",
            "type": "output",
            "source_block_id": "194",
            "destination_block_id": "267",
            "crane": "1",
            "start_time": "407.69999980926514",
            "end_time": "419.69999980926514"
        },
        {
            "id": "192",
            "type": "input",
            "source_block_id": "289",
            "destination_block_id": "152",
            "crane": "0",
            "start_time": "405.69999980926514",
            "end_time": "421.69999980926514"
        },
        {
            "id": "193",
            "type": "input",
            "source_block_id": "257",
            "destination_block_id": "191",
            "crane": "1",
            "start_time": "424.69999980926514",
            "end_time": "438.69999980926514"
        },
        {
            "id": "194",
            "type": "input",
            "source_block_id": "284",
            "destination_block_id": "202",
            "crane": "0",
            "start_time": "62.699999809265137",
            "end_time": "76.699999809265137"
        },
        {
            "id": "195",
            "type": "input",
            "source_block_id": "307",
            "destination_block_id": "227",
            "crane": "0",
            "start_time": "450.69999980926514",
            "end_time": "473.69999980926514"
        },
        {
            "id": "196",
            "type": "input",
            "source_block_id": "270",
            "destination_block_id": "111",
            "crane": "0",
            "start_time": "95.699999809265137",
            "end_time": "100.69999980926514"
        },
        {
            "id": "197",
            "type": "input",
            "source_block_id": "292",
            "destination_block_id": "244",
            "crane": "1",
            "start_time": "274.69999980926514",
            "end_time": "284.69999980926514"
        },
        {
            "id": "198",
            "type": "input",
            "source_block_id": "300",
            "destination_block_id": "142",
            "crane": "1",
            "start_time": "251.69999980926514",
            "end_time": "258.69999980926514"
        },
        {
            "id": "199",
            "type": "input",
            "source_block_id": "286",
            "destination_block_id": "69",
            "crane": "1",
            "start_time": "102.69999980926514",
            "end_time": "105.69999980926514"
        },
        {
            "id": "200",
            "type": "input",
            "source_block_id": "286",
            "destination_block_id": "80",
            "crane": "0",
            "start_time": "492.69999980926514",
            "end_time": "504.69999980926514"
        },
        {
            "id": "82",
            "type": "output",
            "source_block_id": "162",
            "destination_block_id": "297",
            "crane": "1",
            "start_time": "81.699999809265137",
            "end_time": "91.699999809265137"
        },
        {
            "id": "201",
            "type": "input",
            "source_block_id": "258",
            "destination_block_id": "223",
            "crane": "0",
            "start_time": "289.69999980926514",
            "end_time": "309.69999980926514"
        },
        {
            "id": "125",
            "type": "output",
            "source_block_id": "221",
            "destination_block_id": "267",
            "crane": "1",
            "start_time": "371.69999980926514",
            "end_time": "385.69999980926514"
        },
        {
            "id": "202",
            "type": "input",
            "source_block_id": "279",
            "destination_block_id": "42",
            "crane": "1",
            "start_time": "343.69999980926514",
            "end_time": "352.69999980926514"
        },
        {
            "id": "161",
            "type": "output",
            "source_block_id": "183",
            "destination_block_id": "252",
            "crane": "0",
            "start_time": "144.69999980926514",
            "end_time": "152.69999980926514"
        },
        {
            "id": "25",
            "type": "output",
            "source_block_id": "188",
            "destination_block_id": "250",
            "crane": "0",
            "start_time": "357.69999980926514",
            "end_time": "371.69999980926514"
        },
        {
            "id": "203",
            "type": "input",
            "source_block_id": "280",
            "destination_block_id": "82",
            "crane": "1",
            "start_time": "122.69999980926514",
            "end_time": "129.69999980926514"
        },
        {
            "id": "10",
            "type": "output",
            "source_block_id": "97",
            "destination_block_id": "288",
            "crane": "1",
            "start_time": "175.69999980926514",
            "end_time": "179.69999980926514"
        },
        {
            "id": "129",
            "type": "output",
            "source_block_id": "138",
            "destination_block_id": "318",
            "crane": "0",
            "start_time": "102.80000305175781",
            "end_time": "116.80000305175781"
        },
        {
            "id": "204",
            "type": "input",
            "source_block_id": "283",
            "destination_block_id": "138",
            "crane": "1",
            "start_time": "222.69999980926514",
            "end_time": "227.69999980926514"
        },
        {
            "id": "205",
            "type": "input",
            "source_block_id": "280",
            "destination_block_id": "8",
            "crane": "1",
            "start_time": "110.69999980926514",
            "end_time": "116.69999980926514"
        },
        {
            "id": "206",
            "type": "input",
            "source_block_id": "259",
            "destination_block_id": "24",
            "crane": "1",
            "start_time": "551.69999980926514",
            "end_time": "572.69999980926514"
        },
        {
            "id": "207",
            "type": "input",
            "source_block_id": "285",
            "destination_block_id": "97",
            "crane": "1",
            "start_time": "287.69999980926514",
            "end_time": "294.69999980926514"
        },
        {
            "id": "208",
            "type": "input",
            "source_block_id": "316",
            "destination_block_id": "0",
            "crane": "0",
            "start_time": "117.80000305175781",
            "end_time": "123.80000305175781"
        },
        {
            "id": "67",
            "type": "output",
            "source_block_id": "165",
            "destination_block_id": "281",
            "crane": "1",
            "start_time": "159.69999980926514",
            "end_time": "163.69999980926514"
        },
        {
            "id": "209",
            "type": "input",
            "source_block_id": "278",
            "destination_block_id": "22",
            "crane": "1",
            "start_time": "190.69999980926514",
            "end_time": "199.69999980926514"
        },
        {
            "id": "210",
            "type": "input",
            "source_block_id": "287",
            "destination_block_id": "56",
            "crane": "0",
            "start_time": "325.69999980926514",
            "end_time": "336.69999980926514"
        },
        {
            "id": "174",
            "type": "output",
            "source_block_id": "184",
            "destination_block_id": "311",
            "crane": "1",
            "start_time": "231.69999980926514",
            "end_time": "247.69999980926514"
        },
        {
            "id": "211",
            "type": "input",
            "source_block_id": "261",
            "destination_block_id": "229",
            "crane": "1",
            "start_time": "136.69999980926514",
            "end_time": "137.69999980926514"
        },
        {
            "id": "212",
            "type": "input",
            "source_block_id": "278",
            "destination_block_id": "60",
            "crane": "1",
            "start_time": "184.69999980926514",
            "end_time": "187.69999980926514"
        },
        {
            "id": "213",
            "type": "input",
            "source_block_id": "312",
            "destination_block_id": "45",
            "crane": "0",
            "start_time": "424.69999980926514",
            "end_time": "445.69999980926514"
        },
        {
            "id": "214",
            "type": "input",
            "source_block_id": "285",
            "destination_block_id": "149",
            "crane": "1",
            "start_time": "165.69999980926514",
            "end_time": "173.69999980926514"
        },
        {
            "id": "24",
            "type": "output",
            "source_block_id": "210",
            "destination_block_id": "290",
            "crane": "1",
            "start_time": "143.69999980926514",
            "end_time": "152.69999980926514"
        },
        {
            "id": "215",
            "type": "input",
            "source_block_id": "308",
            "destination_block_id": "184",
            "crane": "0",
            "start_time": "343.69999980926514",
            "end_time": "353.69999980926514"
        },
        {
            "id": "216",
            "type": "input",
            "source_block_id": "258",
            "destination_block_id": "183",
            "crane": "0",
            "start_time": "155.69999980926514",
            "end_time": "163.69999980926514"
        },
        {
            "id": "217",
            "type": "input",
            "source_block_id": "284",
            "destination_block_id": "247",
            "crane": "1",
            "start_time": "205.69999980926514",
            "end_time": "215.69999980926514"
        },
        {
            "id": "218",
            "type": "input",
            "source_block_id": "289",
            "destination_block_id": "19",
            "crane": "1",
            "start_time": "263.69999980926514",
            "end_time": "273.69999980926514"
        },
        {
            "id": "219",
            "type": "input",
            "source_block_id": "289",
            "destination_block_id": "162",
            "crane": "0",
            "start_time": "314.69999980926514",
            "end_time": "320.69999980926514"
        },
        {
            "id": "220",
            "type": "input",
            "source_block_id": "280",
            "destination_block_id": "210",
            "crane": "0",
            "start_time": "260.69999980926514",
            "end_time": "269.69999980926514"
        },
        {
            "id": "221",
            "type": "input",
            "source_block_id": "278",
            "destination_block_id": "81",
            "crane": "0",
            "start_time": "179.69999980926514",
            "end_time": "186.69999980926514"
        },
        {
            "id": "222",
            "type": "input",
            "source_block_id": "258",
            "destination_block_id": "1",
            "crane": "0",
            "start_time": "196.69999980926514",
            "end_time": "198.69999980926514"
        },
        {
            "id": "223",
            "type": "input",
            "source_block_id": "282",
            "destination_block_id": "89",
            "crane": "0",
            "start_time": "171.69999980926514",
            "end_time": "175.69999980926514"
        },
        {
            "id": "224",
            "type": "input",
            "source_block_id": "261",
            "destination_block_id": "185",
            "crane": "0",
            "start_time": "275.69999980926514",
            "end_time": "281.69999980926514"
        },
        {
            "id": "225",
            "type": "input",
            "source_block_id": "299",
            "destination_block_id": "234",
            "crane": "1",
            "start_time": "325.69999980926514",
            "end_time": "339.69999980926514"
        },
        {
            "id": "226",
            "type": "input",
            "source_block_id": "280",
            "destination_block_id": "88",
            "crane": "1",
            "start_time": "359.69999980926514",
            "end_time": "363.69999980926514"
        },
        {
            "id": "227",
            "type": "input",
            "source_block_id": "282",
            "destination_block_id": "135",
            "crane": "0",
            "start_time": "248.69999980926514",
            "end_time": "254.69999980926514"
        },
        {
            "id": "228",
            "type": "input",
            "source_block_id": "280",
            "destination_block_id": "53",
            "crane": "0",
            "start_time": "215.69999980926514",
            "end_time": "226.69999980926514"
        },
        {
            "id": "229",
            "type": "input",
            "source_block_id": "270",
            "destination_block_id": "165",
            "crane": "0",
            "start_time": "234.69999980926514",
            "end_time": "241.69999980926514"
        },
        {
            "id": "106",
            "type": "output",
            "source_block_id": "78",
            "destination_block_id": "252",
            "crane": "0",
            "start_time": "189.69999980926514",
            "end_time": "193.69999980926514"
        },
        {
            "id": "230",
            "type": "input",
            "source_block_id": "278",
            "destination_block_id": "235",
            "crane": "1",
            "start_time": "507.69999980926514",
            "end_time": "517.69999980926514"
        },
        {
            "id": "231",
            "type": "input",
            "source_block_id": "308",
            "destination_block_id": "154",
            "crane": "0",
            "start_time": "200.69999980926514",
            "end_time": "205.69999980926514"
        },
        {
            "id": "232",
            "type": "input",
            "source_block_id": "312",
            "destination_block_id": "221",
            "crane": "0",
            "start_time": "380.69999980926514",
            "end_time": "402.69999980926514"
        }
    ]
}
