{
  "instance": "10_1_0.3l.json",
  "comments": "solution by integrated AWSP formulation",
  "objective": 38.41223707737077,
  "bap_objective": 0.0,
  "csp_objective": 76.82447415474162,
  "products": [
    {
      "id": 141,
      "type": "output",
      "source_block_id": 507,
      "dest_block_id": 1109,
      "crane": 0,
      "start_time": 54.69999980926433,
      "end_time": 97.69999980926433,
      "source_cor": "(8,11,0)",
      "dest_cor": "(51,3,0)"
    },
    {
      "id": 300,
      "type": "input",
      "source_block_id": 1141,
      "dest_block_id": 899,
      "crane": 1,
      "start_time": 34.69999980926459,
      "end_time": 35.69999980926459,
      "source_cor": "(51,19,0)",
      "dest_cor": "(50,18,0)"
    },
    {
      "id": 301,
      "type": "input",
      "source_block_id": 1138,
      "dest_block_id": 902,
      "crane": 0,
      "start_time": 189.82769900629634,
      "end_time": 192.82769900629634,
      "source_cor": "(0,18,0)",
      "dest_cor": "(3,19,0)"
    },
    {
      "id": 302,
      "type": "input",
      "source_block_id": 1094,
      "dest_block_id": 198,
      "crane": 1,
      "start_time": 6.099999904632567,
      "end_time": 10.099999904632567,
      "source_cor": "(47,0,0)",
      "dest_cor": "(49,4,0)"
    },
    {
      "id": 303,
      "type": "input",
      "source_block_id": 1050,
      "dest_block_id": 19,
      "crane": 0,
      "start_time": 9.699999809265135,
      "end_time": 14.699999809265135,
      "source_cor": "(25,0,0)",
      "dest_cor": "(20,1,0)"
    },
    {
      "id": 304,
      "type": "input",
      "source_block_id": 1012,
      "dest_block_id": 60,
      "crane": 0,
      "start_time": 142.699999809264,
      "end_time": 147.699999809264,
      "source_cor": "(6,0,0)",
      "dest_cor": "(11,2,0)"
    },
    {
      "id": 305,
      "type": "input",
      "source_block_id": 1030,
      "dest_block_id": 13,
      "crane": 0,
      "start_time": 19.699999809265137,
      "end_time": 20.699999809265137,
      "source_cor": "(15,0,0)",
      "dest_cor": "(14,1,0)"
    },
    {
      "id": 306,
      "type": "input",
      "source_block_id": 1114,
      "dest_block_id": 250,
      "crane": 0,
      "start_time": 34.69999980926459,
      "end_time": 35.69999980926459,
      "source_cor": "(0,6,0)",
      "dest_cor": "(1,6,0)"
    },
    {
      "id": 307,
      "type": "input",
      "source_block_id": 1125,
      "dest_block_id": 499,
      "crane": 1,
      "start_time": 24.499999999999993,
      "end_time": 25.499999999999993,
      "source_cor": "(51,11,0)",
      "dest_cor": "(50,10,0)"
    },
    {
      "id": 308,
      "type": "input",
      "source_block_id": 1134,
      "dest_block_id": 851,
      "crane": 0,
      "start_time": 45.69999980926458,
      "end_time": 47.69999980926458,
      "source_cor": "(0,16,0)",
      "dest_cor": "(2,18,0)"
    }
  ]
}