{
  "instance": "10_1_0.5m.json",
  "comments": "solution by integrated AWSP formulation",
  "objective": 23.539369165824148,
  "bap_objective": 7.0,
  "csp_objective": 40.078738331648296,
  "products": [
    {
      "id": 182,
      "type": "output",
      "source_block_id": 416,
      "dest_block_id": 594,
      "crane": 1,
      "start_time": 35.09999990463663,
      "end_time": 39.09999990463663,
      "source_cor": "(32,12,0)",
      "dest_cor": "(34,16,0)"
    },
    {
      "id": 262,
      "type": "input",
      "source_block_id": 553,
      "dest_block_id": 117,
      "crane": 0,
      "start_time": 1.4999999999999996,
      "end_time": 5.5,
      "source_cor": "(14,0,0)",
      "dest_cor": "(13,4,0)"
    },
    {
      "id": 263,
      "type": "input",
      "source_block_id": 562,
      "dest_block_id": 201,
      "crane": 1,
      "start_time": 3.0999999046325675,
      "end_time": 13.099999904632568,
      "source_cor": "(18,16,0)",
      "dest_cor": "(27,6,0)"
    },
    {
      "id": 264,
      "type": "input",
      "source_block_id": 585,
      "dest_block_id": 64,
      "crane": 1,
      "start_time": 19.099999904634842,
      "end_time": 21.099999904634842,
      "source_cor": "(30,0,0)",
      "dest_cor": "(30,2,0)"
    },
    {
      "id": 265,
      "type": "input",
      "source_block_id": 541,
      "dest_block_id": 81,
      "crane": 0,
      "start_time": 10.499999999999998,
      "end_time": 14.499999999999998,
      "source_cor": "(8,0,0)",
      "dest_cor": "(12,3,0)"
    },
    {
      "id": 266,
      "type": "input",
      "source_block_id": 583,
      "dest_block_id": 313,
      "crane": 1,
      "start_time": 23.099999904634856,
      "end_time": 32.099999904634856,
      "source_cor": "(29,0,0)",
      "dest_cor": "(34,9,0)"
    },
    {
      "id": 267,
      "type": "input",
      "source_block_id": 555,
      "dest_block_id": 16,
      "crane": 0,
      "start_time": 17.5,
      "end_time": 19.5,
      "source_cor": "(15,0,0)",
      "dest_cor": "(17,1,0)"
    },
    {
      "id": 268,
      "type": "input",
      "source_block_id": 559,
      "dest_block_id": 120,
      "crane": 0,
      "start_time": 20.5,
      "end_time": 24.5,
      "source_cor": "(17,0,0)",
      "dest_cor": "(16,4,0)"
    },
    {
      "id": 269,
      "type": "input",
      "source_block_id": 571,
      "dest_block_id": 191,
      "crane": 0,
      "start_time": 38.500000000000455,
      "end_time": 44.500000000000455,
      "source_cor": "(23,0,0)",
      "dest_cor": "(17,6,0)"
    },
    {
      "id": 270,
      "type": "input",
      "source_block_id": 553,
      "dest_block_id": 157,
      "crane": 0,
      "start_time": 28.5,
      "end_time": 33.5,
      "source_cor": "(14,0,0)",
      "dest_cor": "(18,5,0)"
    }
  ]
}