{
  "instance": "10_5_0.5m.json",
  "comments": "solution by integrated AWSP formulation",
  "objective": 119.29957083720703,
  "bap_objective": 42.0,
  "csp_objective": 196.59914167441406,
  "products": [
    {
      "id": 94,
      "type": "output",
      "source_block_id": 2531,
      "dest_block_id": 2665,
      "crane": 0,
      "start_time": 64.0,
      "end_time": 79.0,
      "source_cor": "(17,15,1)",
      "dest_cor": "(20,0,0)"
    },
    {
      "id": 105,
      "type": "yard_movement",
      "source_block_id": 2532,
      "dest_block_id": 2508,
      "crane": 0,
      "start_time": 14.0,
      "end_time": 19.0,
      "source_cor": "(17,15,2)",
      "dest_cor": "(12,15,3)"
    },
    {
      "id": 1151,
      "type": "yard_movement",
      "source_block_id": 2533,
      "dest_block_id": 2507,
      "crane": 0,
      "start_time": 4.0,
      "end_time": 9.0,
      "source_cor": "(17,15,3)",
      "dest_cor": "(12,15,2)"
    },
    {
      "id": 1255,
      "type": "yard_movement",
      "source_block_id": 2534,
      "dest_block_id": 2544,
      "crane": 0,
      "start_time": 0.0,
      "end_time": 2.0,
      "source_cor": "(17,15,4)",
      "dest_cor": "(19,15,4)"
    },
    {
      "id": 1312,
      "type": "input",
      "source_block_id": 2683,
      "dest_block_id": 849,
      "crane": 1,
      "start_time": 1.4999999999999996,
      "end_time": 6.5,
      "source_cor": "(29,0,0)",
      "dest_cor": "(30,5,4)"
    },
    {
      "id": 1313,
      "type": "input",
      "source_block_id": 2714,
      "dest_block_id": 2248,
      "crane": 1,
      "start_time": 22.5,
      "end_time": 28.5,
      "source_cor": "(36,8,0)",
      "dest_cor": "(30,13,3)"
    },
    {
      "id": 1314,
      "type": "input",
      "source_block_id": 2713,
      "dest_block_id": 2479,
      "crane": 0,
      "start_time": 39.0,
      "end_time": 46.0,
      "source_cor": "(0,8,0)",
      "dest_cor": "(6,15,4)"
    },
    {
      "id": 1315,
      "type": "input",
      "source_block_id": 2714,
      "dest_block_id": 2079,
      "crane": 1,
      "start_time": 12.5,
      "end_time": 17.5,
      "source_cor": "(36,8,0)",
      "dest_cor": "(31,12,4)"
    },
    {
      "id": 1316,
      "type": "input",
      "source_block_id": 2675,
      "dest_block_id": 298,
      "crane": 1,
      "start_time": 67.49999999999989,
      "end_time": 70.49999999999989,
      "source_cor": "(25,0,0)",
      "dest_cor": "(25,2,3)"
    },
    {
      "id": 1317,
      "type": "input",
      "source_block_id": 2662,
      "dest_block_id": 2036,
      "crane": 1,
      "start_time": 40.49999999999994,
      "end_time": 45.49999999999994,
      "source_cor": "(18,16,0)",
      "dest_cor": "(23,12,1)"
    },
    {
      "id": 1318,
      "type": "input",
      "source_block_id": 2658,
      "dest_block_id": 1624,
      "crane": 0,
      "start_time": 23.0,
      "end_time": 29.0,
      "source_cor": "(16,16,0)",
      "dest_cor": "(10,10,4)"
    },
    {
      "id": 1319,
      "type": "input",
      "source_block_id": 2632,
      "dest_block_id": 1448,
      "crane": 0,
      "start_time": 50.0,
      "end_time": 57.0,
      "source_cor": "(3,16,0)",
      "dest_cor": "(10,9,3)"
    },
    {
      "id": 1320,
      "type": "input",
      "source_block_id": 2660,
      "dest_block_id": 1858,
      "crane": 1,
      "start_time": 51.49999999999994,
      "end_time": 56.49999999999994,
      "source_cor": "(17,16,0)",
      "dest_cor": "(22,11,3)"
    }
  ]
}