{
  "instance": "10_5_0.3s.json",
  "comments": "solution by integrated AWSP formulation",
  "objective": 64.11922384835414,
  "bap_objective": 35.0,
  "csp_objective": 93.23844769670829,
  "products": [
    {
      "id": 82,
      "type": "output",
      "source_block_id": 435,
      "dest_block_id": 1304,
      "crane": 0,
      "start_time": 41.49999999999977,
      "end_time": 54.49999999999977,
      "source_cor": "(13,4,0)",
      "dest_cor": "(0,1,0)"
    },
    {
      "id": 265,
      "type": "yard_movement",
      "source_block_id": 436,
      "dest_block_id": 951,
      "crane": 1,
      "start_time": 0.0,
      "end_time": 4.0,
      "source_cor": "(13,4,1)",
      "dest_cor": "(16,8,1)"
    },
    {
      "id": 375,
      "type": "input",
      "source_block_id": 1270,
      "dest_block_id": 285,
      "crane": 0,
      "start_time": 1.4999999999999996,
      "end_time": 4.5,
      "source_cor": "(10,0,0)",
      "dest_cor": "(8,3,0)"
    },
    {
      "id": 376,
      "type": "input",
      "source_block_id": 1287,
      "dest_block_id": 1075,
      "crane": 1,
      "start_time": 8.600000381469666,
      "end_time": 10.600000381469666,
      "source_cor": "(18,11,0)",
      "dest_cor": "(16,9,0)"
    },
    {
      "id": 377,
      "type": "input",
      "source_block_id": 1259,
      "dest_block_id": 908,
      "crane": 0,
      "start_time": 12.500000000000014,
      "end_time": 15.500000000000014,
      "source_cor": "(4,11,0)",
      "dest_cor": "(7,8,3)"
    },
    {
      "id": 378,
      "type": "input",
      "source_block_id": 1261,
      "dest_block_id": 637,
      "crane": 0,
      "start_time": 18.49999999999997,
      "end_time": 23.49999999999997,
      "source_cor": "(5,11,0)",
      "dest_cor": "(3,6,2)"
    },
    {
      "id": 379,
      "type": "input",
      "source_block_id": 1285,
      "dest_block_id": 712,
      "crane": 1,
      "start_time": 12.600000381469723,
      "end_time": 17.600000381469723,
      "source_cor": "(17,11,0)",
      "dest_cor": "(18,6,2)"
    },
    {
      "id": 380,
      "type": "input",
      "source_block_id": 1299,
      "dest_block_id": 1232,
      "crane": 1,
      "start_time": 23.600000381462422,
      "end_time": 25.600000381462422,
      "source_cor": "(24,11,0)",
      "dest_cor": "(22,10,2)"
    },
    {
      "id": 381,
      "type": "input",
      "source_block_id": 1307,
      "dest_block_id": 362,
      "crane": 1,
      "start_time": 37.0,
      "end_time": 40.0,
      "source_cor": "(26,2,0)",
      "dest_cor": "(23,3,2)"
    },
    {
      "id": 382,
      "type": "input",
      "source_block_id": 1261,
      "dest_block_id": 72,
      "crane": 0,
      "start_time": 28.499999999999773,
      "end_time": 38.49999999999977,
      "source_cor": "(5,11,0)",
      "dest_cor": "(15,1,2)"
    },
    {
      "id": 383,
      "type": "input",
      "source_block_id": 1295,
      "dest_block_id": 739,
      "crane": 1,
      "start_time": 28.0,
      "end_time": 33.0,
      "source_cor": "(22,11,0)",
      "dest_cor": "(23,6,4)"
    }
  ]
}