{
  "instance": "10_3_0.3s.json",
  "comments": "solution by integrated AWSP formulation",
  "objective": 62.53936564865164,
  "bap_objective": 49.0,
  "csp_objective": 76.07873129730328,
  "products": [
    {
      "id": 85,
      "type": "output",
      "source_block_id": 588,
      "dest_block_id": 814,
      "crane": 1,
      "start_time": 39.39999961851572,
      "end_time": 61.39999961851572,
      "source_cor": "(22,8,0)",
      "dest_cor": "(0,6,0)"
    },
    {
      "id": 225,
      "type": "input",
      "source_block_id": 786,
      "dest_block_id": 283,
      "crane": 1,
      "start_time": 1.4999999999999996,
      "end_time": 5.5,
      "source_cor": "(18,0,0)",
      "dest_cor": "(20,4,1)"
    },
    {
      "id": 226,
      "type": "input",
      "source_block_id": 807,
      "dest_block_id": 149,
      "crane": 1,
      "start_time": 11.499999999995747,
      "end_time": 13.499999999995747,
      "source_cor": "(26,2,0)",
      "dest_cor": "(25,2,2)"
    },
    {
      "id": 227,
      "type": "input",
      "source_block_id": 808,
      "dest_block_id": 304,
      "crane": 0,
      "start_time": 6.099999904632567,
      "end_time": 8.099999904632567,
      "source_cor": "(0,3,0)",
      "dest_cor": "(2,5,1)"
    },
    {
      "id": 228,
      "type": "input",
      "source_block_id": 755,
      "dest_block_id": 541,
      "crane": 0,
      "start_time": 14.099999904632567,
      "end_time": 18.09999990463257,
      "source_cor": "(2,11,0)",
      "dest_cor": "(6,8,1)"
    },
    {
      "id": 229,
      "type": "input",
      "source_block_id": 770,
      "dest_block_id": 186,
      "crane": 0,
      "start_time": 34.49999999999996,
      "end_time": 37.49999999999996,
      "source_cor": "(10,0,0)",
      "dest_cor": "(13,3,0)"
    },
    {
      "id": 230,
      "type": "input",
      "source_block_id": 786,
      "dest_block_id": 293,
      "crane": 1,
      "start_time": 21.399999618522983,
      "end_time": 26.399999618522983,
      "source_cor": "(18,0,0)",
      "dest_cor": "(23,4,2)"
    },
    {
      "id": 231,
      "type": "input",
      "source_block_id": 792,
      "dest_block_id": 58,
      "crane": 1,
      "start_time": 18.39999961853027,
      "end_time": 19.39999961853027,
      "source_cor": "(21,0,0)",
      "dest_cor": "(20,1,1)"
    },
    {
      "id": 232,
      "type": "input",
      "source_block_id": 816,
      "dest_block_id": 378,
      "crane": 0,
      "start_time": 24.499999999999996,
      "end_time": 26.499999999999996,
      "source_cor": "(0,7,0)",
      "dest_cor": "(2,6,0)"
    },
    {
      "id": 233,
      "type": "input",
      "source_block_id": 800,
      "dest_block_id": 430,
      "crane": 1,
      "start_time": 30.39999961851936,
      "end_time": 36.39999961851936,
      "source_cor": "(25,0,0)",
      "dest_cor": "(19,6,1)"
    }
  ]
}