{
  "instance": "10_1_0.7s.json",
  "comments": "solution by integrated AWSP formulation",
  "objective": 107.62813587245493,
  "bap_objective": 156.0,
  "csp_objective": 59.25627174490988,
  "products": [
    {
      "id": 16,
      "type": "output",
      "source_block_id": 69,
      "dest_block_id": 298,
      "crane": 1,
      "start_time": 21.299999237060547,
      "end_time": 25.299999237060547,
      "source_cor": "(20,3,0)",
      "dest_cor": "(24,0,0)"
    },
    {
      "id": 175,
      "type": "input",
      "source_block_id": 322,
      "dest_block_id": 51,
      "crane": 0,
      "start_time": 1.5,
      "end_time": 8.5,
      "source_cor": "(0,10,0)",
      "dest_cor": "(2,3,0)"
    },
    {
      "id": 176,
      "type": "input",
      "source_block_id": 289,
      "dest_block_id": 88,
      "crane": 1,
      "start_time": 3.5,
      "end_time": 10.5,
      "source_cor": "(19,11,0)",
      "dest_cor": "(14,4,0)"
    },
    {
      "id": 177,
      "type": "input",
      "source_block_id": 268,
      "dest_block_id": 34,
      "crane": 0,
      "start_time": 21.5,
      "end_time": 23.5,
      "source_cor": "(9,0,0)",
      "dest_cor": "(10,2,0)"
    },
    {
      "id": 178,
      "type": "input",
      "source_block_id": 308,
      "dest_block_id": 0,
      "crane": 0,
      "start_time": 10.5,
      "end_time": 12.5,
      "source_cor": "(0,3,0)",
      "dest_cor": "(1,1,0)"
    },
    {
      "id": 179,
      "type": "input",
      "source_block_id": 282,
      "dest_block_id": 42,
      "crane": 1,
      "start_time": 14.5,
      "end_time": 16.5,
      "source_cor": "(16,0,0)",
      "dest_cor": "(18,2,0)"
    },
    {
      "id": 180,
      "type": "input",
      "source_block_id": 255,
      "dest_block_id": 81,
      "crane": 0,
      "start_time": 32.5,
      "end_time": 39.5,
      "source_cor": "(2,11,0)",
      "dest_cor": "(7,4,0)"
    },
    {
      "id": 181,
      "type": "input",
      "source_block_id": 264,
      "dest_block_id": 8,
      "crane": 0,
      "start_time": 18.5,
      "end_time": 20.5,
      "source_cor": "(7,0,0)",
      "dest_cor": "(9,1,0)"
    },
    {
      "id": 182,
      "type": "input",
      "source_block_id": 307,
      "dest_block_id": 22,
      "crane": 1,
      "start_time": 27.299999237060547,
      "end_time": 30.299999237060547,
      "source_cor": "(26,2,0)",
      "dest_cor": "(23,1,0)"
    },
    {
      "id": 183,
      "type": "input",
      "source_block_id": 323,
      "dest_block_id": 198,
      "crane": 1,
      "start_time": 39.29999923706055,
      "end_time": 41.29999923706055,
      "source_cor": "(26,10,0)",
      "dest_cor": "(24,8,0)"
    }
  ]
}