{
  "instance": "20_3_0.5l.json",
  "comments": "solution by integrated AWSP formulation",
  "objective": 313.744164021302,
  "bap_objective": 49.0,
  "csp_objective": 578.488328042604,
  "products": [
    {
      "id": 912,
      "type": "output",
      "source_block_id": 1069,
      "dest_block_id": 3111,
      "crane": 1,
      "start_time": 144.09999990463206,
      "end_time": 188.09999990463206,
      "source_cor": "(7,8,1)",
      "dest_cor": "(51,4,0)"
    },
    {
      "id": 953,
      "type": "output",
      "source_block_id": 1528,
      "dest_block_id": 3065,
      "crane": 0,
      "start_time": 150.09999990463206,
      "end_time": 172.09999990463206,
      "source_cor": "(10,11,1)",
      "dest_cor": "(32,21,0)"
    },
    {
      "id": 1394,
      "type": "yard_movement",
      "source_block_id": 1070,
      "dest_block_id": 530,
      "crane": 1,
      "start_time": 104.09999990463234,
      "end_time": 124.09999990463234,
      "source_cor": "(7,8,2)",
      "dest_cor": "(27,4,2)"
    },
    {
      "id": 1500,
      "type": "input",
      "source_block_id": 3072,
      "dest_block_id": 1469,
      "crane": 1,
      "start_time": 40.099999904632696,
      "end_time": 50.099999904632696,
      "source_cor": "(36,0,0)",
      "dest_cor": "(40,10,2)"
    },
    {
      "id": 1501,
      "type": "input",
      "source_block_id": 3018,
      "dest_block_id": 67,
      "crane": 0,
      "start_time": 195.09999990463223,
      "end_time": 209.09999990463223,
      "source_cor": "(9,0,0)",
      "dest_cor": "(23,1,1)"
    },
    {
      "id": 1502,
      "type": "input",
      "source_block_id": 3005,
      "dest_block_id": 953,
      "crane": 1,
      "start_time": 6.099999904632567,
      "end_time": 22.09999990463257,
      "source_cor": "(2,21,0)",
      "dest_cor": "(18,7,2)"
    },
    {
      "id": 1503,
      "type": "input",
      "source_block_id": 3134,
      "dest_block_id": 755,
      "crane": 0,
      "start_time": 9.699999809265135,
      "end_time": 19.699999809265137,
      "source_cor": "(0,16,0)",
      "dest_cor": "(2,6,2)"
    },
    {
      "id": 1504,
      "type": "input",
      "source_block_id": 3011,
      "dest_block_id": 2966,
      "crane": 0,
      "start_time": 398.5514037079713,
      "end_time": 432.5514037079713,
      "source_cor": "(5,21,0)",
      "dest_cor": "(39,20,2)"
    },
    {
      "id": 1505,
      "type": "input",
      "source_block_id": 3116,
      "dest_block_id": 451,
      "crane": 0,
      "start_time": 21.699999809265137,
      "end_time": 24.699999809265137,
      "source_cor": "(0,7,0)",
      "dest_cor": "(1,4,1)"
    },
    {
      "id": 1506,
      "type": "input",
      "source_block_id": 3116,
      "dest_block_id": 1242,
      "crane": 0,
      "start_time": 27.699999809265137,
      "end_time": 42.69999980926514,
      "source_cor": "(0,7,0)",
      "dest_cor": "(15,9,0)"
    },
    {
      "id": 1507,
      "type": "input",
      "source_block_id": 3072,
      "dest_block_id": 386,
      "crane": 1,
      "start_time": 60.09999990463272,
      "end_time": 67.09999990463271,
      "source_cor": "(36,0,0)",
      "dest_cor": "(29,3,2)"
    },
    {
      "id": 1508,
      "type": "input",
      "source_block_id": 3049,
      "dest_block_id": 2310,
      "crane": 1,
      "start_time": 85.09999990463231,
      "end_time": 90.09999990463231,
      "source_cor": "(24,21,0)",
      "dest_cor": "(21,16,0)"
    },
    {
      "id": 1509,
      "type": "input",
      "source_block_id": 3073,
      "dest_block_id": 812,
      "crane": 1,
      "start_time": 271.09999990463194,
      "end_time": 286.09999990463194,
      "source_cor": "(36,21,0)",
      "dest_cor": "(21,6,2)"
    },
    {
      "id": 1510,
      "type": "input",
      "source_block_id": 3116,
      "dest_block_id": 0,
      "crane": 0,
      "start_time": 57.69999980926514,
      "end_time": 63.69999980926514,
      "source_cor": "(0,7,0)",
      "dest_cor": "(1,1,0)"
    },
    {
      "id": 1511,
      "type": "input",
      "source_block_id": 3014,
      "dest_block_id": 342,
      "crane": 0,
      "start_time": 69.69999980926515,
      "end_time": 77.69999980926515,
      "source_cor": "(7,0,0)",
      "dest_cor": "(15,3,0)"
    },
    {
      "id": 1512,
      "type": "input",
      "source_block_id": 3077,
      "dest_block_id": 1436,
      "crane": 1,
      "start_time": 205.09999990463191,
      "end_time": 216.09999990463191,
      "source_cor": "(38,21,0)",
      "dest_cor": "(29,10,2)"
    },
    {
      "id": 1513,
      "type": "input",
      "source_block_id": 3007,
      "dest_block_id": 2851,
      "crane": 0,
      "start_time": 95.69999980926515,
      "end_time": 97.69999980926515,
      "source_cor": "(3,21,0)",
      "dest_cor": "(1,20,1)"
    },
    {
      "id": 1514,
      "type": "input",
      "source_block_id": 3102,
      "dest_block_id": 2929,
      "crane": 1,
      "start_time": 238.09999990463194,
      "end_time": 262.09999990463194,
      "source_cor": "(51,0,0)",
      "dest_cor": "(27,20,1)"
    },
    {
      "id": 1515,
      "type": "input",
      "source_block_id": 3132,
      "dest_block_id": 1358,
      "crane": 0,
      "start_time": 104.09999990463228,
      "end_time": 109.09999990463228,
      "source_cor": "(0,15,0)",
      "dest_cor": "(3,10,2)"
    },
    {
      "id": 1516,
      "type": "input",
      "source_block_id": 3136,
      "dest_block_id": 1829,
      "crane": 0,
      "start_time": 124.09999990463234,
      "end_time": 134.09999990463234,
      "source_cor": "(0,17,0)",
      "dest_cor": "(10,13,2)"
    },
    {
      "id": 1517,
      "type": "input",
      "source_block_id": 3032,
      "dest_block_id": 11,
      "crane": 0,
      "start_time": 271.099999904632,
      "end_time": 283.099999904632,
      "source_cor": "(16,0,0)",
      "dest_cor": "(4,1,2)"
    }
  ]
}