{
  "instance": "20_1_0.3m.json",
  "comments": "solution by integrated AWSP formulation",
  "objective": 118.45417080731843,
  "bap_objective": 1.0,
  "csp_objective": 235.9083416146368,
  "products": [
    {
      "id": 10,
      "type": "output",
      "source_block_id": 248,
      "dest_block_id": 577,
      "crane": 0,
      "start_time": 66.0999999045951,
      "end_time": 88.0999999045951,
      "source_cor": "(4,8,0)",
      "dest_cor": "(26,0,0)"
    },
    {
      "id": 135,
      "type": "output",
      "source_block_id": 54,
      "dest_block_id": 535,
      "crane": 0,
      "start_time": 100.09999990460813,
      "end_time": 115.09999990460813,
      "source_cor": "(20,2,0)",
      "dest_cor": "(5,0,0)"
    },
    {
      "id": 157,
      "type": "input",
      "source_block_id": 582,
      "dest_block_id": 450,
      "crane": 1,
      "start_time": 1.4999999999999996,
      "end_time": 4.5,
      "source_cor": "(28,16,0)",
      "dest_cor": "(31,13,0)"
    },
    {
      "id": 158,
      "type": "input",
      "source_block_id": 628,
      "dest_block_id": 349,
      "crane": 1,
      "start_time": 9.499999999992736,
      "end_time": 14.499999999992736,
      "source_cor": "(36,15,0)",
      "dest_cor": "(35,10,0)"
    },
    {
      "id": 159,
      "type": "input",
      "source_block_id": 564,
      "dest_block_id": 472,
      "crane": 0,
      "start_time": 6.099999904632567,
      "end_time": 8.099999904632567,
      "source_cor": "(19,16,0)",
      "dest_cor": "(18,14,0)"
    },
    {
      "id": 160,
      "type": "input",
      "source_block_id": 554,
      "dest_block_id": 394,
      "crane": 0,
      "start_time": 12.099999904630954,
      "end_time": 16.099999904630955,
      "source_cor": "(14,16,0)",
      "dest_cor": "(10,12,0)"
    },
    {
      "id": 161,
      "type": "input",
      "source_block_id": 583,
      "dest_block_id": 95,
      "crane": 1,
      "start_time": 28.499999999985576,
      "end_time": 31.499999999985576,
      "source_cor": "(29,0,0)",
      "dest_cor": "(26,3,0)"
    },
    {
      "id": 162,
      "type": "input",
      "source_block_id": 622,
      "dest_block_id": 313,
      "crane": 1,
      "start_time": 16.49999999999274,
      "end_time": 19.49999999999274,
      "source_cor": "(36,12,0)",
      "dest_cor": "(34,9,0)"
    },
    {
      "id": 163,
      "type": "input",
      "source_block_id": 536,
      "dest_block_id": 497,
      "crane": 0,
      "start_time": 21.099999904630955,
      "end_time": 24.099999904630955,
      "source_cor": "(5,16,0)",
      "dest_cor": "(8,15,0)"
    },
    {
      "id": 164,
      "type": "input",
      "source_block_id": 536,
      "dest_block_id": 390,
      "crane": 0,
      "start_time": 27.099999904630955,
      "end_time": 31.099999904630955,
      "source_cor": "(5,16,0)",
      "dest_cor": "(6,12,0)"
    },
    {
      "id": 165,
      "type": "input",
      "source_block_id": 583,
      "dest_block_id": 28,
      "crane": 1,
      "start_time": 34.4999999999783,
      "end_time": 35.4999999999783,
      "source_cor": "(29,0,0)",
      "dest_cor": "(29,1,0)"
    },
    {
      "id": 166,
      "type": "input",
      "source_block_id": 530,
      "dest_block_id": 466,
      "crane": 0,
      "start_time": 35.099999904630955,
      "end_time": 45.099999904630955,
      "source_cor": "(2,16,0)",
      "dest_cor": "(12,14,0)"
    },
    {
      "id": 167,
      "type": "input",
      "source_block_id": 603,
      "dest_block_id": 177,
      "crane": 0,
      "start_time": 61.099999904595094,
      "end_time": 64.0999999045951,
      "source_cor": "(0,3,0)",
      "dest_cor": "(3,6,0)"
    },
    {
      "id": 168,
      "type": "input",
      "source_block_id": 597,
      "dest_block_id": 66,
      "crane": 1,
      "start_time": 42.499999999971024,
      "end_time": 46.499999999971024,
      "source_cor": "(36,0,0)",
      "dest_cor": "(32,2,0)"
    },
    {
      "id": 169,
      "type": "input",
      "source_block_id": 591,
      "dest_block_id": 244,
      "crane": 1,
      "start_time": 48.499999999971024,
      "end_time": 55.499999999971024,
      "source_cor": "(33,0,0)",
      "dest_cor": "(35,7,0)"
    },
    {
      "id": 170,
      "type": "input",
      "source_block_id": 554,
      "dest_block_id": 502,
      "crane": 0,
      "start_time": 47.09999990462995,
      "end_time": 48.09999990462995,
      "source_cor": "(14,16,0)",
      "dest_cor": "(13,15,0)"
    },
    {
      "id": 171,
      "type": "input",
      "source_block_id": 587,
      "dest_block_id": 200,
      "crane": 1,
      "start_time": 88.49999952314505,
      "end_time": 94.49999952314505,
      "source_cor": "(31,0,0)",
      "dest_cor": "(26,6,0)"
    },
    {
      "id": 172,
      "type": "input",
      "source_block_id": 582,
      "dest_block_id": 518,
      "crane": 1,
      "start_time": 64.4999999999675,
      "end_time": 65.4999999999675,
      "source_cor": "(28,16,0)",
      "dest_cor": "(29,15,0)"
    },
    {
      "id": 173,
      "type": "input",
      "source_block_id": 597,
      "dest_block_id": 64,
      "crane": 1,
      "start_time": 80.49999999996024,
      "end_time": 86.49999999996024,
      "source_cor": "(36,0,0)",
      "dest_cor": "(30,2,0)"
    },
    {
      "id": 174,
      "type": "input",
      "source_block_id": 567,
      "dest_block_id": 16,
      "crane": 0,
      "start_time": 93.09999990460818,
      "end_time": 97.09999990460818,
      "source_cor": "(21,0,0)",
      "dest_cor": "(17,1,0)"
    }
  ]
}