{
  "instance": "20_1_0.7m.json",
  "comments": "solution by integrated AWSP formulation",
  "objective": 486.558860702183,
  "bap_objective": 333.0,
  "csp_objective": 640.1177214043659,
  "products": [
    {
      "id": 80,
      "type": "output",
      "source_block_id": 432,
      "dest_block_id": 566,
      "crane": 0,
      "start_time": 95.49999999999598,
      "end_time": 102.49999999999598,
      "source_cor": "(13,13,0)",
      "dest_cor": "(20,16,0)"
    },
    {
      "id": 186,
      "type": "output",
      "source_block_id": 0,
      "dest_block_id": 608,
      "crane": 0,
      "start_time": 140.4999998050535,
      "end_time": 175.4999998050535,
      "source_cor": "(1,1,0)",
      "dest_cor": "(36,5,0)"
    },
    {
      "id": 367,
      "type": "input",
      "source_block_id": 530,
      "dest_block_id": 291,
      "crane": 0,
      "start_time": 1.4999999999999996,
      "end_time": 11.5,
      "source_cor": "(2,16,0)",
      "dest_cor": "(12,9,0)"
    },
    {
      "id": 368,
      "type": "input",
      "source_block_id": 614,
      "dest_block_id": 244,
      "crane": 1,
      "start_time": 3.0999999046325675,
      "end_time": 4.0999999046325675,
      "source_cor": "(36,8,0)",
      "dest_cor": "(35,7,0)"
    },
    {
      "id": 369,
      "type": "input",
      "source_block_id": 600,
      "dest_block_id": 304,
      "crane": 1,
      "start_time": 10.09999990462802,
      "end_time": 21.09999990462802,
      "source_cor": "(36,1,0)",
      "dest_cor": "(25,9,0)"
    },
    {
      "id": 370,
      "type": "input",
      "source_block_id": 628,
      "dest_block_id": 521,
      "crane": 1,
      "start_time": 43.09999990462336,
      "end_time": 47.09999990462336,
      "source_cor": "(36,15,0)",
      "dest_cor": "(32,15,0)"
    },
    {
      "id": 371,
      "type": "input",
      "source_block_id": 571,
      "dest_block_id": 127,
      "crane": 1,
      "start_time": 62.09999990462438,
      "end_time": 66.09999990462438,
      "source_cor": "(23,0,0)",
      "dest_cor": "(23,4,0)"
    },
    {
      "id": 372,
      "type": "input",
      "source_block_id": 555,
      "dest_block_id": 194,
      "crane": 0,
      "start_time": 20.499999999998522,
      "end_time": 26.499999999998522,
      "source_cor": "(15,0,0)",
      "dest_cor": "(20,6,0)"
    },
    {
      "id": 373,
      "type": "input",
      "source_block_id": 570,
      "dest_block_id": 511,
      "crane": 1,
      "start_time": 28.099999904626088,
      "end_time": 29.099999904626088,
      "source_cor": "(22,16,0)",
      "dest_cor": "(22,15,0)"
    },
    {
      "id": 374,
      "type": "input",
      "source_block_id": 553,
      "dest_block_id": 225,
      "crane": 0,
      "start_time": 32.499999999998295,
      "end_time": 39.499999999998295,
      "source_cor": "(14,0,0)",
      "dest_cor": "(16,7,0)"
    },
    {
      "id": 375,
      "type": "input",
      "source_block_id": 541,
      "dest_block_id": 180,
      "crane": 0,
      "start_time": 47.49999999999693,
      "end_time": 53.49999999999693,
      "source_cor": "(8,0,0)",
      "dest_cor": "(6,6,0)"
    },
    {
      "id": 376,
      "type": "input",
      "source_block_id": 537,
      "dest_block_id": 38,
      "crane": 0,
      "start_time": 59.49999999999693,
      "end_time": 61.49999999999693,
      "source_cor": "(6,0,0)",
      "dest_cor": "(4,2,0)"
    },
    {
      "id": 377,
      "type": "input",
      "source_block_id": 600,
      "dest_block_id": 200,
      "crane": 1,
      "start_time": 79.0999999046254,
      "end_time": 89.0999999046254,
      "source_cor": "(36,1,0)",
      "dest_cor": "(26,6,0)"
    },
    {
      "id": 378,
      "type": "input",
      "source_block_id": 536,
      "dest_block_id": 497,
      "crane": 0,
      "start_time": 87.49999999999599,
      "end_time": 90.49999999999599,
      "source_cor": "(5,16,0)",
      "dest_cor": "(8,15,0)"
    },
    {
      "id": 379,
      "type": "input",
      "source_block_id": 543,
      "dest_block_id": 10,
      "crane": 0,
      "start_time": 66.49999999999616,
      "end_time": 68.49999999999616,
      "source_cor": "(9,0,0)",
      "dest_cor": "(11,1,0)"
    },
    {
      "id": 380,
      "type": "input",
      "source_block_id": 619,
      "dest_block_id": 385,
      "crane": 0,
      "start_time": 79.49999999999613,
      "end_time": 80.49999999999613,
      "source_cor": "(0,11,0)",
      "dest_cor": "(1,12,0)"
    },
    {
      "id": 381,
      "type": "input",
      "source_block_id": 575,
      "dest_block_id": 363,
      "crane": 1,
      "start_time": 100.49999999999633,
      "end_time": 111.49999999999633,
      "source_cor": "(25,0,0)",
      "dest_cor": "(14,11,0)"
    },
    {
      "id": 382,
      "type": "input",
      "source_block_id": 619,
      "dest_block_id": 456,
      "crane": 0,
      "start_time": 81.49999999999608,
      "end_time": 84.49999999999608,
      "source_cor": "(0,11,0)",
      "dest_cor": "(2,14,0)"
    },
    {
      "id": 383,
      "type": "input",
      "source_block_id": 559,
      "dest_block_id": 327,
      "crane": 0,
      "start_time": 118.4999999999962,
      "end_time": 128.4999999999962,
      "source_cor": "(17,0,0)",
      "dest_cor": "(13,10,0)"
    },
    {
      "id": 384,
      "type": "input",
      "source_block_id": 591,
      "dest_block_id": 228,
      "crane": 1,
      "start_time": 130.49999999999807,
      "end_time": 144.49999999999807,
      "source_cor": "(33,0,0)",
      "dest_cor": "(19,7,0)"
    }
  ]
}