{
  "instance": "30_1_0.5s.json",
  "comments": "solution by integrated AWSP formulation",
  "objective": 469.8188384804155,
  "bap_objective": 210.0,
  "csp_objective": 729.637676960831,
  "products": [
    {
      "id": 5,
      "type": "output",
      "source_block_id": 67,
      "dest_block_id": 301,
      "crane": 1,
      "start_time": 101.69999980925832,
      "end_time": 109.69999980925832,
      "source_cor": "(18,3,0)",
      "dest_cor": "(25,11,0)"
    },
    {
      "id": 73,
      "type": "output",
      "source_block_id": 187,
      "dest_block_id": 260,
      "crane": 0,
      "start_time": 31.600000381453114,
      "end_time": 39.600000381453114,
      "source_cor": "(13,8,0)",
      "dest_cor": "(5,0,0)"
    },
    {
      "id": 112,
      "type": "output",
      "source_block_id": 16,
      "dest_block_id": 263,
      "crane": 0,
      "start_time": 145.6999998092582,
      "end_time": 156.6999998092582,
      "source_cor": "(17,1,0)",
      "dest_cor": "(6,11,0)"
    },
    {
      "id": 125,
      "type": "input",
      "source_block_id": 256,
      "dest_block_id": 81,
      "crane": 0,
      "start_time": 1.4999999999999996,
      "end_time": 5.5,
      "source_cor": "(3,0,0)",
      "dest_cor": "(7,4,0)"
    },
    {
      "id": 126,
      "type": "input",
      "source_block_id": 323,
      "dest_block_id": 247,
      "crane": 1,
      "start_time": 3.0999999046325675,
      "end_time": 6.0999999046325675,
      "source_cor": "(26,10,0)",
      "dest_cor": "(23,10,0)"
    },
    {
      "id": 127,
      "type": "input",
      "source_block_id": 285,
      "dest_block_id": 238,
      "crane": 1,
      "start_time": 18.69999980926559,
      "end_time": 21.69999980926559,
      "source_cor": "(17,11,0)",
      "dest_cor": "(14,10,0)"
    },
    {
      "id": 128,
      "type": "input",
      "source_block_id": 299,
      "dest_block_id": 249,
      "crane": 1,
      "start_time": 9.699999809265135,
      "end_time": 10.699999809265135,
      "source_cor": "(24,11,0)",
      "dest_cor": "(25,10,0)"
    },
    {
      "id": 129,
      "type": "input",
      "source_block_id": 255,
      "dest_block_id": 59,
      "crane": 0,
      "start_time": 12.600000381469723,
      "end_time": 20.600000381469723,
      "source_cor": "(2,11,0)",
      "dest_cor": "(10,3,0)"
    },
    {
      "id": 130,
      "type": "input",
      "source_block_id": 264,
      "dest_block_id": 33,
      "crane": 0,
      "start_time": 23.60000038147018,
      "end_time": 25.60000038147018,
      "source_cor": "(7,0,0)",
      "dest_cor": "(9,2,0)"
    },
    {
      "id": 131,
      "type": "input",
      "source_block_id": 307,
      "dest_block_id": 24,
      "crane": 1,
      "start_time": 70.69999980925658,
      "end_time": 71.69999980925658,
      "source_cor": "(26,2,0)",
      "dest_cor": "(25,1,0)"
    },
    {
      "id": 132,
      "type": "input",
      "source_block_id": 258,
      "dest_block_id": 1,
      "crane": 0,
      "start_time": 40.60000038145171,
      "end_time": 42.60000038145171,
      "source_cor": "(4,0,0)",
      "dest_cor": "(2,1,0)"
    },
    {
      "id": 133,
      "type": "input",
      "source_block_id": 292,
      "dest_block_id": 44,
      "crane": 1,
      "start_time": 31.69999980926667,
      "end_time": 33.69999980926667,
      "source_cor": "(21,0,0)",
      "dest_cor": "(20,2,0)"
    },
    {
      "id": 134,
      "type": "input",
      "source_block_id": 278,
      "dest_block_id": 90,
      "crane": 1,
      "start_time": 56.6999998092562,
      "end_time": 60.6999998092562,
      "source_cor": "(14,0,0)",
      "dest_cor": "(16,4,0)"
    },
    {
      "id": 135,
      "type": "input",
      "source_block_id": 284,
      "dest_block_id": 42,
      "crane": 1,
      "start_time": 36.69999980925496,
      "end_time": 38.69999980925496,
      "source_cor": "(17,0,0)",
      "dest_cor": "(18,2,0)"
    },
    {
      "id": 136,
      "type": "input",
      "source_block_id": 312,
      "dest_block_id": 175,
      "crane": 0,
      "start_time": 64.69999980925871,
      "end_time": 67.69999980925871,
      "source_cor": "(0,5,0)",
      "dest_cor": "(1,8,0)"
    },
    {
      "id": 137,
      "type": "input",
      "source_block_id": 286,
      "dest_block_id": 186,
      "crane": 1,
      "start_time": 40.699999809255424,
      "end_time": 48.699999809255424,
      "source_cor": "(18,0,0)",
      "dest_cor": "(12,8,0)"
    },
    {
      "id": 138,
      "type": "input",
      "source_block_id": 310,
      "dest_block_id": 52,
      "crane": 0,
      "start_time": 45.60000038145036,
      "end_time": 48.60000038145036,
      "source_cor": "(0,4,0)",
      "dest_cor": "(3,3,0)"
    },
    {
      "id": 139,
      "type": "input",
      "source_block_id": 266,
      "dest_block_id": 57,
      "crane": 0,
      "start_time": 53.69999980925602,
      "end_time": 56.69999980925602,
      "source_cor": "(8,0,0)",
      "dest_cor": "(8,3,0)"
    },
    {
      "id": 140,
      "type": "input",
      "source_block_id": 307,
      "dest_block_id": 22,
      "crane": 1,
      "start_time": 72.69999980925456,
      "end_time": 75.69999980925456,
      "source_cor": "(26,2,0)",
      "dest_cor": "(23,1,0)"
    },
    {
      "id": 141,
      "type": "input",
      "source_block_id": 312,
      "dest_block_id": 227,
      "crane": 0,
      "start_time": 70.69999980925655,
      "end_time": 75.69999980925655,
      "source_cor": "(0,5,0)",
      "dest_cor": "(3,10,0)"
    },
    {
      "id": 142,
      "type": "input",
      "source_block_id": 261,
      "dest_block_id": 232,
      "crane": 0,
      "start_time": 77.69999980925652,
      "end_time": 80.69999980925652,
      "source_cor": "(5,11,0)",
      "dest_cor": "(8,10,0)"
    },
    {
      "id": 143,
      "type": "input",
      "source_block_id": 278,
      "dest_block_id": 62,
      "crane": 1,
      "start_time": 84.6999998092547,
      "end_time": 87.6999998092547,
      "source_cor": "(14,0,0)",
      "dest_cor": "(13,3,0)"
    },
    {
      "id": 144,
      "type": "input",
      "source_block_id": 266,
      "dest_block_id": 208,
      "crane": 0,
      "start_time": 96.69999980925728,
      "end_time": 105.69999980925728,
      "source_cor": "(8,0,0)",
      "dest_cor": "(9,9,0)"
    },
    {
      "id": 145,
      "type": "input",
      "source_block_id": 322,
      "dest_block_id": 182,
      "crane": 0,
      "start_time": 114.69999980925729,
      "end_time": 122.69999980925729,
      "source_cor": "(0,10,0)",
      "dest_cor": "(8,8,0)"
    },
    {
      "id": 146,
      "type": "input",
      "source_block_id": 256,
      "dest_block_id": 54,
      "crane": 0,
      "start_time": 90.69999980925692,
      "end_time": 93.69999980925692,
      "source_cor": "(3,0,0)",
      "dest_cor": "(5,3,0)"
    },
    {
      "id": 147,
      "type": "input",
      "source_block_id": 270,
      "dest_block_id": 88,
      "crane": 1,
      "start_time": 93.69999980925728,
      "end_time": 97.69999980925728,
      "source_cor": "(10,0,0)",
      "dest_cor": "(14,4,0)"
    },
    {
      "id": 148,
      "type": "input",
      "source_block_id": 266,
      "dest_block_id": 184,
      "crane": 0,
      "start_time": 130.69999980925775,
      "end_time": 138.69999980925775,
      "source_cor": "(8,0,0)",
      "dest_cor": "(10,8,0)"
    },
    {
      "id": 149,
      "type": "input",
      "source_block_id": 307,
      "dest_block_id": 198,
      "crane": 1,
      "start_time": 126.69999980925809,
      "end_time": 132.6999998092581,
      "source_cor": "(26,2,0)",
      "dest_cor": "(24,8,0)"
    },
    {
      "id": 150,
      "type": "input",
      "source_block_id": 292,
      "dest_block_id": 20,
      "crane": 1,
      "start_time": 120.69999980925871,
      "end_time": 121.69999980925871,
      "source_cor": "(21,0,0)",
      "dest_cor": "(21,1,0)"
    },
    {
      "id": 151,
      "type": "input",
      "source_block_id": 289,
      "dest_block_id": 192,
      "crane": 1,
      "start_time": 137.69999980925823,
      "end_time": 140.69999980925823,
      "source_cor": "(19,11,0)",
      "dest_cor": "(18,8,0)"
    }
  ]
}