{
  "instance": "50_1_0.5l.json",
  "comments": "solution by integrated AWSP formulation",
  "objective": 5006.6233135946195,
  "bap_objective": 146.0,
  "csp_objective": 9867.246627189239,
  "products": [
    {
      "id": 14,
      "type": "output",
      "source_block_id": 161,
      "dest_block_id": 1115,
      "crane": 0,
      "start_time": 681.2000007629188,
      "end_time": 720.2000007629188,
      "source_cor": "(12,4,0)",
      "dest_cor": "(51,6,0)"
    },
    {
      "id": 165,
      "type": "output",
      "source_block_id": 346,
      "dest_block_id": 1109,
      "crane": 1,
      "start_time": 65.200000762924,
      "end_time": 69.200000762924,
      "source_cor": "(47,7,0)",
      "dest_cor": "(51,3,0)"
    },
    {
      "id": 167,
      "type": "output",
      "source_block_id": 159,
      "dest_block_id": 1068,
      "crane": 0,
      "start_time": 385.20000076291853,
      "end_time": 409.20000076291853,
      "source_cor": "(10,4,0)",
      "dest_cor": "(34,0,0)"
    },
    {
      "id": 198,
      "type": "output",
      "source_block_id": 847,
      "dest_block_id": 1119,
      "crane": 1,
      "start_time": 613.2000007629188,
      "end_time": 622.2000007629188,
      "source_cor": "(48,17,0)",
      "dest_cor": "(51,8,0)"
    },
    {
      "id": 234,
      "type": "output",
      "source_block_id": 580,
      "dest_block_id": 1070,
      "crane": 0,
      "start_time": 421.2000007629192,
      "end_time": 433.2000007629192,
      "source_cor": "(31,12,0)",
      "dest_cor": "(35,0,0)"
    },
    {
      "id": 249,
      "type": "output",
      "source_block_id": 128,
      "dest_block_id": 1092,
      "crane": 1,
      "start_time": 369.20000076291853,
      "end_time": 386.20000076291853,
      "source_cor": "(29,3,0)",
      "dest_cor": "(46,0,0)"
    },
    {
      "id": 393,
      "type": "output",
      "source_block_id": 48,
      "dest_block_id": 1065,
      "crane": 1,
      "start_time": 577.2000007629188,
      "end_time": 597.2000007629188,
      "source_cor": "(49,1,0)",
      "dest_cor": "(32,21,0)"
    },
    {
      "id": 418,
      "type": "output",
      "source_block_id": 821,
      "dest_block_id": 1069,
      "crane": 1,
      "start_time": 246.20000076291853,
      "end_time": 258.20000076291853,
      "source_cor": "(22,17,0)",
      "dest_cor": "(34,21,0)"
    },
    {
      "id": 484,
      "type": "output",
      "source_block_id": 648,
      "dest_block_id": 1054,
      "crane": 0,
      "start_time": 447.20000076291876,
      "end_time": 469.20000076291876,
      "source_cor": "(49,13,0)",
      "dest_cor": "(27,0,0)"
    },
    {
      "id": 485,
      "type": "output",
      "source_block_id": 984,
      "dest_block_id": 1065,
      "crane": 1,
      "start_time": 411.20000076291853,
      "end_time": 414.20000076291853,
      "source_cor": "(35,20,0)",
      "dest_cor": "(32,21,0)"
    },
    {
      "id": 500,
      "type": "input",
      "source_block_id": 1141,
      "dest_block_id": 883,
      "crane": 0,
      "start_time": 127.200000762924,
      "end_time": 144.200000762924,
      "source_cor": "(51,19,0)",
      "dest_cor": "(34,18,0)"
    },
    {
      "id": 501,
      "type": "input",
      "source_block_id": 1089,
      "dest_block_id": 983,
      "crane": 1,
      "start_time": 223.200000762924,
      "end_time": 233.200000762924,
      "source_cor": "(44,21,0)",
      "dest_cor": "(34,20,0)"
    },
    {
      "id": 502,
      "type": "input",
      "source_block_id": 1066,
      "dest_block_id": 129,
      "crane": 1,
      "start_time": 6.699999809264909,
      "end_time": 9.69999980926491,
      "source_cor": "(33,0,0)",
      "dest_cor": "(30,3,0)"
    },
    {
      "id": 503,
      "type": "input",
      "source_block_id": 1035,
      "dest_block_id": 405,
      "crane": 0,
      "start_time": 9.699999809265135,
      "end_time": 21.699999809265137,
      "source_cor": "(17,21,0)",
      "dest_cor": "(6,9,0)"
    },
    {
      "id": 504,
      "type": "input",
      "source_block_id": 1075,
      "dest_block_id": 379,
      "crane": 0,
      "start_time": 147.200000762924,
      "end_time": 160.200000762924,
      "source_cor": "(37,21,0)",
      "dest_cor": "(30,8,0)"
    },
    {
      "id": 505,
      "type": "input",
      "source_block_id": 1046,
      "dest_block_id": 21,
      "crane": 1,
      "start_time": 16.699999809265144,
      "end_time": 17.699999809265144,
      "source_cor": "(23,0,0)",
      "dest_cor": "(22,1,0)"
    },
    {
      "id": 506,
      "type": "input",
      "source_block_id": 1129,
      "dest_block_id": 636,
      "crane": 1,
      "start_time": 179.200000762924,
      "end_time": 193.200000762924,
      "source_cor": "(51,13,0)",
      "dest_cor": "(37,13,0)"
    },
    {
      "id": 507,
      "type": "input",
      "source_block_id": 1012,
      "dest_block_id": 5,
      "crane": 0,
      "start_time": 72.200000762924,
      "end_time": 73.200000762924,
      "source_cor": "(6,0,0)",
      "dest_cor": "(6,1,0)"
    },
    {
      "id": 508,
      "type": "input",
      "source_block_id": 1098,
      "dest_block_id": 197,
      "crane": 1,
      "start_time": 72.200000762924,
      "end_time": 76.200000762924,
      "source_cor": "(49,0,0)",
      "dest_cor": "(48,4,0)"
    },
    {
      "id": 509,
      "type": "input",
      "source_block_id": 1095,
      "dest_block_id": 43,
      "crane": 1,
      "start_time": 147.200000762924,
      "end_time": 167.200000762924,
      "source_cor": "(47,21,0)",
      "dest_cor": "(44,1,0)"
    },
    {
      "id": 510,
      "type": "input",
      "source_block_id": 1006,
      "dest_block_id": 2,
      "crane": 0,
      "start_time": 33.29999923706055,
      "end_time": 34.29999923706055,
      "source_cor": "(3,0,0)",
      "dest_cor": "(3,1,0)"
    },
    {
      "id": 511,
      "type": "input",
      "source_block_id": 1046,
      "dest_block_id": 127,
      "crane": 0,
      "start_time": 90.200000762924,
      "end_time": 95.200000762924,
      "source_cor": "(23,0,0)",
      "dest_cor": "(28,3,0)"
    },
    {
      "id": 512,
      "type": "input",
      "source_block_id": 1049,
      "dest_block_id": 976,
      "crane": 1,
      "start_time": 42.200000762924006,
      "end_time": 45.200000762924006,
      "source_cor": "(24,21,0)",
      "dest_cor": "(27,20,0)"
    },
    {
      "id": 513,
      "type": "input",
      "source_block_id": 1018,
      "dest_block_id": 7,
      "crane": 0,
      "start_time": 41.200000762939446,
      "end_time": 42.200000762939446,
      "source_cor": "(9,0,0)",
      "dest_cor": "(8,1,0)"
    },
    {
      "id": 514,
      "type": "input",
      "source_block_id": 1090,
      "dest_block_id": 594,
      "crane": 1,
      "start_time": 95.200000762924,
      "end_time": 107.200000762924,
      "source_cor": "(45,0,0)",
      "dest_cor": "(45,12,0)"
    },
    {
      "id": 515,
      "type": "input",
      "source_block_id": 1099,
      "dest_block_id": 797,
      "crane": 1,
      "start_time": 116.200000762924,
      "end_time": 121.200000762924,
      "source_cor": "(49,21,0)",
      "dest_cor": "(48,16,0)"
    },
    {
      "id": 516,
      "type": "input",
      "source_block_id": 1005,
      "dest_block_id": 672,
      "crane": 0,
      "start_time": 188.200000762924,
      "end_time": 209.200000762924,
      "source_cor": "(2,21,0)",
      "dest_cor": "(23,14,0)"
    },
    {
      "id": 517,
      "type": "input",
      "source_block_id": 1133,
      "dest_block_id": 749,
      "crane": 1,
      "start_time": 209.200000762924,
      "end_time": 210.200000762924,
      "source_cor": "(51,15,0)",
      "dest_cor": "(50,15,0)"
    },
    {
      "id": 518,
      "type": "input",
      "source_block_id": 1018,
      "dest_block_id": 152,
      "crane": 0,
      "start_time": 223.200000762924,
      "end_time": 229.200000762924,
      "source_cor": "(9,0,0)",
      "dest_cor": "(3,4,0)"
    },
    {
      "id": 519,
      "type": "input",
      "source_block_id": 1035,
      "dest_block_id": 814,
      "crane": 0,
      "start_time": 246.200000762924,
      "end_time": 250.200000762924,
      "source_cor": "(17,21,0)",
      "dest_cor": "(15,17,0)"
    },
    {
      "id": 520,
      "type": "input",
      "source_block_id": 1110,
      "dest_block_id": 100,
      "crane": 0,
      "start_time": 496.20000076291876,
      "end_time": 497.20000076291876,
      "source_cor": "(0,4,0)",
      "dest_cor": "(1,3,0)"
    },
    {
      "id": 521,
      "type": "input",
      "source_block_id": 1011,
      "dest_block_id": 902,
      "crane": 0,
      "start_time": 272.200000762924,
      "end_time": 274.200000762924,
      "source_cor": "(5,21,0)",
      "dest_cor": "(3,19,0)"
    },
    {
      "id": 522,
      "type": "input",
      "source_block_id": 1082,
      "dest_block_id": 272,
      "crane": 0,
      "start_time": 354.20000076291853,
      "end_time": 372.20000076291853,
      "source_cor": "(41,0,0)",
      "dest_cor": "(23,6,0)"
    },
    {
      "id": 523,
      "type": "input",
      "source_block_id": 1141,
      "dest_block_id": 78,
      "crane": 1,
      "start_time": 317.20000076291853,
      "end_time": 339.20000076291853,
      "source_cor": "(51,19,0)",
      "dest_cor": "(29,2,0)"
    },
    {
      "id": 524,
      "type": "input",
      "source_block_id": 1005,
      "dest_block_id": 853,
      "crane": 0,
      "start_time": 304.20000076292445,
      "end_time": 307.20000076292445,
      "source_cor": "(2,21,0)",
      "dest_cor": "(4,18,0)"
    },
    {
      "id": 525,
      "type": "input",
      "source_block_id": 1074,
      "dest_block_id": 30,
      "crane": 1,
      "start_time": 361.20000076291853,
      "end_time": 367.20000076291853,
      "source_cor": "(37,0,0)",
      "dest_cor": "(31,1,0)"
    },
    {
      "id": 526,
      "type": "input",
      "source_block_id": 1034,
      "dest_block_id": 268,
      "crane": 1,
      "start_time": 279.20000076291853,
      "end_time": 285.20000076291853,
      "source_cor": "(17,0,0)",
      "dest_cor": "(19,6,0)"
    },
    {
      "id": 527,
      "type": "input",
      "source_block_id": 1035,
      "dest_block_id": 964,
      "crane": 0,
      "start_time": 260.200000762924,
      "end_time": 262.200000762924,
      "source_cor": "(17,21,0)",
      "dest_cor": "(15,20,0)"
    },
    {
      "id": 528,
      "type": "input",
      "source_block_id": 1122,
      "dest_block_id": 203,
      "crane": 0,
      "start_time": 283.20000076292456,
      "end_time": 288.20000076292456,
      "source_cor": "(0,10,0)",
      "dest_cor": "(4,5,0)"
    },
    {
      "id": 529,
      "type": "input",
      "source_block_id": 1078,
      "dest_block_id": 130,
      "crane": 1,
      "start_time": 460.20000076291876,
      "end_time": 468.20000076291876,
      "source_cor": "(39,0,0)",
      "dest_cor": "(31,3,0)"
    },
    {
      "id": 530,
      "type": "input",
      "source_block_id": 1029,
      "dest_block_id": 758,
      "crane": 0,
      "start_time": 515.2000007629188,
      "end_time": 520.2000007629188,
      "source_cor": "(14,21,0)",
      "dest_cor": "(9,16,0)"
    },
    {
      "id": 531,
      "type": "input",
      "source_block_id": 1077,
      "dest_block_id": 633,
      "crane": 1,
      "start_time": 515.2000007629188,
      "end_time": 523.2000007629188,
      "source_cor": "(38,21,0)",
      "dest_cor": "(34,13,0)"
    },
    {
      "id": 532,
      "type": "input",
      "source_block_id": 1126,
      "dest_block_id": 255,
      "crane": 0,
      "start_time": 529.2000007629188,
      "end_time": 535.2000007629188,
      "source_cor": "(0,12,0)",
      "dest_cor": "(6,6,0)"
    },
    {
      "id": 533,
      "type": "input",
      "source_block_id": 1125,
      "dest_block_id": 649,
      "crane": 1,
      "start_time": 488.20000076291876,
      "end_time": 490.20000076291876,
      "source_cor": "(51,11,0)",
      "dest_cor": "(50,13,0)"
    },
    {
      "id": 534,
      "type": "input",
      "source_block_id": 1095,
      "dest_block_id": 584,
      "crane": 0,
      "start_time": 576.2000007629188,
      "end_time": 588.2000007629188,
      "source_cor": "(47,21,0)",
      "dest_cor": "(35,12,0)"
    },
    {
      "id": 535,
      "type": "input",
      "source_block_id": 1020,
      "dest_block_id": 111,
      "crane": 0,
      "start_time": 660.2000007629188,
      "end_time": 663.2000007629188,
      "source_cor": "(10,0,0)",
      "dest_cor": "(12,3,0)"
    },
    {
      "id": 536,
      "type": "input",
      "source_block_id": 1139,
      "dest_block_id": 834,
      "crane": 1,
      "start_time": 669.2000007629188,
      "end_time": 685.2000007629188,
      "source_cor": "(51,18,0)",
      "dest_cor": "(35,17,0)"
    },
    {
      "id": 537,
      "type": "input",
      "source_block_id": 1114,
      "dest_block_id": 250,
      "crane": 0,
      "start_time": 650.2000007629188,
      "end_time": 651.2000007629188,
      "source_cor": "(0,6,0)",
      "dest_cor": "(1,6,0)"
    },
    {
      "id": 538,
      "type": "input",
      "source_block_id": 1057,
      "dest_block_id": 765,
      "crane": 0,
      "start_time": 622.2000007629188,
      "end_time": 634.2000007629188,
      "source_cor": "(28,21,0)",
      "dest_cor": "(16,16,0)"
    },
    {
      "id": 539,
      "type": "input",
      "source_block_id": 1036,
      "dest_block_id": 258,
      "crane": 0,
      "start_time": 669.2000007629188,
      "end_time": 678.2000007629188,
      "source_cor": "(18,0,0)",
      "dest_cor": "(9,6,0)"
    }
  ]
}