{
  "instance": "50_1_0.7m.json",
  "comments": "solution by integrated AWSP formulation",
  "objective": 62714.96871510361,
  "bap_objective": 3030.0,
  "csp_objective": 85626.93743020722,
  "products": [
    {
      "id": 10,
      "type": "output",
      "source_block_id": 248,
      "dest_block_id": 594,
      "crane": 1,
      "start_time": 378.4000015258789,
      "end_time": 408.4000015258789,
      "source_cor": "(4,8,0)",
      "dest_cor": "(34,16,0)"
    },
    {
      "id": 80,
      "type": "output",
      "source_block_id": 432,
      "dest_block_id": 566,
      "crane": 1,
      "start_time": 514.4000015258789,
      "end_time": 521.4000015258789,
      "source_cor": "(13,13,0)",
      "dest_cor": "(20,16,0)"
    },
    {
      "id": 101,
      "type": "output",
      "source_block_id": 274,
      "dest_block_id": 590,
      "crane": 1,
      "start_time": 678.4000015258807,
      "end_time": 686.4000015258807,
      "source_cor": "(30,8,0)",
      "dest_cor": "(32,16,0)"
    },
    {
      "id": 138,
      "type": "output",
      "source_block_id": 520,
      "dest_block_id": 573,
      "crane": 1,
      "start_time": 687.4000015258807,
      "end_time": 702.4000015258807,
      "source_cor": "(31,15,0)",
      "dest_cor": "(24,0,0)"
    },
    {
      "id": 186,
      "type": "output",
      "source_block_id": 0,
      "dest_block_id": 608,
      "crane": 1,
      "start_time": 937.4000015258916,
      "end_time": 972.4000015258916,
      "source_cor": "(1,1,0)",
      "dest_cor": "(36,5,0)"
    },
    {
      "id": 207,
      "type": "output",
      "source_block_id": 100,
      "dest_block_id": 595,
      "crane": 1,
      "start_time": 178.40000152588073,
      "end_time": 182.40000152588073,
      "source_cor": "(31,3,0)",
      "dest_cor": "(35,0,0)"
    },
    {
      "id": 252,
      "type": "output",
      "source_block_id": 14,
      "dest_block_id": 566,
      "crane": 1,
      "start_time": 307.4000015258789,
      "end_time": 322.4000015258789,
      "source_cor": "(15,1,0)",
      "dest_cor": "(20,16,0)"
    },
    {
      "id": 276,
      "type": "output",
      "source_block_id": 253,
      "dest_block_id": 528,
      "crane": 1,
      "start_time": 604.4000015258807,
      "end_time": 612.4000015258807,
      "source_cor": "(9,8,0)",
      "dest_cor": "(1,16,0)"
    },
    {
      "id": 294,
      "type": "output",
      "source_block_id": 297,
      "dest_block_id": 572,
      "crane": 1,
      "start_time": 583.4000015258807,
      "end_time": 590.4000015258807,
      "source_cor": "(18,9,0)",
      "dest_cor": "(23,16,0)"
    },
    {
      "id": 346,
      "type": "output",
      "source_block_id": 458,
      "dest_block_id": 572,
      "crane": 1,
      "start_time": 725.4000015258825,
      "end_time": 744.4000015258825,
      "source_cor": "(4,14,0)",
      "dest_cor": "(23,16,0)"
    },
    {
      "id": 367,
      "type": "input",
      "source_block_id": 530,
      "dest_block_id": 458,
      "crane": 1,
      "start_time": 9961.5,
      "end_time": 9963.5,
      "source_cor": "(2,16,0)",
      "dest_cor": "(4,14,0)"
    },
    {
      "id": 368,
      "type": "input",
      "source_block_id": 614,
      "dest_block_id": 259,
      "crane": 1,
      "start_time": 9995.499999999998,
      "end_time": 10016.499999999998,
      "source_cor": "(36,8,0)",
      "dest_cor": "(15,8,0)"
    },
    {
      "id": 369,
      "type": "input",
      "source_block_id": 600,
      "dest_block_id": 34,
      "crane": 1,
      "start_time": 92.4000015258789,
      "end_time": 93.4000015258789,
      "source_cor": "(36,1,0)",
      "dest_cor": "(35,1,0)"
    },
    {
      "id": 370,
      "type": "input",
      "source_block_id": 628,
      "dest_block_id": 101,
      "crane": 1,
      "start_time": 338.4000015258807,
      "end_time": 350.4000015258807,
      "source_cor": "(36,15,0)",
      "dest_cor": "(32,3,0)"
    },
    {
      "id": 371,
      "type": "input",
      "source_block_id": 571,
      "dest_block_id": 75,
      "crane": 1,
      "start_time": 554.4000015258789,
      "end_time": 571.4000015258789,
      "source_cor": "(23,0,0)",
      "dest_cor": "(6,3,0)"
    },
    {
      "id": 372,
      "type": "input",
      "source_block_id": 555,
      "dest_block_id": 14,
      "crane": 1,
      "start_time": 711.4000015258807,
      "end_time": 712.4000015258807,
      "source_cor": "(15,0,0)",
      "dest_cor": "(15,1,0)"
    },
    {
      "id": 373,
      "type": "input",
      "source_block_id": 570,
      "dest_block_id": 476,
      "crane": 1,
      "start_time": 914.4000015258898,
      "end_time": 916.4000015258898,
      "source_cor": "(22,16,0)",
      "dest_cor": "(22,14,0)"
    },
    {
      "id": 374,
      "type": "input",
      "source_block_id": 553,
      "dest_block_id": 46,
      "crane": 1,
      "start_time": 24.499999999999993,
      "end_time": 26.499999999999993,
      "source_cor": "(14,0,0)",
      "dest_cor": "(12,2,0)"
    },
    {
      "id": 375,
      "type": "input",
      "source_block_id": 541,
      "dest_block_id": 89,
      "crane": 1,
      "start_time": 30.50000000000182,
      "end_time": 42.50000000000182,
      "source_cor": "(8,0,0)",
      "dest_cor": "(20,3,0)"
    },
    {
      "id": 376,
      "type": "input",
      "source_block_id": 537,
      "dest_block_id": 72,
      "crane": 1,
      "start_time": 147.4000015258789,
      "end_time": 150.4000015258789,
      "source_cor": "(6,0,0)",
      "dest_cor": "(3,3,0)"
    },
    {
      "id": 377,
      "type": "input",
      "source_block_id": 600,
      "dest_block_id": 232,
      "crane": 1,
      "start_time": 807.4000015258825,
      "end_time": 820.4000015258825,
      "source_cor": "(36,1,0)",
      "dest_cor": "(23,7,0)"
    },
    {
      "id": 378,
      "type": "input",
      "source_block_id": 536,
      "dest_block_id": 38,
      "crane": 1,
      "start_time": 437.4000015258789,
      "end_time": 451.4000015258789,
      "source_cor": "(5,16,0)",
      "dest_cor": "(4,2,0)"
    },
    {
      "id": 379,
      "type": "input",
      "source_block_id": 543,
      "dest_block_id": 40,
      "crane": 1,
      "start_time": 9944.499999999998,
      "end_time": 9947.499999999998,
      "source_cor": "(9,0,0)",
      "dest_cor": "(6,2,0)"
    },
    {
      "id": 380,
      "type": "input",
      "source_block_id": 619,
      "dest_block_id": 248,
      "crane": 1,
      "start_time": 9932.499999999996,
      "end_time": 9936.499999999996,
      "source_cor": "(0,11,0)",
      "dest_cor": "(4,8,0)"
    },
    {
      "id": 381,
      "type": "input",
      "source_block_id": 575,
      "dest_block_id": 159,
      "crane": 1,
      "start_time": 874.4000015258862,
      "end_time": 879.4000015258862,
      "source_cor": "(25,0,0)",
      "dest_cor": "(20,5,0)"
    },
    {
      "id": 382,
      "type": "input",
      "source_block_id": 619,
      "dest_block_id": 283,
      "crane": 0,
      "start_time": 46.4000015258789,
      "end_time": 50.4000015258789,
      "source_cor": "(0,11,0)",
      "dest_cor": "(4,9,0)"
    },
    {
      "id": 383,
      "type": "input",
      "source_block_id": 559,
      "dest_block_id": 9,
      "crane": 0,
      "start_time": 63.400001525878906,
      "end_time": 70.4000015258789,
      "source_cor": "(17,0,0)",
      "dest_cor": "(10,1,0)"
    },
    {
      "id": 384,
      "type": "input",
      "source_block_id": 591,
      "dest_block_id": 127,
      "crane": 1,
      "start_time": 892.400001525888,
      "end_time": 902.400001525888,
      "source_cor": "(33,0,0)",
      "dest_cor": "(23,4,0)"
    },
    {
      "id": 385,
      "type": "input",
      "source_block_id": 623,
      "dest_block_id": 70,
      "crane": 0,
      "start_time": 82.4000015258789,
      "end_time": 92.4000015258789,
      "source_cor": "(0,13,0)",
      "dest_cor": "(1,3,0)"
    },
    {
      "id": 386,
      "type": "input",
      "source_block_id": 534,
      "dest_block_id": 143,
      "crane": 0,
      "start_time": 105.4000015258789,
      "end_time": 116.4000015258789,
      "source_cor": "(4,16,0)",
      "dest_cor": "(4,5,0)"
    },
    {
      "id": 387,
      "type": "input",
      "source_block_id": 545,
      "dest_block_id": 459,
      "crane": 0,
      "start_time": 122.4000015258789,
      "end_time": 136.4000015258789,
      "source_cor": "(10,0,0)",
      "dest_cor": "(5,14,0)"
    },
    {
      "id": 388,
      "type": "input",
      "source_block_id": 558,
      "dest_block_id": 432,
      "crane": 0,
      "start_time": 523.4000015258789,
      "end_time": 526.4000015258789,
      "source_cor": "(16,16,0)",
      "dest_cor": "(13,13,0)"
    },
    {
      "id": 389,
      "type": "input",
      "source_block_id": 598,
      "dest_block_id": 477,
      "crane": 1,
      "start_time": 9896.499999999998,
      "end_time": 9909.499999999998,
      "source_cor": "(36,16,0)",
      "dest_cor": "(23,14,0)"
    },
    {
      "id": 390,
      "type": "input",
      "source_block_id": 602,
      "dest_block_id": 189,
      "crane": 0,
      "start_time": 186.4000015258789,
      "end_time": 207.4000015258789,
      "source_cor": "(36,2,0)",
      "dest_cor": "(15,6,0)"
    },
    {
      "id": 391,
      "type": "input",
      "source_block_id": 575,
      "dest_block_id": 19,
      "crane": 0,
      "start_time": 217.4000015258789,
      "end_time": 222.4000015258789,
      "source_cor": "(25,0,0)",
      "dest_cor": "(20,1,0)"
    },
    {
      "id": 392,
      "type": "input",
      "source_block_id": 597,
      "dest_block_id": 223,
      "crane": 0,
      "start_time": 238.4000015258789,
      "end_time": 260.4000015258789,
      "source_cor": "(36,0,0)",
      "dest_cor": "(14,7,0)"
    },
    {
      "id": 393,
      "type": "input",
      "source_block_id": 607,
      "dest_block_id": 210,
      "crane": 0,
      "start_time": 145.4000015258789,
      "end_time": 147.4000015258789,
      "source_cor": "(0,5,0)",
      "dest_cor": "(1,7,0)"
    },
    {
      "id": 394,
      "type": "input",
      "source_block_id": 537,
      "dest_block_id": 456,
      "crane": 0,
      "start_time": 268.4000015258789,
      "end_time": 282.4000015258789,
      "source_cor": "(6,0,0)",
      "dest_cor": "(2,14,0)"
    },
    {
      "id": 395,
      "type": "input",
      "source_block_id": 622,
      "dest_block_id": 217,
      "crane": 0,
      "start_time": 486.4000015258789,
      "end_time": 514.4000015258789,
      "source_cor": "(36,12,0)",
      "dest_cor": "(8,7,0)"
    },
    {
      "id": 396,
      "type": "input",
      "source_block_id": 607,
      "dest_block_id": 0,
      "crane": 0,
      "start_time": 972.4000015258916,
      "end_time": 976.4000015258916,
      "source_cor": "(0,5,0)",
      "dest_cor": "(1,1,0)"
    },
    {
      "id": 397,
      "type": "input",
      "source_block_id": 531,
      "dest_block_id": 212,
      "crane": 0,
      "start_time": 296.4000015258789,
      "end_time": 303.4000015258789,
      "source_cor": "(3,0,0)",
      "dest_cor": "(3,7,0)"
    },
    {
      "id": 398,
      "type": "input",
      "source_block_id": 574,
      "dest_block_id": 324,
      "crane": 0,
      "start_time": 9868.499999999998,
      "end_time": 9882.499999999998,
      "source_cor": "(24,16,0)",
      "dest_cor": "(10,10,0)"
    },
    {
      "id": 399,
      "type": "input",
      "source_block_id": 603,
      "dest_block_id": 351,
      "crane": 0,
      "start_time": 307.4000015258789,
      "end_time": 315.4000015258789,
      "source_cor": "(0,3,0)",
      "dest_cor": "(2,11,0)"
    },
    {
      "id": 400,
      "type": "input",
      "source_block_id": 564,
      "dest_block_id": 363,
      "crane": 0,
      "start_time": 9891.499999999998,
      "end_time": 9896.499999999998,
      "source_cor": "(19,16,0)",
      "dest_cor": "(14,11,0)"
    },
    {
      "id": 401,
      "type": "input",
      "source_block_id": 541,
      "dest_block_id": 286,
      "crane": 0,
      "start_time": 590.4000015258807,
      "end_time": 599.4000015258807,
      "source_cor": "(8,0,0)",
      "dest_cor": "(7,9,0)"
    },
    {
      "id": 402,
      "type": "input",
      "source_block_id": 557,
      "dest_block_id": 497,
      "crane": 0,
      "start_time": 539.4000015258789,
      "end_time": 554.4000015258789,
      "source_cor": "(16,0,0)",
      "dest_cor": "(8,15,0)"
    },
    {
      "id": 403,
      "type": "input",
      "source_block_id": 591,
      "dest_block_id": 391,
      "crane": 1,
      "start_time": 830.4000015258844,
      "end_time": 856.4000015258844,
      "source_cor": "(33,0,0)",
      "dest_cor": "(7,12,0)"
    },
    {
      "id": 404,
      "type": "input",
      "source_block_id": 622,
      "dest_block_id": 462,
      "crane": 0,
      "start_time": 650.4000015258807,
      "end_time": 678.4000015258807,
      "source_cor": "(36,12,0)",
      "dest_cor": "(8,14,0)"
    },
    {
      "id": 405,
      "type": "input",
      "source_block_id": 602,
      "dest_block_id": 118,
      "crane": 0,
      "start_time": 760.4000015258825,
      "end_time": 782.4000015258825,
      "source_cor": "(36,2,0)",
      "dest_cor": "(14,4,0)"
    },
    {
      "id": 406,
      "type": "input",
      "source_block_id": 602,
      "dest_block_id": 502,
      "crane": 0,
      "start_time": 804.4000015258825,
      "end_time": 827.4000015258825,
      "source_cor": "(36,2,0)",
      "dest_cor": "(13,15,0)"
    }
  ]
}